phone_number,call_type,call_duration,call_location_longitude,call_location_latitude
050-7242243,out-call,3134,31.4856024314,34.4494998987
050-2843080,in-call,13,31.450049612,34.411394682
050-2279771,in-call,3286,31.4329153018,34.3846338139
050-5436066,out-call,118,31.4467623485,34.3877190687
050-5423255,out-call,16,31.3923722782,34.3511375083
