phone_number,call_type,call_duration,call_location_longitude,call_location_latitude
050-8596878,out-call,3109,31.4157527287,34.3725690053
050-5801472,in-call,34,31.4340575361,34.3864494613
050-2902855,in-call,1202,31.466442087,34.4249774767
050-1346185,in-call,115,31.4476071334,34.4199758785
050-9357077,out-call,1860,31.4482773785,34.3884988525
050-9916580,out-call,2571,31.4411469288,34.3848542905
050-2972380,in-call,3570,31.423483446,34.3655155728
050-5963192,out-call,3351,31.4648264652,34.4408487626
