phone_number,call_type,call_duration,call_location_longitude,call_location_latitude
050-7611604,out-call,52,31.4533604314,34.3932175974
050-8331496,in-call,14,31.469516677,34.4357324876
050-1565236,out-call,65,31.4470854489,34.4110997095
050-9531216,in-call,66,31.4555615497,34.4190317725
050-5197251,in-call,116,31.4590830559,34.4152484485
