phone_number,call_type,call_duration,call_location_longitude,call_location_latitude
050-4689152,out-call,78,31.4063313345,34.3667687148
050-7482697,in-call,1145,31.4177956393,34.3723642361
050-4238807,out-call,949,31.4681101719,34.4243052261
050-9405297,out-call,2933,31.4571264098,34.4204431006
050-1885082,in-call,87,31.4569768974,34.4087521158
050-9066710,out-call,63,31.3941799514,34.3310251222
050-9376027,in-call,47,31.4681438368,34.4358442864
050-1636428,out-call,24,31.3851518154,34.3371004068
