phone_number,call_type,call_duration,call_location_longitude,call_location_latitude
050-1268488,out-call,64,31.4740015689,34.4579819752
050-9384553,out-call,1814,31.4602559889,34.4190455515
050-4968384,in-call,31,31.4503163262,34.4142343565
050-7147340,in-call,24,31.4619810966,34.4267384961
050-3569524,in-call,2054,31.437978779,34.4137717434
050-2788883,out-call,61,31.4531344006,34.4098699149
050-8716517,in-call,3273,31.4447702363,34.3911987043
050-7337286,out-call,95,31.4124862952,34.371886135
050-7124295,out-call,88,31.472796634,34.4545441662
