phone_number,call_type,call_duration,call_location_longitude,call_location_latitude
050-5584883,out-call,70,31.4275951377,34.393872244
050-7457507,in-call,29,31.4362699422,34.4044721017
050-8102737,in-call,64,31.422391179,34.3841899202
050-4309654,out-call,92,31.4328860309,34.4078935132
050-8270246,in-call,16,31.4433547256,34.42009203
