phone_number,call_type,call_duration,call_location_longitude,call_location_latitude
050-6600182,out-call,20,31.4788414802,34.4279272339
050-7223141,in-call,3261,31.4428572364,34.375642547
050-9505482,in-call,541,31.438169332,34.4045140775
050-3016501,in-call,36,31.4162740981,34.3696218053
050-9931862,out-call,2717,31.4293020979,34.3751677395
050-3532229,in-call,558,31.4153757213,34.3716241802
050-3293895,in-call,73,31.474503229,34.4377767207
050-3841991,in-call,60,31.4398057389,34.4073811871
