phone_number,call_type,call_duration,call_location_longitude,call_location_latitude
050-9147506,in-call,61,31.4874216063,34.4379888242
050-2513150,in-call,730,31.4656383869,34.4456726482
050-4101373,out-call,2170,31.4523788088,34.4195516399
050-2122814,out-call,27,31.4422606239,34.3901518847
050-6247167,in-call,2389,31.4016514627,34.3424610059
050-8784896,in-call,1148,31.4621326068,34.4155113862
050-2174328,in-call,109,31.4747057243,34.4207461209
050-4454813,in-call,2110,31.4458689471,34.4191246856
050-3990447,out-call,1734,31.4565268768,34.4193475266
