phone_number,call_type,call_duration,call_location_longitude,call_location_latitude
050-5692340,out-call,115,31.4712681736,34.4277290209
050-5590085,in-call,2010,31.4565590108,34.4214185675
050-8677796,in-call,3504,31.4591148274,34.4077411583
050-4797413,out-call,15,31.4500443577,34.4106075804
050-6957913,in-call,2192,31.5090734048,34.4595040924
050-6960225,out-call,79,31.4644184281,34.4519590786
