phone_number,call_type,call_duration,call_location_longitude,call_location_latitude
050-1010618,out-call,1791,31.4497656325,34.429607285
050-9599731,out-call,2683,31.4231939332,34.3592286708
050-3003065,out-call,117,31.470968707,34.4289534532
050-3134579,out-call,571,31.4650504862,34.4313490425
050-5663367,in-call,14,31.4856024314,34.4494998987
050-9727797,out-call,3295,31.3815611954,34.3402374344
050-4030871,in-call,2361,31.4402798259,34.4181465084
050-3472989,out-call,63,31.4680377681,34.4266869515
