phone_number,call_type,call_duration,call_location_longitude,call_location_latitude
050-8167337,out-call,1329,31.4461536446,34.4213858179
050-3813850,in-call,70,31.4511699764,34.4180950311
050-1399980,out-call,45,31.394008858,34.3447264158
050-1185362,out-call,3336,31.4578496888,34.4177872698
050-9387649,out-call,78,31.4924500301,34.4775428782
050-7626643,out-call,102,31.3988934495,34.3739620372
