phone_number,call_type,call_duration,call_location_longitude,call_location_latitude
050-2830116,in-call,997,31.4293541415,34.3973716736
050-1520746,in-call,90,31.4397752844,34.4048828103
050-2067730,out-call,3031,31.4625033741,34.4115822361
050-6824003,out-call,1052,31.4410681672,34.4212649434
050-5607430,out-call,769,31.4447121368,34.4029775748
050-2117624,in-call,20,31.40819454,34.3589957761
050-9430705,in-call,39,31.4253198587,34.3860537083
