phone_number,call_type,call_duration,call_location_longitude,call_location_latitude
050-1616216,in-call,12,31.4366624523,34.3892339106
050-1073217,out-call,87,31.4679919105,34.434584837
050-2085423,in-call,69,31.404626619,34.3693541497
050-4137030,in-call,84,31.4054521383,34.367755519
050-7340843,in-call,62,31.4701592612,34.4241542024
050-2962450,out-call,24,31.4074602479,34.3786606795
050-6203401,out-call,2846,31.4643768888,34.4188466108
