phone_number,call_type,call_duration,call_location_longitude,call_location_latitude
050-3078783,in-call,2302,31.4280172329,34.3952887806
050-3494492,in-call,2534,31.4744019526,34.4398889359
050-2903889,in-call,728,31.4464031417,34.3759286262
050-1153424,in-call,113,31.4543574377,34.4128167653
050-3512259,in-call,931,31.3978884451,34.3646703475
