phone_number,call_type,call_duration,call_location_longitude,call_location_latitude
050-1709844,in-call,3447,31.4574834208,34.4220582875
050-6027624,in-call,668,31.4741628531,34.4604923804
050-6426564,out-call,355,31.4765695111,34.4310951161
050-9655942,in-call,1351,31.4636173934,34.4116596399
050-4755509,in-call,10,31.4885116498,34.4571171188
