phone_number,call_type,call_duration,call_location_longitude,call_location_latitude
050-2128483,in-call,3330,31.4672449188,34.4362546193
050-9164304,out-call,28,31.4729955763,34.4404847715
050-7002985,in-call,29,31.4745083922,34.4320146954
050-1390684,in-call,61,31.4714043707,34.4459420352
050-7241889,in-call,32,31.4437328396,34.4180621788
