phone_number,call_type,call_duration,call_location_longitude,call_location_latitude
050-7486150,in-call,311,31.3797933199,34.3200448328
050-9463129,in-call,72,31.4602145644,34.4176654625
050-2575783,out-call,1300,31.4571398718,34.3873794017
050-5777669,in-call,78,31.4807435226,34.4451840038
050-8260786,out-call,2410,31.475472992,34.4327264816
050-7909883,in-call,21,31.4569643465,34.4124131229
050-9232100,in-call,103,31.41205523,34.3678748972
050-8423892,in-call,31,31.4294325252,34.377847411
