phone_number,call_type,call_duration,call_location_longitude,call_location_latitude
050-1283070,in-call,437,31.4574079093,34.4080405318
050-8054250,in-call,25,31.3906685064,34.3358486865
050-7496177,out-call,53,31.4745858792,34.4294217045
050-2706108,in-call,58,31.4664307647,34.4211462317
050-1302868,in-call,108,31.4738178998,34.4314487525
050-5043596,out-call,1871,31.4131642775,34.3726206349
050-6927013,out-call,16,31.4140459961,34.3900482452
