phone_number,call_type,call_duration,call_location_longitude,call_location_latitude
050-5792567,out-call,59,31.46296571,34.4083291779
050-4038845,in-call,24,31.3865311874,34.325871127
050-7491062,out-call,870,31.4816384473,34.4444183123
050-1608879,in-call,2903,31.4714290953,34.4263281871
050-6839913,in-call,17,31.4176636461,34.3654709939
050-1287587,out-call,36,31.4457318593,34.4171718132
050-7846683,in-call,387,31.4844595396,34.4395222146
