phone_number,call_type,call_duration,call_location_longitude,call_location_latitude
050-9185266,out-call,1135,31.4552667421,34.4260425294
050-2275053,out-call,2918,31.4121956534,34.3690327663
050-6740532,in-call,1404,31.4614807191,34.4398085802
050-5478953,out-call,653,31.4586391967,34.4261292702
050-9019341,out-call,2806,31.4615992462,34.4518776226
050-3705073,in-call,40,31.4640690655,34.4291798695
050-3754294,in-call,1713,31.46849095,34.4299624465
050-3379880,in-call,2478,31.3537518981,34.305090283
050-2944245,out-call,61,31.451729874,34.3862899183
