phone_number,call_type,call_duration,call_location_longitude,call_location_latitude
050-6342728,out-call,105,31.4162740981,34.3696218053
050-6989677,in-call,23,31.465098196,34.4205460031
050-6818921,in-call,1950,31.4618056615,34.4246353741
050-5995293,in-call,45,31.4501539065,34.4215287331
050-2364432,in-call,653,31.4291176397,34.418843157
050-5481784,in-call,2905,31.4118632426,34.3778975067
