phone_number,call_type,call_duration,call_location_longitude,call_location_latitude
050-9410594,in-call,82,31.4598032711,34.4158283978
050-8508724,in-call,49,31.4681061059,34.4258609779
050-9578769,out-call,95,31.3892280586,34.3440058983
050-6647774,in-call,18,31.4657863474,34.4254451874
050-6646134,out-call,2381,31.4437283665,34.3908680286
