phone_number,call_type,call_duration,call_location_longitude,call_location_latitude
050-7234101,in-call,2506,31.4416541641,34.4111617078
050-2915601,out-call,78,31.4504578171,34.4232805659
050-8912914,out-call,3424,31.3768198619,34.3397222254
050-8267415,out-call,2217,31.4424835496,34.4155205286
050-6004176,in-call,3149,31.4571596287,34.4187963295
050-4198963,out-call,2082,31.471209528,34.4273093094
050-1369378,in-call,119,31.4821755087,34.4453231272
050-7344482,in-call,1906,31.4715332848,34.4174969269
