phone_number,call_type,call_duration,call_location_longitude,call_location_latitude
050-8277327,out-call,20,31.4647254763,34.428789071
050-8133858,out-call,2656,31.4566661451,34.4272856078
050-5236764,out-call,2921,31.4628894047,34.4349881685
050-7228015,in-call,138,31.4407366306,34.4191936608
050-3054794,in-call,341,31.4736061795,34.4273601016
050-2655715,in-call,19,31.4614942493,34.4257699606
050-6350339,out-call,2433,31.4501869498,34.4159313923
