phone_number,call_type,call_duration,call_location_longitude,call_location_latitude
050-3489365,out-call,3463,31.4538688432,34.413819924
050-5113079,in-call,33,31.4614942493,34.4257699606
050-8993261,out-call,107,31.4515875462,34.41670139
050-5492389,out-call,964,31.4759934282,34.4195025259
050-1416570,out-call,1865,31.4493963003,34.4160769281
050-2085398,in-call,2688,31.4751046992,34.4405492842
050-2841580,out-call,41,31.4650275465,34.436264348
050-7299381,in-call,465,31.485186073,34.4503220474
050-7992646,in-call,2648,31.4454346133,34.4103558941
