phone_number,call_type,call_duration,call_location_longitude,call_location_latitude
050-6025549,out-call,3030,31.4119157513,34.3684194438
050-1722595,in-call,291,31.4300777229,34.3974362919
050-8310702,in-call,18,31.3968798254,34.3631537658
050-2857336,in-call,72,31.4684817028,34.4379984063
050-7529823,in-call,3536,31.4590830559,34.4152484485
050-3264323,in-call,1909,31.4441785254,34.3753061844
050-7396048,out-call,578,31.4376252216,34.4066906378
