phone_number,call_type,call_duration,call_location_longitude,call_location_latitude
050-2722315,in-call,33,31.4689525064,34.4227713386
050-1750354,out-call,3176,31.4823763709,34.4382790856
050-3773178,in-call,1692,31.4647254763,34.428789071
050-1147106,in-call,3081,31.4487953511,34.4151899136
050-6173095,in-call,2771,31.4833230677,34.4324186827
050-8529355,out-call,57,31.4859855685,34.4551117227
