phone_number,call_type,call_duration,call_location_longitude,call_location_latitude
050-9405806,in-call,2162,31.4589025502,34.4175639232
050-3001831,out-call,2564,31.3935332878,34.3429315879
050-8832002,out-call,1425,31.4597638457,34.4234097505
050-4936383,out-call,34,31.4550476705,34.4177584331
050-1027282,in-call,3276,31.4745906425,34.4270314708
050-7366037,in-call,2025,31.3700678243,34.3286565723
