phone_number,call_type,call_duration,call_location_longitude,call_location_latitude
050-4474204,in-call,1497,31.4524980033,34.4181580358
050-6793999,in-call,393,31.4833230677,34.4324186827
050-6703896,out-call,1806,31.4665325384,34.4287534473
050-7498388,in-call,11,31.4277144352,34.3954581062
050-9344580,out-call,100,31.4267245,34.3975551139
050-6725414,out-call,1180,31.4609313664,34.4154692021
050-4526814,in-call,100,31.4608022113,34.4211737172
