phone_number,call_type,call_duration,call_location_longitude,call_location_latitude
050-4419010,in-call,2630,31.4554431226,34.4184802445
050-8112303,in-call,2414,31.4505080017,34.4107241454
050-4619025,out-call,31,31.463447091,34.4207345671
050-1695849,in-call,33,31.3910807229,34.3518989083
050-3265154,out-call,155,31.4256380027,34.41376036
