phone_number,call_type,call_duration,call_location_longitude,call_location_latitude
050-7353562,in-call,111,31.4720674366,34.4455291764
050-6290900,out-call,24,31.4376781928,34.3873253226
050-6731550,out-call,1631,31.4034377289,34.3772579836
050-1061541,in-call,73,31.4879146702,34.4514982917
050-1506428,out-call,1750,31.4713568138,34.4329883565
