phone_number,call_type,call_duration,call_location_longitude,call_location_latitude
050-5888152,in-call,85,31.4910247756,34.4638925643
050-5145370,out-call,750,31.4510746214,34.4129889062
050-3878791,in-call,98,31.3810729087,34.3431676622
050-4028844,in-call,1234,31.4862830332,34.4357066643
050-3831061,out-call,2813,31.4128516048,34.3469154077
050-4809358,out-call,32,31.4639417277,34.4255806458
050-7660543,out-call,2573,31.4387735212,34.3852259875
