phone_number,call_type,call_duration,call_location_longitude,call_location_latitude
050-7004158,out-call,108,31.4720565134,34.4253308709
050-8882870,out-call,40,31.4721618688,34.424565971
050-4714009,in-call,18,31.4381916104,34.3853631677
050-3174395,out-call,509,31.4718091617,34.4274740163
050-9374527,out-call,237,31.4558658447,34.4158947471
050-5448885,in-call,63,31.4387735212,34.3852259875
050-3293456,in-call,103,31.4555313959,34.4138723505
050-3812959,in-call,30,31.44811418,34.4187849885
050-7133068,out-call,44,31.4567959219,34.398772746
