phone_number,call_type,call_duration,call_location_longitude,call_location_latitude
050-3650583,out-call,67,31.4618085712,34.4296563345
050-6153908,in-call,2002,31.4731859249,34.44124727
050-1216074,out-call,2028,31.4685024504,34.4203116071
050-7791732,in-call,3506,31.4527512276,34.4123798941
050-6987166,out-call,774,31.4526051462,34.4144973507
050-1504543,out-call,36,31.4532471366,34.4258433155
050-8695841,out-call,1963,31.4126121498,34.3722609295
050-4341208,out-call,111,31.4074307167,34.3685163725
