phone_number,call_type,call_duration,call_location_longitude,call_location_latitude
050-4105079,in-call,98,31.4092343599,34.3666406907
050-9256664,in-call,2464,31.4514775244,34.4124337127
050-2203558,in-call,60,31.4567696415,34.4301896294
050-6648427,in-call,598,31.4650525166,34.4332893346
050-6907591,out-call,26,31.4230156708,34.3653991997
050-4318685,in-call,3505,31.4501869498,34.4159313923
