phone_number,call_type,call_duration,call_location_longitude,call_location_latitude
050-8605419,out-call,98,31.4569643465,34.4124131229
050-8945086,in-call,74,31.4839692301,34.4470652742
050-9139465,out-call,1564,31.4493685079,34.4126496315
050-4107975,out-call,73,31.4617625879,34.4152957159
050-5203714,in-call,88,31.4145621614,34.368235777
050-1583192,out-call,2541,31.4168937381,34.3723923459
