phone_number,call_type,call_duration,call_location_longitude,call_location_latitude
050-7009503,in-call,43,31.4607666867,34.4221382585
050-3894602,out-call,3206,31.4522064674,34.4161538217
050-9062983,in-call,1196,31.393553106,34.3443836972
050-7321868,out-call,1042,31.4479347719,34.4184366883
050-5086728,in-call,111,31.4822680598,34.4525014161
050-9951727,in-call,2471,31.3963108651,34.3638535821
050-1707625,out-call,1557,31.4111829108,34.3571264894
050-9192964,out-call,2381,31.427097377,34.3947114808
050-7364852,in-call,94,31.4114630561,34.3570633591
