phone_number,call_type,call_duration,call_location_longitude,call_location_latitude
050-5477102,in-call,87,31.4787793929,34.4342517489
050-9569172,out-call,71,31.447827605,34.4210342006
050-3004076,out-call,1425,31.4670827559,34.4180314067
050-2660807,in-call,29,31.4701592612,34.4241542024
050-1680122,in-call,2764,31.4087034385,34.3712107025
050-3782835,in-call,2162,31.4311943654,34.401957397
