phone_number,call_type,call_duration,call_location_longitude,call_location_latitude
050-1999509,out-call,2018,31.3960832361,34.3632410953
050-3079909,out-call,3423,31.3977275415,34.3638058621
050-6369966,out-call,3555,31.4593226812,34.411206188
050-1014530,in-call,67,31.4619741224,34.4136218748
050-5289746,out-call,74,31.4707072749,34.4360829169
050-1223796,in-call,573,31.4656941694,34.4192257807
050-3841094,in-call,2045,31.4884287946,34.4514734756
050-5132164,in-call,1897,31.3973134795,34.3426901099
050-8617011,in-call,86,31.397600903,34.3636443302
