phone_number,call_type,call_duration,call_location_longitude,call_location_latitude
050-7193973,out-call,683,31.4501539065,34.4215287331
050-9249508,out-call,3477,31.4084499137,34.3663679082
050-1052399,in-call,26,31.4618291398,34.4344809616
050-6930751,out-call,1367,31.4718381075,34.4301420025
050-9118122,out-call,3547,31.3650861948,34.3234230455
050-2958038,in-call,80,31.4593226812,34.411206188
050-7679912,out-call,17,31.4387254494,34.3898034343
050-5670859,out-call,34,31.4643695885,34.4328526449
