phone_number,call_type,call_duration,call_location_longitude,call_location_latitude
050-3154916,out-call,90,31.4606968676,34.420696451
050-3426888,out-call,110,31.4492478502,34.4149096152
050-9188305,out-call,3021,31.4101549423,34.381478588
050-3170551,out-call,2969,31.3820786124,34.3342060817
050-4219873,in-call,75,31.4073868279,34.3763047638
050-5356021,in-call,20,31.4537867155,34.4299099438
050-2853984,in-call,160,31.4478629325,34.4186291843
