phone_number,call_type,call_duration,call_location_longitude,call_location_latitude
050-3202937,in-call,62,31.3820786124,34.3342060817
050-4042411,in-call,1545,31.490687727,34.451370718
050-9302414,in-call,1966,31.4731446669,34.4217549063
050-3352264,in-call,975,31.4720565134,34.4253308709
050-2055413,out-call,1531,31.4292855574,34.3646004466
