phone_number,call_type,call_duration,call_location_longitude,call_location_latitude
050-7769726,in-call,93,31.4029504962,34.3769749208
050-3791059,out-call,25,31.4761328323,34.4360624788
050-8444070,out-call,83,31.4807909366,34.4316673012
050-6035645,in-call,12,31.3910807229,34.3518989083
050-1655419,out-call,73,31.4955484426,34.4502712782
