phone_number,call_type,call_duration,call_location_longitude,call_location_latitude
050-4585141,in-call,3360,31.4536887659,34.4123480838
050-7760694,out-call,111,31.4220985229,34.3624456702
050-8919935,in-call,116,31.473106825,34.4315745589
050-4941925,in-call,39,31.4608205952,34.4319889753
050-7542884,in-call,113,31.4064311039,34.3713270253
050-8272517,out-call,1881,31.4519789645,34.4179423792
050-4171508,out-call,2395,31.4876386254,34.4527809227
