phone_number,call_type,call_duration,call_location_longitude,call_location_latitude
050-9380841,out-call,42,31.5040985765,34.479430491
050-6821030,out-call,1429,31.4421308838,34.3859444957
050-8649436,in-call,1829,31.4877329536,34.4447988512
050-2018964,in-call,106,31.4187195646,34.370896626
050-5148967,in-call,1738,31.4597845242,34.4249816493
