phone_number,call_type,call_duration,call_location_longitude,call_location_latitude
050-6992311,in-call,112,31.4547238975,34.4045318774
050-7112426,out-call,47,31.396332952,34.3450235326
050-2118345,out-call,1955,31.4502281316,34.409914564
050-1221279,in-call,1562,31.4829601287,34.4622451087
050-5727272,in-call,90,31.4566741914,34.4263430156
050-6180013,in-call,2292,31.479643957,34.4473397644
