phone_number,call_type,call_duration,call_location_longitude,call_location_latitude
050-3133529,out-call,2582,31.4420435416,34.414862774
050-7294220,out-call,100,31.4532572839,34.421373547
050-1188900,out-call,749,31.4069351588,34.3903470153
050-7765890,out-call,3245,31.4686654616,34.4349283319
050-9855318,out-call,2046,31.4446299783,34.4206850031
050-3318248,out-call,23,31.4685813945,34.4315349089
050-1739081,out-call,48,31.4529557246,34.419748969
