phone_number,call_type,call_duration,call_location_longitude,call_location_latitude
050-2458818,out-call,10,31.4576891757,34.4135877594
050-1179021,out-call,22,31.4601884488,34.4319844123
050-7117917,out-call,701,31.4650176588,34.4349114112
050-2392070,in-call,925,31.4084774927,34.3456713983
050-2980677,in-call,42,31.4042330273,34.3670854073
