phone_number,call_type,call_duration,call_location_longitude,call_location_latitude
050-7412237,out-call,114,31.47175844,34.44541926
050-3663099,out-call,111,31.4495503469,34.4011847749
050-3873919,in-call,812,31.4184590536,34.3687100996
050-8608656,out-call,3570,31.3944666735,34.3632319695
050-9351843,in-call,117,31.4308302379,34.3962529786
050-1019543,out-call,10,31.4464126436,34.3770954006
050-6006623,in-call,2219,31.383552896,34.3327684958
