phone_number,call_type,call_duration,call_location_longitude,call_location_latitude
050-6115821,out-call,2973,31.4858810031,34.4471384127
050-8137952,out-call,2930,31.4839167601,34.4507995414
050-8462095,in-call,2050,31.4340153418,34.4148745414
050-1745193,in-call,1549,31.4608125998,34.4169705429
050-6493792,in-call,2838,31.4534789636,34.409513921
