phone_number,call_type,call_duration,call_location_longitude,call_location_latitude
050-2382157,out-call,1180,31.4665789357,34.4035634993
050-9539290,out-call,1996,31.4572358504,34.4094845669
050-8696125,in-call,79,31.4178412374,34.3632433349
050-8946710,out-call,1409,31.4744229576,34.4298713634
050-6770934,out-call,2007,31.4810032442,34.44941372
050-5054822,in-call,1298,31.452716313,34.4121785651
050-6961522,in-call,2663,31.4720807696,34.4415552627
