phone_number,call_type,call_duration,call_location_longitude,call_location_latitude
050-1362122,in-call,56,31.404394757,34.3674562261
050-8816755,in-call,3543,31.4477099109,34.4227363835
050-3782393,in-call,2814,31.4724820116,34.4372099933
050-5245609,in-call,2575,31.4795574995,34.4389983994
050-6718909,out-call,1923,31.4557598145,34.3919358875
050-8285253,out-call,956,31.4483279172,34.4127975535
