phone_number,call_type,call_duration,call_location_longitude,call_location_latitude
050-1949565,in-call,102,31.445690252,34.3749452566
050-9251669,out-call,839,31.4103042514,34.3743617148
050-9515352,out-call,2932,31.4320593243,34.4000777445
050-1487867,out-call,2422,31.4554107069,34.4142565368
050-8595776,in-call,2995,31.4561147189,34.4232802807
050-8706855,in-call,2712,31.4327903586,34.4052396259
