phone_number,call_type,call_duration,call_location_longitude,call_location_latitude
050-9463415,in-call,2215,31.4768588393,34.4313785936
050-8684464,in-call,1901,31.4087784641,34.3744304181
050-9645047,out-call,68,31.4101188788,34.3783558506
050-5794228,out-call,3178,31.4483928668,34.4217106729
050-4920921,in-call,1724,31.4563352575,34.4231678044
050-8121545,out-call,3480,31.4069950115,34.3462384131
