phone_number,call_type,call_duration,call_location_longitude,call_location_latitude
050-7521355,out-call,584,31.4296275873,34.3782714112
050-7602830,out-call,115,31.4396861122,34.4159522766
050-1478527,out-call,21,31.4060673095,34.3702847061
050-6945661,out-call,84,31.4861506843,34.4519970006
050-5704609,in-call,51,31.4481896749,34.4055523797
