phone_number,call_type,call_duration,call_location_longitude,call_location_latitude
050-6561626,out-call,1824,31.4663646035,34.4270451291
050-3963814,out-call,110,31.4547212752,34.4166370567
050-1848036,out-call,1371,31.4075398817,34.384961288
050-7338180,out-call,3582,31.4518659959,34.4160782907
050-3671084,out-call,76,31.3925437606,34.3470697368
050-8460306,out-call,3362,31.4762081723,34.4204324232
050-6973591,in-call,2492,31.4131991074,34.3674895639
