phone_number,call_type,call_duration,call_location_longitude,call_location_latitude
050-1039519,out-call,2057,31.4665325384,34.4287534473
050-5842654,in-call,35,31.462410228,34.431840007
050-7323399,in-call,64,31.4407201382,34.3880815707
050-4835986,in-call,106,31.4413528321,34.424101096
050-9320615,out-call,3041,31.4501053096,34.4159147547
050-1996030,in-call,41,31.4650275465,34.436264348
