phone_number,call_type,call_duration,call_location_longitude,call_location_latitude
050-5128103,out-call,79,31.4723488014,34.4368062169
050-9852040,out-call,252,31.4581304339,34.4181840464
050-1374168,out-call,1849,31.4674263472,34.4341393241
050-9602840,in-call,308,31.479035083,34.4210583502
050-2358364,in-call,2394,31.4064594594,34.368588051
050-1427044,out-call,87,31.4477958442,34.384370636
050-5870296,out-call,2347,31.4514775244,34.4124337127
