phone_number,call_type,call_duration,call_location_longitude,call_location_latitude
050-5547296,in-call,497,31.4259474029,34.3852200291
050-3076242,out-call,43,31.4563060759,34.4158516668
050-4262324,in-call,118,31.4424480254,34.3916706491
050-9989040,out-call,52,31.4339897107,34.3787783111
050-4977055,out-call,2942,31.4102046979,34.3592035968
050-2255299,out-call,1248,31.4395386713,34.4114137344
050-6997288,in-call,302,31.461884707,34.4153433944
050-2296956,in-call,44,31.4857780302,34.4505071091
