phone_number,call_type,call_duration,call_location_longitude,call_location_latitude
050-7494894,out-call,1245,31.4653152119,34.4199350765
050-8100528,out-call,3140,31.4450817447,34.4111072356
050-2954655,in-call,3327,31.4388893389,34.4242956047
050-2185353,out-call,567,31.4571264098,34.4204431006
050-4178481,in-call,2885,31.4583737395,34.4363555717
050-9949129,out-call,27,31.4605692659,34.4263998871
050-8946492,in-call,2928,31.4501674529,34.4152219216
050-4627991,out-call,868,31.4555262965,34.3830235859
