phone_number,call_type,call_duration,call_location_longitude,call_location_latitude
050-5196480,out-call,44,31.4204034425,34.3680625953
050-2461081,out-call,2197,31.4597491089,34.4199937387
050-4931978,in-call,1895,31.4439182865,34.421721717
050-2027563,in-call,31,31.4566661451,34.4272856078
050-1372778,out-call,62,31.4005290874,34.347511676
050-6802185,in-call,3128,31.4512780923,34.4142799075
050-3974032,in-call,88,31.4525179292,34.4206958962
050-4753539,in-call,2724,31.4814239951,34.4439571087
050-6692512,in-call,58,31.4437328396,34.4180621788
