phone_number,call_type,call_duration,call_location_longitude,call_location_latitude
050-1239101,out-call,3128,31.4105552451,34.3742425533
050-9606019,out-call,671,31.4596330148,34.4216669942
050-1770976,out-call,57,31.4519564724,34.4077406447
050-2002795,out-call,71,31.4911417075,34.4475043948
050-2047239,in-call,40,31.4493323551,34.410081641
