phone_number,call_type,call_duration,call_location_longitude,call_location_latitude
050-1854004,in-call,182,31.4411469288,34.3848542905
050-6645838,in-call,1363,31.422537047,34.3627287909
050-7606623,out-call,2063,31.4296275873,34.3782714112
050-5663461,in-call,1129,31.4652189441,34.4286367757
050-9730345,out-call,89,31.4676979074,34.4044812239
