phone_number,call_type,call_duration,call_location_longitude,call_location_latitude
050-7635221,in-call,98,31.4476071334,34.4199758785
050-5939611,in-call,15,31.4370237445,34.4153312545
050-4459119,in-call,1423,31.4727316909,34.4222488928
050-1125118,out-call,536,31.456201745,34.4347320478
050-2005353,out-call,2193,31.4602145644,34.4176654625
050-5111658,in-call,3269,31.4642439894,34.4438144158
050-1638046,in-call,1128,31.4157619174,34.3693282246
050-4239944,out-call,79,31.459992128,34.4344104599
