phone_number,call_type,call_duration,call_location_longitude,call_location_latitude
050-8259753,out-call,661,31.4501395041,34.4253819726
050-5193152,out-call,2972,31.4566456907,34.3983165395
050-4808194,out-call,108,31.485186073,34.4503220474
050-6153156,out-call,115,31.444584685,34.3909052999
050-5975009,in-call,61,31.477628419,34.4472212832
