phone_number,call_type,call_duration,call_location_longitude,call_location_latitude
050-4483000,in-call,115,31.4544152322,34.3878857332
050-2787819,in-call,1751,31.4859855685,34.4551117227
050-8351956,out-call,109,31.4724076515,34.4248313154
050-6672559,in-call,1276,31.4430895764,34.3777116564
050-8544915,in-call,1042,31.4477554782,34.4031077497
050-6097546,out-call,2150,31.3856031989,34.3397749851
050-6017285,out-call,34,31.4349730763,34.4000537446
050-5327914,in-call,39,31.4487368087,34.4032234402
