phone_number,call_type,call_duration,call_location_longitude,call_location_latitude
050-4626564,out-call,3427,31.4746695262,34.4340052809
050-8484002,out-call,60,31.451018948,34.4092977545
050-1140622,in-call,63,31.4720821603,34.4374686372
050-2328840,in-call,30,31.4722312541,34.4212346032
050-4553701,in-call,78,31.4458531724,34.4144221978
