phone_number,call_type,call_duration,call_location_longitude,call_location_latitude
050-5074638,out-call,120,31.4127765418,34.372936411
050-1698247,in-call,1600,31.4180060969,34.3685124516
050-6227519,in-call,115,31.382585902,34.3386753672
050-9247431,out-call,1019,31.4659661316,34.4341877249
050-6426008,out-call,72,31.4663646035,34.4270451291
