phone_number,call_type,call_duration,call_location_longitude,call_location_latitude
050-1996376,out-call,1777,31.4115878811,34.3853942436
050-4020802,in-call,912,31.4707925631,34.4280580202
050-9577442,out-call,15,31.4993795795,34.4596892238
050-6272482,out-call,1409,31.382909555,34.3508885404
050-8451332,in-call,69,31.4697014182,34.4628048266
050-1983513,in-call,3288,31.4162792059,34.3705713561
050-9446398,out-call,1352,31.4584027127,34.4212914255
