phone_number,call_type,call_duration,call_location_longitude,call_location_latitude
050-1565108,in-call,2102,31.4611345572,34.4276599354
050-4905177,out-call,65,31.4664277929,34.422141075
050-1217947,in-call,96,31.4080836701,34.3695119274
050-4806541,out-call,35,31.4226908807,34.3672423731
050-1329309,in-call,2760,31.4592545724,34.4298848564
050-8556401,in-call,1503,31.4702576463,34.4310856487
050-1059510,out-call,2953,31.4351947793,34.3869603935
050-8727666,in-call,73,31.4751047438,34.4435120603
050-2119098,out-call,3463,31.4386587723,34.3898553347
