phone_number,call_type,call_duration,call_location_longitude,call_location_latitude
050-9265618,in-call,748,31.432170997,34.4023888758
050-1768732,in-call,73,31.4695569633,34.4383782151
050-2341982,in-call,2554,31.4114197861,34.3715398155
050-2526764,in-call,35,31.4696268901,34.4455009831
050-9770612,in-call,2829,31.4609313664,34.4154692021
050-4808039,in-call,2491,31.4091445594,34.3719734072
050-9108328,in-call,95,31.3957909709,34.3647916411
050-4517441,out-call,104,31.4132093143,34.3731532704
050-7615141,in-call,102,31.4295651995,34.3789759299
