phone_number,call_type,call_duration,call_location_longitude,call_location_latitude
050-6467220,in-call,35,31.497388001,34.4630613619
050-7089023,in-call,2503,31.4785000971,34.4507013127
050-6495166,in-call,3531,31.4659320974,34.4317895356
050-6040119,in-call,2107,31.4110801848,34.3717996317
050-8598688,in-call,3573,31.4618859283,34.4204328208
050-5901675,in-call,13,31.4532676239,34.4210022665
050-7831524,in-call,76,31.461231052,34.4298180709
