phone_number,call_type,call_duration,call_location_longitude,call_location_latitude
050-1983993,out-call,113,31.4863637071,34.4450456483
050-2838332,in-call,91,31.4497953815,34.4094928421
050-6584413,in-call,101,31.458141961,34.4215550318
050-9695521,in-call,25,31.443015707,34.4153160571
050-9059234,in-call,1837,31.4511113213,34.4327574836
050-9319041,in-call,13,31.4412515447,34.4139064769
050-6372799,in-call,95,31.4385986811,34.4160299483
050-7371439,out-call,1848,31.4551919765,34.4205058124
