phone_number,call_type,call_duration,call_location_longitude,call_location_latitude
050-3492926,out-call,2552,31.4101802948,34.3687502178
050-7637062,in-call,99,31.4899996173,34.4524706678
050-2264547,out-call,1888,31.4620190646,34.418116166
050-7502633,in-call,2401,31.444584685,34.3909052999
050-8216676,in-call,42,31.4679919105,34.434584837
050-4209792,out-call,35,31.4614128991,34.42412172
050-9884454,in-call,2987,31.4978693378,34.4635536145
050-6897874,out-call,194,31.4123865618,34.3872424955
050-4298393,in-call,78,31.480269797,34.4504963195
