phone_number,call_type,call_duration,call_location_longitude,call_location_latitude
050-5874214,in-call,108,31.4167806074,34.3681726443
050-6405385,in-call,1880,31.4598570563,34.40503221
050-5856039,in-call,807,31.4538219593,34.4181951129
050-4894818,in-call,2113,31.4670827559,34.4180314067
050-6486218,in-call,119,31.4091320015,34.369370603
050-5194924,out-call,115,31.4501680283,34.4130919545
