phone_number,call_type,call_duration,call_location_longitude,call_location_latitude
050-8000623,out-call,3558,31.4435854418,34.4148347289
050-2037038,in-call,114,31.4821755087,34.4453231272
050-4394814,in-call,75,31.46864911,34.433942424
050-5202056,in-call,78,31.447827605,34.4210342006
050-4532309,in-call,1269,31.451605186,34.4154005181
050-1724745,out-call,108,31.4380983029,34.3912089625
050-5652239,out-call,115,31.4569337656,34.4128076607
