phone_number,call_type,call_duration,call_location_longitude,call_location_latitude
050-1958635,in-call,513,31.4145621614,34.368235777
050-8936374,out-call,1867,31.4429174506,34.4120830912
050-3376313,in-call,268,31.3892119499,34.3354461585
050-3318718,in-call,1893,31.4569597751,34.426642922
050-5584432,out-call,46,31.4598570563,34.40503221
050-1081435,in-call,116,31.4524326353,34.4227144306
050-5347387,in-call,68,31.4929898357,34.4443925408
050-3365355,out-call,2288,31.411800038,34.358561352
