phone_number,call_type,call_duration,call_location_longitude,call_location_latitude
050-8604701,in-call,1537,31.4686375645,34.4374654963
050-6238415,out-call,97,31.3933863219,34.3425110257
050-9713745,out-call,68,31.4674085908,34.4312661706
050-5348146,in-call,1635,31.4638004657,34.4240187391
050-2618950,in-call,3427,31.4436978347,34.3908686931
050-1923742,in-call,2877,31.4582029576,34.4157823602
050-8020878,in-call,1343,31.4665789357,34.4035634993
050-1644888,out-call,3056,31.4654571407,34.4284463571
050-7897344,in-call,42,31.4565268768,34.4193475266
