phone_number,call_type,call_duration,call_location_longitude,call_location_latitude
050-2072554,in-call,86,31.4524312993,34.4111093045
050-6241199,in-call,1213,31.4751188549,34.42465327
050-4411884,out-call,33,31.4741370793,34.4300990238
050-4173938,in-call,853,31.4112040768,34.378604447
050-2705415,in-call,1852,31.4502281316,34.409914564
050-7023243,in-call,112,31.4450491487,34.4159622233
