phone_number,call_type,call_duration,call_location_longitude,call_location_latitude
050-3667150,out-call,22,31.4544152322,34.3878857332
050-5378543,out-call,23,31.4563172342,34.3968833647
050-8365914,in-call,31,31.4508804192,34.4151535765
050-4797340,out-call,11,31.4050085367,34.3738033499
050-4270451,out-call,3541,31.4787793929,34.4342517489
050-6498933,out-call,416,31.4595902258,34.4247600679
050-4344064,in-call,14,31.4543574377,34.4128167653
