phone_number,call_type,call_duration,call_location_longitude,call_location_latitude
050-8014713,in-call,42,31.4303726634,34.3568874419
050-8691198,in-call,3138,31.4660577298,34.4079282584
050-9072815,in-call,2719,31.4523788088,34.4195516399
050-5626011,in-call,18,31.4645091024,34.4358113612
050-7801915,out-call,91,31.4597638457,34.4234097505
050-4915623,out-call,3384,31.4647254763,34.428789071
050-5140277,in-call,1405,31.4661814809,34.4349723806
050-7628579,out-call,20,31.4654526211,34.4131050164
050-4627266,out-call,27,31.473106825,34.4315745589
