phone_number,call_type,call_duration,call_location_longitude,call_location_latitude
050-3254121,out-call,45,31.4347379441,34.4039745664
050-6437782,in-call,110,31.4580957259,34.4244530085
050-5532226,out-call,44,31.4679143696,34.4312024077
050-1528159,out-call,499,31.4074602479,34.3786606795
050-3796779,in-call,2746,31.437552405,34.3851096326
050-1296749,out-call,23,31.4929207075,34.4483346972
050-5674074,out-call,48,31.4411644471,34.4137491728
