phone_number,call_type,call_duration,call_location_longitude,call_location_latitude
050-2553924,out-call,118,31.4458531724,34.4144221978
050-2626570,out-call,48,31.4286650518,34.4122904783
050-3750675,in-call,2058,31.4005290874,34.347511676
050-2985071,in-call,485,31.4411469288,34.3848542905
050-8297507,out-call,3393,31.4680503002,34.4228187196
050-6009332,in-call,42,31.4776558288,34.4415516006
050-8280624,out-call,12,31.4655471768,34.4368582518
050-1877677,in-call,75,31.4646858707,34.4288233107
050-6278845,in-call,3416,31.4305991607,34.3943031734
