phone_number,call_type,call_duration,call_location_longitude,call_location_latitude
050-4876998,out-call,12,31.4012603487,34.3688033771
050-6958493,out-call,72,31.4571398718,34.3873794017
050-3016715,in-call,98,31.4446179284,34.4205382218
050-5554093,in-call,1125,31.4883615237,34.459111663
050-1187458,in-call,109,31.4558231428,34.4087345933
050-7737596,out-call,399,31.432170997,34.4023888758
