phone_number,call_type,call_duration,call_location_longitude,call_location_latitude
050-2561481,in-call,2750,31.4603245138,34.4186756525
050-3694592,in-call,1656,31.4714043707,34.4459420352
050-6275344,out-call,86,31.4092343599,34.3666406907
050-2937048,in-call,35,31.4614128991,34.42412172
050-7802551,in-call,2473,31.4164608455,34.3711477453
050-8714676,in-call,1171,31.4428631278,34.4122127122
