phone_number,call_type,call_duration,call_location_longitude,call_location_latitude
050-5931276,in-call,1791,31.4592312397,34.4214330822
050-1440324,out-call,1982,31.4774047663,34.4382903037
050-2942547,out-call,65,31.4858810031,34.4471384127
050-1037030,out-call,118,31.4665325384,34.4287534473
050-2639365,out-call,905,31.4171555212,34.3665754921
