phone_number,call_type,call_duration,call_location_longitude,call_location_latitude
050-2949056,in-call,897,31.4598596748,34.4343575641
050-6016814,out-call,100,31.394008858,34.3447264158
050-8099782,in-call,11,31.4650176588,34.4349114112
050-3004154,out-call,276,31.4439122745,34.3918908233
050-7701716,out-call,1623,31.4755703674,34.4251294806
050-8005327,in-call,87,31.4657863474,34.4254451874
050-4163807,in-call,1355,31.4152673416,34.3738140098
050-1944795,in-call,3048,31.4544885598,34.4104676694
050-2236080,out-call,53,31.4689140199,34.4207482145
