phone_number,call_type,call_duration,call_location_longitude,call_location_latitude
050-6520581,in-call,3459,31.4370237445,34.4153312545
050-2306311,out-call,57,31.4907281095,34.4609559905
050-8472010,out-call,279,31.4597715232,34.4308560636
050-3864836,out-call,1442,31.4769985239,34.4481174784
050-1351421,out-call,1860,31.4827497734,34.4537873647
