phone_number,call_type,call_duration,call_location_longitude,call_location_latitude
050-6348186,out-call,3142,31.4727849042,34.4322492746
050-2533948,out-call,1896,31.4101049056,34.3880589632
050-8208154,in-call,3064,31.4254788483,34.3844171073
050-9708732,in-call,2154,31.4407856023,34.4120529402
050-1621921,out-call,19,31.4566796353,34.4309474487
050-7823612,in-call,755,31.468210852,34.4169533727
050-6155676,out-call,39,31.4736380577,34.4429667223
050-6397336,in-call,3035,31.4482701483,34.4051270677
050-5843960,out-call,2171,31.4630846091,34.4069598512
