phone_number,call_type,call_duration,call_location_longitude,call_location_latitude
050-2452498,in-call,359,31.5090734048,34.4595040924
050-6437041,out-call,109,31.4435420022,34.3870628271
050-8810355,out-call,124,31.4110065929,34.3690461865
050-1176404,out-call,525,31.4710488275,34.4216892239
050-7723570,out-call,2341,31.4656641249,34.4253946399
050-8447503,in-call,41,31.4341137336,34.4131235355
050-6327895,in-call,90,31.4776459486,34.4490438709
