phone_number,call_type,call_duration,call_location_longitude,call_location_latitude
050-3522818,in-call,904,31.4590311507,34.4237851109
050-9941637,in-call,96,31.4648264652,34.4408487626
050-3834396,out-call,2846,31.4084798647,34.3755120469
050-2827860,out-call,1362,31.4731859249,34.44124727
050-5231003,out-call,2163,31.4130507142,34.3713169393
