phone_number,call_type,call_duration,call_location_longitude,call_location_latitude
050-4257167,out-call,32,31.4569438727,34.401619848
050-1443012,in-call,1724,31.4710399649,34.4295524546
050-7704823,in-call,2918,31.452110462,34.4140305824
050-2420566,in-call,104,31.3910194136,34.3385789383
050-4096582,out-call,1368,31.4670342737,34.4356202174
050-2064504,out-call,595,31.4704620373,34.4391290383
050-9700337,out-call,3352,31.4365228188,34.3845756804
