phone_number,call_type,call_duration,call_location_longitude,call_location_latitude
050-3431000,in-call,2296,31.4489965061,34.4219973886
050-1963255,out-call,28,31.4501674529,34.4152219216
050-5206647,out-call,18,31.4713024324,34.4173538536
050-3521588,out-call,52,31.4572861792,34.4147261277
050-2660056,in-call,110,31.4490532396,34.4041041025
050-6918541,in-call,3251,31.4554431226,34.4184802445
050-6407048,in-call,18,31.4126597666,34.3574206566
050-8177971,out-call,109,31.478674876,34.4391922854
