phone_number,call_type,call_duration,call_location_longitude,call_location_latitude
050-3126675,out-call,2145,31.4561369462,34.4104785444
050-6208147,out-call,2751,31.4328277996,34.3863938987
050-8239083,in-call,48,31.4862830332,34.4357066643
050-4514291,in-call,1995,31.4661814809,34.4349723806
050-4389673,in-call,3536,31.3843825756,34.3291570747
050-3462674,in-call,1661,31.4515578622,34.422653037
