phone_number,call_type,call_duration,call_location_longitude,call_location_latitude
050-5061878,out-call,50,31.4482136901,34.3864572468
050-2702947,in-call,87,31.4547566633,34.4227133761
050-2420190,in-call,87,31.4393868799,34.3872503242
050-2157234,in-call,2121,31.3941799514,34.3310251222
050-6223507,out-call,449,31.4153662754,34.3677567961
