phone_number,call_type,call_duration,call_location_longitude,call_location_latitude
050-9193622,out-call,93,31.4576174777,34.3997230933
050-3091046,in-call,928,31.4148309985,34.371571824
050-3055269,in-call,117,31.4407366306,34.4191936608
050-7645108,out-call,3391,31.4387972096,34.3920256995
050-3407699,out-call,97,31.4362901887,34.3850801602
050-6909844,out-call,110,31.4681101719,34.4243052261
