phone_number,call_type,call_duration,call_location_longitude,call_location_latitude
050-8287610,out-call,1123,31.4550695827,34.4303251468
050-8922430,out-call,91,31.4617527908,34.4383458453
050-7020125,in-call,2718,31.4248872947,34.3607433104
050-2933676,in-call,1861,31.4545231369,34.4136456723
050-2466691,in-call,562,31.4438334837,34.4129665947
050-3478238,in-call,97,31.4493345433,34.415891581
050-4431768,out-call,826,31.4076043737,34.3787623288
