phone_number,call_type,call_duration,call_location_longitude,call_location_latitude
050-7867683,out-call,1716,31.3878727512,34.3310689949
050-9203940,out-call,29,31.4576590182,34.4136145182
050-5061541,in-call,108,31.4865004475,34.4694174275
050-4437501,in-call,99,31.4571915615,34.4174322718
050-6105378,in-call,59,31.4045499121,34.3712925668
050-6612764,out-call,1349,31.477628419,34.4472212832
