phone_number,call_type,call_duration,call_location_longitude,call_location_latitude
050-9294278,in-call,515,31.455740899,34.4219564912
050-1305865,in-call,31,31.4854447546,34.4373456791
050-2973478,in-call,106,31.4184590536,34.3687100996
050-9143132,out-call,867,31.4696725838,34.4308557453
050-6693371,out-call,599,31.4614942493,34.4257699606
050-7148391,out-call,119,31.4148855824,34.3643470036
