phone_number,call_type,call_duration,call_location_longitude,call_location_latitude
050-9803688,in-call,2360,31.4467478243,34.4167580305
050-6226324,in-call,358,31.4785064966,34.4365515183
050-1117413,out-call,563,31.4592083257,34.4137828184
050-1711484,out-call,30,31.4604443961,34.4326620124
050-5243355,out-call,115,31.4785600102,34.4446776662
