phone_number,call_type,call_duration,call_location_longitude,call_location_latitude
050-6784608,in-call,600,31.4656641249,34.4253946399
050-7963257,in-call,3235,31.4012603487,34.3688033771
050-2212919,out-call,1719,31.4597491089,34.4199937387
050-4009593,out-call,3105,31.4637357082,34.429501461
050-9875327,out-call,43,31.4437366298,34.3894271102
050-4042088,out-call,31,31.4686885818,34.4236799668
050-7885660,in-call,52,31.4751046992,34.4405492842
