phone_number,call_type,call_duration,call_location_longitude,call_location_latitude
050-1537855,in-call,41,31.4088598301,34.3752045361
050-4968786,out-call,371,31.432945222,34.3855731757
050-4829391,in-call,1089,31.4585832349,34.4191163817
050-3226839,in-call,164,31.4670827559,34.4180314067
050-4159110,out-call,50,31.4059247989,34.3677141696
050-8466307,out-call,1343,31.478674876,34.4391922854
