phone_number,call_type,call_duration,call_location_longitude,call_location_latitude
050-3359653,out-call,43,31.4701867284,34.4171838407
050-1380201,out-call,2223,31.4551051172,34.422406659
050-9294729,in-call,59,31.4639019912,34.4276644218
050-1288269,in-call,63,31.4749426633,34.4466698838
050-9797925,in-call,68,31.4309401063,34.4162048452
050-6404702,out-call,1122,31.4477958442,34.384370636
050-4721430,in-call,1244,31.3823512582,34.3378182037
050-4372305,in-call,28,31.4640690655,34.4291798695
050-6763843,in-call,1179,31.4132613849,34.3723943567
