phone_number,call_type,call_duration,call_location_longitude,call_location_latitude
050-4386703,out-call,2741,31.4587070371,34.4003601471
050-5539652,in-call,171,31.4108053038,34.3596333515
050-3779949,out-call,897,31.4308425487,34.39357794
050-6406339,in-call,32,31.4476071334,34.4199758785
050-4009516,in-call,3151,31.4665322472,34.4245103487
