phone_number,call_type,call_duration,call_location_longitude,call_location_latitude
050-4519978,out-call,108,31.4529103848,34.4299450109
050-4810977,out-call,2231,31.456406505,34.4204930719
050-5307137,in-call,2050,31.4955484426,34.4502712782
050-6616034,in-call,100,31.4719764647,34.4457089983
050-6006607,in-call,96,31.4720391744,34.437622742
050-4797856,out-call,62,31.4545199016,34.4082786232
050-7405453,in-call,1333,31.4844595396,34.4395222146
050-7457448,out-call,2706,31.4755655292,34.425891024
