phone_number,call_type,call_duration,call_location_longitude,call_location_latitude
050-8835248,in-call,1225,31.4678451936,34.4408648596
050-3854414,out-call,15,31.4119752429,34.3716229699
050-8236364,in-call,43,31.4540998104,34.4270512393
050-4428586,in-call,3296,31.448632613,34.4125416375
050-5957891,out-call,923,31.5090734048,34.4595040924
050-5493390,out-call,32,31.479035083,34.4210583502
050-9602328,in-call,1769,31.4812897596,34.4415232159
