phone_number,call_type,call_duration,call_location_longitude,call_location_latitude
050-2240620,in-call,1725,31.437978779,34.4137717434
050-2460455,in-call,77,31.4005039558,34.3739408233
050-2690071,in-call,40,31.4130699726,34.3756820783
050-5375435,out-call,192,31.4128307465,34.3654134916
050-9374342,out-call,88,31.458948767,34.4165541801
050-3570456,out-call,542,31.4727045278,34.4365398724
050-2150560,in-call,105,31.4567551899,34.4346558514
050-7794121,out-call,55,31.4328632078,34.386370289
050-7608070,in-call,87,31.4698077973,34.4295985951
