phone_number,call_type,call_duration,call_location_longitude,call_location_latitude
050-4849234,in-call,71,31.4591242449,34.4269723722
050-9476584,in-call,3226,31.3935332878,34.3429315879
050-8454517,out-call,2729,31.4584013135,34.4202521341
050-6687728,in-call,1552,31.4362901887,34.3850801602
050-3906029,out-call,57,31.4002294108,34.3723867023
050-8047032,out-call,1888,31.4641814641,34.4141034939
