phone_number,call_type,call_duration,call_location_longitude,call_location_latitude
050-3222697,in-call,3585,31.452123507,34.4230120312
050-4180329,out-call,959,31.4471614016,34.3888992456
050-9406547,out-call,684,31.4435614931,34.3871035186
050-6213775,out-call,3559,31.3851320866,34.350302551
050-5863547,in-call,890,31.4734640771,34.420675162
050-4799808,in-call,101,31.4928639556,34.4533609452
050-1496032,in-call,65,31.4582878747,34.4330951253
050-1289304,in-call,2655,31.4600482628,34.4029934433
