phone_number,call_type,call_duration,call_location_longitude,call_location_latitude
050-2697445,in-call,636,31.4990653273,34.4461781032
050-2225487,in-call,1282,31.4221996401,34.3860840578
050-2419118,out-call,3441,31.4676542928,34.440502051
050-1364626,out-call,3247,31.4379838893,34.4066146274
050-8407479,out-call,3466,31.4494492751,34.4040948
050-9280366,out-call,934,31.4485387699,34.4046257997
050-1810173,in-call,3173,31.4640566153,34.4191282777
050-6293985,out-call,2828,31.4550695827,34.4303251468
050-2098299,in-call,22,31.430695387,34.3943739738
