phone_number,call_type,call_duration,call_location_longitude,call_location_latitude
050-5863316,out-call,2180,31.4447702363,34.3911987043
050-6507591,in-call,980,31.4045871048,34.3659390318
050-5891911,in-call,2381,31.4837751093,34.4470801326
050-7133064,in-call,719,31.4616095377,34.4302013809
050-2192905,out-call,775,31.4781905522,34.4356728132
050-9245040,out-call,68,31.473371713,34.4477017563
050-4551285,out-call,26,31.4605407018,34.4267584628
