phone_number,call_type,call_duration,call_location_longitude,call_location_latitude
050-7606089,out-call,46,31.4871948025,34.4520676436
050-8639068,out-call,2879,31.4546906285,34.3972240901
050-8484633,in-call,2297,31.4816653014,34.4247156148
050-2206017,out-call,103,31.4528006834,34.4153673588
050-2725295,out-call,10,31.4002294108,34.3723867023
050-1606649,out-call,49,31.4537681603,34.4471489365
050-3037708,out-call,1828,31.4069665646,34.3864137299
050-6289756,in-call,2542,31.4188010071,34.3674247723
050-9757088,out-call,2664,31.4656664055,34.4344228255
