phone_number,call_type,call_duration,call_location_longitude,call_location_latitude
050-6908924,out-call,902,31.4465169934,34.4252204385
050-6787552,in-call,61,31.4572358504,34.4094845669
050-2801225,in-call,45,31.4642439894,34.4438144158
050-5192541,in-call,16,31.4069351588,34.3903470153
050-8070812,in-call,36,31.4450083629,34.3914056574
