phone_number,call_type,call_duration,call_location_longitude,call_location_latitude
050-5382425,in-call,2299,31.4480979116,34.3921802785
050-9683295,out-call,481,31.466795227,34.4350809917
050-3659373,out-call,2822,31.4670342737,34.4356202174
050-2287920,in-call,91,31.4555047927,34.4168194988
050-6459843,in-call,69,31.4469500703,34.4173299756
050-7216410,in-call,3125,31.3893992936,34.3371229604
