phone_number,call_type,call_duration,call_location_longitude,call_location_latitude
050-7066898,out-call,16,31.4568254886,34.4189691372
050-3040694,in-call,18,31.4626888602,34.4214682459
050-5224706,out-call,583,31.4451216556,34.3902476214
050-9866962,out-call,2319,31.4435420022,34.3870628271
050-1365404,in-call,1541,31.4776459486,34.4490438709
