phone_number,call_type,call_duration,call_location_longitude,call_location_latitude
050-9467936,out-call,3336,31.4454346133,34.4103558941
050-9361251,out-call,31,31.4800162252,34.4437385891
050-9396704,out-call,113,31.3931113339,34.3475566001
050-8718864,out-call,1399,31.4082100379,34.3719192893
050-2980267,in-call,1869,31.3906275208,34.3369495903
