phone_number,call_type,call_duration,call_location_longitude,call_location_latitude
050-4576360,in-call,61,31.4362196839,34.3854789373
050-6659712,in-call,484,31.4441991935,34.4116107836
050-3938039,out-call,2816,31.4871948025,34.4520676436
050-3453246,in-call,37,31.4416541641,34.4111617078
050-3953942,in-call,3395,31.4613332504,34.4395100528
050-3707876,in-call,487,31.452123507,34.4230120312
050-6041745,out-call,112,31.4664307647,34.4211462317
050-5884716,in-call,42,31.462762264,34.4206597931
