phone_number,call_type,call_duration,call_location_longitude,call_location_latitude
050-6740700,out-call,63,31.4036212139,34.3898814694
050-5636670,out-call,71,31.4884057998,34.4489590537
050-6316347,in-call,1249,31.4492478502,34.4149096152
050-7479115,in-call,25,31.4855711611,34.4511883717
050-9920210,in-call,2011,31.4726009411,34.4331042708
050-1951715,in-call,20,31.46666058,34.4306765249
050-3480491,out-call,22,31.4826757491,34.4454931432
050-4331123,out-call,114,31.3831322989,34.3428198075
