phone_number,call_type,call_duration,call_location_longitude,call_location_latitude
050-1809420,in-call,629,31.4183581319,34.4018575017
050-1416047,out-call,2318,31.4078463578,34.369570861
050-4992469,out-call,712,31.3906685064,34.3358486865
050-3459992,out-call,2204,31.4418406889,34.3854883109
050-8420551,out-call,2361,31.4132613849,34.3723943567
050-3350677,in-call,769,31.4602121137,34.4248486831
050-9792731,out-call,1424,31.5054737686,34.4792245648
