phone_number,call_type,call_duration,call_location_longitude,call_location_latitude
050-5878688,in-call,15,31.4683280625,34.4316321867
050-1529192,out-call,2079,31.4074602479,34.3786606795
050-1277075,out-call,59,31.4523781738,34.411555886
050-8838319,out-call,87,31.4542250533,34.4230287337
050-6780578,in-call,24,31.4664152452,34.4383676069
050-1228832,out-call,1648,31.4533933845,34.4112703392
050-6663830,out-call,2655,31.4110866374,34.3738252117
050-7900350,out-call,115,31.4124330635,34.3962726719
