phone_number,call_type,call_duration,call_location_longitude,call_location_latitude
050-1025655,out-call,68,31.4661814809,34.4349723806
050-3530964,out-call,90,31.4656641249,34.4253946399
050-9621687,in-call,22,31.4811733089,34.4568951042
050-8169756,in-call,722,31.4419857133,34.3907062453
050-9531362,out-call,1285,31.4637357082,34.429501461
050-2694599,out-call,2243,31.4771994024,34.4481556204
