phone_number,call_type,call_duration,call_location_longitude,call_location_latitude
050-9699703,out-call,3151,31.4440611029,34.4127734517
050-6739587,in-call,3000,31.455865399,34.421733042
050-3948058,out-call,101,31.4103279154,34.3607464141
050-9906373,in-call,73,31.3650861948,34.3234230455
050-2902183,in-call,101,31.444994645,34.3766026373
050-1841312,in-call,38,31.4255775676,34.3935080991
050-6184408,out-call,2380,31.476987366,34.438641201
050-5781081,in-call,227,31.4446454549,34.4051964169
050-7640020,in-call,47,31.391235089,34.3516224098
