phone_number,call_type,call_duration,call_location_longitude,call_location_latitude
050-9885214,out-call,1235,31.458600633,34.4246252105
050-4315757,out-call,3185,31.488467442,34.4577555303
050-5455296,out-call,43,31.4019426089,34.3689232728
050-1571052,out-call,1426,31.4557628146,34.4261506236
050-9564258,out-call,110,31.4653794475,34.4206025043
050-4139881,out-call,14,31.4542225791,34.4341381559
050-5664599,out-call,24,31.4686885818,34.4236799668
