phone_number,call_type,call_duration,call_location_longitude,call_location_latitude
050-8945279,out-call,48,31.476987366,34.438641201
050-4724850,out-call,89,31.4344021755,34.4007283745
050-3412403,out-call,2799,31.4416880261,34.4121212569
050-3392327,in-call,457,31.4481594386,34.3889673265
050-4944082,out-call,1750,31.496841045,34.4644154139
050-3852137,out-call,89,31.4446179284,34.4205382218
