phone_number,call_type,call_duration,call_location_longitude,call_location_latitude
050-9158311,out-call,62,31.4701952503,34.4438182716
050-8383003,in-call,11,31.4522507915,34.4122515748
050-5065940,in-call,2721,31.4375079353,34.3836740149
050-5036937,out-call,1839,31.4163135558,34.3718352047
050-4469642,out-call,14,31.4707072749,34.4360829169
050-5891692,out-call,44,31.4569337656,34.4128076607
050-5100315,out-call,54,31.4532676239,34.4210022665
050-2237103,out-call,1270,31.4664307647,34.4211462317
050-6667696,out-call,12,31.4570217227,34.43098793
