phone_number,call_type,call_duration,call_location_longitude,call_location_latitude
050-7892448,in-call,951,31.3986419097,34.3450072227
050-5368380,out-call,74,31.4600675523,34.4342996742
050-2336599,out-call,2124,31.4742461865,34.4587378238
050-5657433,out-call,255,31.4366480719,34.4152831539
050-5389125,out-call,112,31.4778191644,34.4424943144
050-3625213,out-call,105,31.3926838593,34.3395584085
