phone_number,call_type,call_duration,call_location_longitude,call_location_latitude
050-6428562,in-call,2025,31.435476793,34.3866330794
050-2231649,in-call,3466,31.4461536446,34.4213858179
050-8502135,in-call,111,31.4415296855,34.4142632262
050-4250388,out-call,114,31.4416880261,34.4121212569
050-5045034,out-call,11,31.4675920897,34.442333078
050-2548649,out-call,2880,31.438960629,34.4227703947
050-7867883,out-call,2391,31.4563914652,34.4193067609
050-6788528,out-call,24,31.4825380585,34.4452705357
050-9508206,out-call,120,31.4592083257,34.4137828184
