phone_number,call_type,call_duration,call_location_longitude,call_location_latitude
050-9771339,in-call,105,31.4741628531,34.4604923804
050-8825752,out-call,1067,31.4076043737,34.3787623288
050-1284796,in-call,45,31.4034688255,34.3655630503
050-8730096,in-call,80,31.4799360297,34.4478268347
050-7520007,out-call,1597,31.4574567805,34.4052852874
050-1270250,out-call,65,31.4509979795,34.4133352017
050-5093033,out-call,2443,31.3987592148,34.373815349
050-1379010,out-call,77,31.4157866843,34.373725305
050-8259235,out-call,2684,31.4707072749,34.4360829169
