phone_number,call_type,call_duration,call_location_longitude,call_location_latitude
050-8020578,out-call,80,31.4000151816,34.3762586332
050-9486151,out-call,1045,31.471034349,34.4424066555
050-9104181,in-call,2668,31.4513050929,34.4329319798
050-5309660,out-call,60,31.4609978203,34.4194413662
050-2246031,out-call,3430,31.4166515881,34.3990724059
050-2397725,in-call,2843,31.4574834208,34.4220582875
050-6624819,out-call,50,31.4135347207,34.3758405459
050-8519199,out-call,61,31.4597491089,34.4199937387
