phone_number,call_type,call_duration,call_location_longitude,call_location_latitude
050-3760822,in-call,186,31.4106260663,34.3481740885
050-3707677,in-call,50,31.4588914361,34.4247849357
050-5077753,in-call,832,31.4147630489,34.3642773356
050-4053892,in-call,38,31.4771002081,34.4511613203
050-5073582,out-call,914,31.4113807039,34.3730853395
050-3406762,in-call,90,31.4405337582,34.4110821512
