phone_number,call_type,call_duration,call_location_longitude,call_location_latitude
050-3456504,in-call,2952,31.4595902258,34.4247600679
050-3218424,in-call,956,31.4428914207,34.4238856229
050-3573002,in-call,92,31.4548823465,34.4110189924
050-5716426,in-call,36,31.382909555,34.3508885404
050-8951110,in-call,465,31.4501029173,34.4242916913
050-6802814,in-call,62,31.4497698366,34.4142319991
050-1949431,in-call,1126,31.4484731855,34.4154910214
050-3040589,out-call,15,31.4592431,34.4133596087
