phone_number,call_type,call_duration,call_location_longitude,call_location_latitude
050-1591643,in-call,1730,31.4484900506,34.4156587749
050-1510775,in-call,110,31.4522507915,34.4122515748
050-2578667,out-call,2159,31.3962176285,34.3502936843
050-1981090,in-call,648,31.4545040705,34.4231499824
050-4828032,out-call,37,31.4531344006,34.4098699149
