phone_number,call_type,call_duration,call_location_longitude,call_location_latitude
050-1593841,in-call,19,31.4024813161,34.3778386152
050-5098630,out-call,50,31.4737279309,34.4303346054
050-2365236,in-call,1265,31.4481594386,34.3889673265
050-2961402,in-call,485,31.4064311039,34.3713270253
050-5422643,out-call,2235,31.4883615237,34.459111663
