phone_number,call_type,call_duration,call_location_longitude,call_location_latitude
050-2137564,out-call,28,31.4811733089,34.4568951042
050-8386063,out-call,118,31.4757905443,34.4258416547
050-4484087,out-call,35,31.4569337656,34.4128076607
050-5141375,in-call,792,31.4220783574,34.3598663774
050-4823263,in-call,2514,31.4649574658,34.4037276782
050-4950935,out-call,2682,31.4130507142,34.3713169393
050-5963006,in-call,73,31.4614128991,34.42412172
050-4108396,in-call,33,31.4554431226,34.4184802445
