phone_number,call_type,call_duration,call_location_longitude,call_location_latitude
050-7799901,out-call,1332,31.4726832082,34.4327523352
050-3420282,in-call,297,31.4785000971,34.4507013127
050-2921735,in-call,107,31.4556086359,34.3982270341
050-4789532,out-call,2123,31.4705402696,34.4319207191
050-2014828,out-call,1513,31.4696268901,34.4455009831
