phone_number,call_type,call_duration,call_location_longitude,call_location_latitude
050-7153827,out-call,1968,31.4733215502,34.4340438716
050-4447090,in-call,10,31.4521090598,34.3935000358
050-6818131,in-call,1491,31.4528710862,34.4113977367
050-8087299,out-call,43,31.4309401063,34.4162048452
050-9412129,in-call,2579,31.4783859721,34.4478441394
050-8198143,out-call,101,31.4481774362,34.4139315542
050-8073111,in-call,69,31.4778191644,34.4424943144
