phone_number,call_type,call_duration,call_location_longitude,call_location_latitude
050-4082052,out-call,54,31.4724076515,34.4248313154
050-7879488,out-call,26,31.4700939862,34.4291516687
050-8877482,in-call,90,31.4461361388,34.4033450633
050-2672801,in-call,1334,31.4457729412,34.3908862621
050-6555449,in-call,236,31.4050013062,34.3680178895
050-9432916,in-call,76,31.4244133012,34.3832447911
050-5448379,in-call,24,31.4745858792,34.4294217045
