phone_number,call_type,call_duration,call_location_longitude,call_location_latitude
050-5612224,out-call,41,31.4591148274,34.4077411583
050-7056245,in-call,108,31.4571915615,34.4174322718
050-2138119,out-call,37,31.3784655742,34.3287503092
050-7259378,in-call,2828,31.438096906,34.3870759478
050-2808491,out-call,16,31.4949724699,34.4437936004
050-3099458,in-call,3485,31.5038381318,34.4598827957
