phone_number,call_type,call_duration,call_location_longitude,call_location_latitude
050-6205526,out-call,615,31.4818755049,34.4380888319
050-8115874,out-call,3398,31.4228518235,34.3580739837
050-9109936,in-call,1097,31.4495657031,34.4098815214
050-3010524,in-call,808,31.4578172331,34.4219305649
050-1608905,in-call,97,31.3963059824,34.3452942379
050-5644487,in-call,1017,31.4887784471,34.4481947902
050-4692410,out-call,1504,31.42895141,34.4129199158
050-5238466,in-call,16,31.4565431683,34.4169559302
050-9137049,in-call,2198,31.4906266893,34.4518966143
