phone_number,call_type,call_duration,call_location_longitude,call_location_latitude
050-8269479,out-call,2645,31.4570836734,34.4285101734
050-7011464,in-call,3314,31.4067230283,34.3665793717
050-8444848,in-call,2721,31.4107007291,34.366487695
050-7810814,in-call,3476,31.47302333,34.44993184
050-1389706,in-call,1144,31.4855133248,34.4297770863
050-4961499,out-call,895,31.4220783574,34.3598663774
050-6809392,out-call,2024,31.4686654616,34.4349283319
050-9371943,out-call,82,31.4713851195,34.4227659403
