phone_number,call_type,call_duration,call_location_longitude,call_location_latitude
050-4726256,out-call,2255,31.4388070225,34.3875024982
050-7411737,in-call,41,31.4480979116,34.3921802785
050-1243861,in-call,500,31.4706067693,34.4451646159
050-3944181,in-call,1921,31.4450083629,34.3914056574
050-1851750,in-call,3409,31.4220783574,34.3598663774
