phone_number,call_type,call_duration,call_location_longitude,call_location_latitude
050-5032635,out-call,67,31.4360805621,34.4076782923
050-4147764,in-call,73,31.4601634808,34.4091746294
050-8835582,out-call,1455,31.4657078656,34.4392066255
050-1833743,out-call,768,31.4809963175,34.4636590609
050-7264398,out-call,2740,31.4053220318,34.3669281984
