phone_number,call_type,call_duration,call_location_longitude,call_location_latitude
050-5953763,in-call,86,31.4695683261,34.4401739393
050-5448735,out-call,61,31.457149316,34.4336170706
050-1129806,in-call,1120,31.4728072149,34.4379491653
050-4447043,in-call,1422,31.4783121554,34.4431687838
050-8575664,in-call,2426,31.4053220318,34.3669281984
050-2099186,out-call,1684,31.4437986739,34.3884287763
