phone_number,call_type,call_duration,call_location_longitude,call_location_latitude
050-7587850,out-call,93,31.4618735822,34.4268359858
050-9360322,in-call,3153,31.4761328323,34.4360624788
050-7126162,in-call,167,31.5001684666,34.461704377
050-5318852,in-call,31,31.4484030138,34.4206621737
050-9923545,out-call,83,31.4719431529,34.4220045853
050-5446637,out-call,79,31.4440611029,34.4127734517
