phone_number,call_type,call_duration,call_location_longitude,call_location_latitude
050-9693466,out-call,2259,31.4578172331,34.4219305649
050-4684354,in-call,61,31.3892119499,34.3354461585
050-9976825,in-call,60,31.4135955667,34.3676373267
050-7199336,out-call,13,31.4541613266,34.4097906396
050-8167595,in-call,110,31.4734694909,34.4438558146
050-6279220,out-call,37,31.4578270386,34.4125664191
050-7039346,in-call,32,31.4610779439,34.404794995
