phone_number,call_type,call_duration,call_location_longitude,call_location_latitude
050-5461560,out-call,32,31.4825380585,34.4452705357
050-6084324,in-call,1202,31.4162740981,34.3696218053
050-1977439,in-call,81,31.4743705801,34.4301454824
050-2762361,in-call,2479,31.4486003143,34.4240483423
050-9551247,in-call,55,31.4596019535,34.4161768185
050-5387914,out-call,21,31.4103042514,34.3743617148
050-8827019,in-call,649,31.454890031,34.3866565201
