phone_number,call_type,call_duration,call_location_longitude,call_location_latitude
050-8416249,out-call,37,31.449539313,34.4167891524
050-7969304,in-call,3453,31.4681477293,34.4410146879
050-4621307,out-call,2008,31.47175844,34.44541926
050-6660665,out-call,616,31.4110801848,34.3717996317
050-7728547,out-call,708,31.4752026267,34.4439636627
