phone_number,call_type,call_duration,call_location_longitude,call_location_latitude
050-3801498,in-call,84,31.4867296523,34.4515103921
050-2008428,in-call,78,31.4823182768,34.4372045928
050-8125383,in-call,73,31.4280172329,34.3952887806
050-7377753,out-call,1291,31.4373553328,34.4036617946
050-9125474,in-call,749,31.42895141,34.4129199158
050-8940235,out-call,53,31.4674052777,34.4314222713
