phone_number,call_type,call_duration,call_location_longitude,call_location_latitude
050-1043708,in-call,88,31.4435888368,34.4177532306
050-1617573,out-call,55,31.4776415637,34.4300610084
050-8491105,in-call,1035,31.3813423767,34.3329282311
050-9961669,in-call,687,31.4694958681,34.4320858625
050-2348729,in-call,31,31.4502529621,34.4127684209
