phone_number,call_type,call_duration,call_location_longitude,call_location_latitude
050-7241540,in-call,85,31.4427419228,34.4139275887
050-4502201,in-call,101,31.4719431529,34.4220045853
050-2978924,in-call,33,31.471209528,34.4273093094
050-4222343,in-call,2274,31.4336366244,34.3852032395
050-1307606,in-call,300,31.4598570563,34.40503221
050-9650185,out-call,29,31.4640685396,34.4219469919
050-6604031,in-call,11,31.4542738887,34.4247580692
050-7136828,in-call,1080,31.4511302605,34.4376907899
050-6131838,out-call,93,31.4920681251,34.4580657803
