phone_number,call_type,call_duration,call_location_longitude,call_location_latitude
050-2292867,out-call,24,31.4774417134,34.4353094538
050-4353194,out-call,70,31.4076998047,34.3772056976
050-7939103,in-call,1931,31.4173677607,34.3635157979
050-7015575,out-call,2378,31.4579749736,34.4218149338
050-9276662,out-call,1422,31.434877635,34.4133135611
050-4638839,out-call,2906,31.4080836701,34.3695119274
050-2569885,out-call,3333,31.4723640387,34.4322625167
