phone_number,call_type,call_duration,call_location_longitude,call_location_latitude
050-3864413,out-call,91,31.3852961185,34.3480646615
050-6605970,in-call,2802,31.4153321172,34.389527905
050-5267238,out-call,997,31.4407434859,34.4107400656
050-9720423,out-call,1595,31.4603717138,34.4216182076
050-2549278,out-call,88,31.4456636934,34.4141885723
