phone_number,call_type,call_duration,call_location_longitude,call_location_latitude
050-9530254,out-call,26,31.5109106898,34.4595597395
050-6237303,in-call,41,31.4050013062,34.3680178895
050-4038782,in-call,73,31.4741628531,34.4604923804
050-9710783,in-call,2830,31.4743138819,34.4338741225
050-8155576,in-call,623,31.4721079089,34.436860444
050-9633676,in-call,884,31.4529103848,34.4299450109
050-3857133,out-call,60,31.4826554996,34.4423955016
050-5163568,out-call,52,31.3903711621,34.3366402644
