phone_number,call_type,call_duration,call_location_longitude,call_location_latitude
050-2289137,in-call,84,31.3954186946,34.3513540222
050-9297656,in-call,3469,31.4715332848,34.4174969269
050-4356777,out-call,29,31.4362620113,34.3892206411
050-3633372,in-call,789,31.3937591976,34.3429341311
050-4214212,out-call,71,31.4681560791,34.4391229607
050-7587297,in-call,1771,31.4359081771,34.3899310145
050-4708949,in-call,2557,31.4542250533,34.4230287337
050-2943208,out-call,34,31.404626619,34.3693541497
050-2505014,in-call,37,31.4122489925,34.3904777894
