phone_number,call_type,call_duration,call_location_longitude,call_location_latitude
050-8018275,out-call,112,31.420180812,34.364861463
050-2882220,out-call,2481,31.4644184281,34.4519590786
050-2750398,in-call,1640,31.4722495377,34.4371555685
050-6442594,in-call,353,31.4885116498,34.4571171188
050-3371413,out-call,1302,31.4426277634,34.413364828
