phone_number,call_type,call_duration,call_location_longitude,call_location_latitude
050-6870997,out-call,74,31.4497656325,34.429607285
050-2791180,out-call,30,31.4584027127,34.4212914255
050-4229326,out-call,13,31.4679143696,34.4312024077
050-9673214,out-call,16,31.4551437049,34.4085842393
050-5212968,in-call,23,31.4336366244,34.3852032395
050-9259351,out-call,547,31.4511113213,34.4327574836
050-1599691,out-call,262,31.4143900044,34.3744792212
050-4339220,in-call,34,31.4571479354,34.4195095171
050-5755294,in-call,1750,31.4586391967,34.4261292702
