phone_number,call_type,call_duration,call_location_longitude,call_location_latitude
050-2240181,in-call,1063,31.4816217703,34.450647359
050-9488257,in-call,3571,31.4681477293,34.4410146879
050-4188174,in-call,3317,31.4749426633,34.4466698838
050-4774380,out-call,994,31.4467322139,34.402663264
050-7241235,in-call,88,31.4563060759,34.4158516668
050-5872226,in-call,1197,31.4157527287,34.3725690053
050-6990776,out-call,299,31.4765822283,34.4220353854
050-4536911,in-call,52,31.4783121554,34.4431687838
050-8465867,in-call,1973,31.4598032711,34.4158283978
