phone_number,call_type,call_duration,call_location_longitude,call_location_latitude
050-1632688,in-call,68,31.5185727071,34.4747660404
050-7594006,in-call,1017,31.4451216556,34.3902476214
050-3604832,in-call,32,31.4418387948,34.4101966819
050-7386783,out-call,1482,31.4406515054,34.4182394257
050-2901850,out-call,58,31.417615512,34.3728814151
