phone_number,call_type,call_duration,call_location_longitude,call_location_latitude
050-8699753,in-call,74,31.4718895537,34.4347838603
050-4134905,out-call,2312,31.4408529403,34.4198967742
050-2501469,in-call,1218,31.448087026,34.4259074349
050-4984380,in-call,70,31.4589576352,34.4296106335
050-8166353,in-call,2500,31.4743134187,34.442979748
050-6274782,out-call,291,31.4620726106,34.4117632822
050-6971531,out-call,3186,31.488467442,34.4577555303
