phone_number,call_type,call_duration,call_location_longitude,call_location_latitude
050-4857946,in-call,3045,31.4505232861,34.3825604671
050-6007218,out-call,2859,31.450515615,34.4213783805
050-8416562,out-call,101,31.4697533946,34.429297144
050-7964294,out-call,3596,31.4912693283,34.4463476101
050-9700832,in-call,1419,31.4368080581,34.413196424
050-9596053,in-call,113,31.4458108469,34.3896470333
050-7059790,in-call,1528,31.4705479778,34.4067184269
