phone_number,call_type,call_duration,call_location_longitude,call_location_latitude
050-5644209,out-call,36,31.4555019433,34.43368943
050-5868562,out-call,3310,31.4112265511,34.3754581187
050-8728660,out-call,117,31.4588018273,34.4073392591
050-4989246,out-call,86,31.4387063289,34.3875490282
050-3145627,out-call,989,31.4454483178,34.418985001
050-6704828,out-call,286,31.444364901,34.3892461898
050-2120283,in-call,908,31.4645331299,34.4137779397
