phone_number,call_type,call_duration,call_location_longitude,call_location_latitude
050-4586211,in-call,2318,31.4376781928,34.3873253226
050-4388732,in-call,29,31.4141301223,34.3893600034
050-5692905,in-call,2106,31.4665561704,34.4099140993
050-6337254,in-call,2255,31.4697533946,34.429297144
050-4806390,out-call,2715,31.4608420296,34.4125979292
050-8387548,out-call,109,31.4746467002,34.4290587214
050-8372388,in-call,2434,31.3750024447,34.3325536011
050-9533815,in-call,135,31.4699261037,34.4185644006
