phone_number,call_type,call_duration,call_location_longitude,call_location_latitude
050-4790526,out-call,85,31.4435854418,34.4148347289
050-2082702,out-call,208,31.468568149,34.4304771016
050-3066419,out-call,3168,31.4894798118,34.4441718434
050-4651564,out-call,116,31.4589156162,34.4241659349
050-2212892,out-call,1615,31.4580598951,34.4448994416
