phone_number,call_type,call_duration,call_location_longitude,call_location_latitude
050-2387978,out-call,82,31.4136725211,34.3974603261
050-8541865,in-call,369,31.4612589518,34.4253030274
050-9777926,in-call,3521,31.4336366244,34.3852032395
050-2711944,in-call,66,31.4929898357,34.4443925408
050-1082225,in-call,1759,31.4500891758,34.4237781924
050-7573598,in-call,3032,31.4490749763,34.4166342963
