phone_number,call_type,call_duration,call_location_longitude,call_location_latitude
050-3481389,out-call,2748,31.4608352914,34.4340042199
050-2248599,out-call,2720,31.4762535046,34.4606658781
050-4123461,out-call,72,31.4480980345,34.384329873
050-4950913,in-call,71,31.4584193579,34.4152388662
050-5116381,in-call,2433,31.4533553732,34.4123746236
050-7228747,in-call,71,31.4467924727,34.413096221
050-5910938,out-call,49,31.4370623027,34.4162561608
050-4213997,out-call,67,31.4580598951,34.4448994416
