phone_number,call_type,call_duration,call_location_longitude,call_location_latitude
050-9641405,in-call,1311,31.4455844818,34.4118587893
050-5685287,out-call,2826,31.4688488867,34.4378515164
050-1162192,out-call,2166,31.4524403812,34.4117869733
050-3547227,in-call,1385,31.4879146702,34.4514982917
050-9557419,out-call,32,31.4084499137,34.3663679082
050-4977910,in-call,2572,31.4108023942,34.3666660617
050-5178164,out-call,154,31.4560494575,34.3964324711
050-5427359,out-call,2205,31.479643957,34.4473397644
050-5083144,in-call,2104,31.446192708,34.4138336524
050-8408582,out-call,45,31.4564244162,34.4086035671
050-6632054,in-call,46,31.4966489898,34.4681229156
050-4063253,out-call,1625,31.3852961185,34.3480646615
050-7081785,in-call,3216,31.3896208494,34.3448966316
050-4455171,out-call,69,31.4755260091,34.4422657864
050-3603600,out-call,65,31.4728833476,34.4294289643
