phone_number,call_type,call_duration,call_location_longitude,call_location_latitude
050-9474496,in-call,2470,31.4541094976,34.4108321679
050-5678063,in-call,387,31.3994078598,34.3710226343
050-5945857,out-call,16,31.4607232976,34.4076753855
050-1682337,out-call,2361,31.4512593449,34.4219123984
050-6332052,in-call,24,31.468210852,34.4169533727
