phone_number,call_type,call_duration,call_location_longitude,call_location_latitude
050-6647255,out-call,315,31.4449176205,34.4140009438
050-3151523,in-call,101,31.4472144225,34.4108559679
050-7713122,in-call,1994,31.444584685,34.3909052999
050-9843906,out-call,316,31.458600633,34.4246252105
050-1201455,out-call,64,31.4437366298,34.3894271102
050-9357641,in-call,2383,31.4737886188,34.4275028564
050-5829939,in-call,3209,31.4108435989,34.3871236072
