phone_number,call_type,call_duration,call_location_longitude,call_location_latitude
050-3606522,in-call,2766,31.4759128207,34.4404684859
050-7633676,out-call,1959,31.3899295316,34.3465831744
050-8444936,in-call,31,31.4019426089,34.3689232728
050-2838477,out-call,2232,31.4378241925,34.3846328152
050-4568024,out-call,301,31.5097620945,34.4545873118
050-3481672,out-call,82,31.4556086359,34.3982270341
050-5946390,out-call,68,31.4669188926,34.4282439147
