phone_number,call_type,call_duration,call_location_longitude,call_location_latitude
050-6342037,in-call,2403,31.4696725838,34.4308557453
050-7299978,out-call,30,31.4484662319,34.3824157451
050-2277404,in-call,93,31.4595216132,34.3981675314
050-1140016,in-call,23,31.4078463578,34.369570861
050-1172479,in-call,1158,31.454036357,34.4272679378
050-5187068,out-call,187,31.4453579675,34.3875514837
