phone_number,call_type,call_duration,call_location_longitude,call_location_latitude
050-9436184,out-call,2502,31.4437366298,34.3894271102
050-9318191,out-call,2848,31.4881261553,34.4278192517
050-8260439,out-call,25,31.4815544704,34.4475076542
050-5053154,out-call,115,31.4664662402,34.4317588847
050-9161310,out-call,16,31.4676984334,34.4198188614
050-6364522,in-call,84,31.4134644892,34.3651939632
