phone_number,call_type,call_duration,call_location_longitude,call_location_latitude
050-7578768,out-call,119,31.4001513056,34.3742021667
050-6867835,out-call,331,31.4581827514,34.4224292784
050-1437508,in-call,2858,31.4635114691,34.4209630368
050-2590888,in-call,114,31.4586510874,34.3981592346
050-4103461,out-call,65,31.4744019526,34.4398889359
050-4105926,out-call,1460,31.4084863513,34.3428316502
050-1548093,out-call,13,31.4578945552,34.4212961438
050-6189402,out-call,1085,31.4560494575,34.3964324711
050-8676420,in-call,1367,31.4861506843,34.4519970006
