phone_number,call_type,call_duration,call_location_longitude,call_location_latitude
050-3714962,out-call,1957,31.4528666419,34.4135373331
050-2600478,out-call,67,31.4580168737,34.4204257003
050-6733490,out-call,103,31.454890031,34.3866565201
050-2570667,out-call,2513,31.4101802948,34.3687502178
050-6595161,out-call,460,31.3905176367,34.3236890761
