phone_number,call_type,call_duration,call_location_longitude,call_location_latitude
050-9319414,in-call,1546,31.4543059126,34.4177259171
050-4850731,out-call,28,31.4598596748,34.4343575641
050-1572839,in-call,102,31.4125128733,34.3749697024
050-7738580,out-call,1979,31.4636593878,34.4155529803
050-3013650,in-call,41,31.4450083629,34.3914056574
050-3668790,in-call,323,31.4482010571,34.4367906865
050-4432343,out-call,918,31.4344657998,34.4058100958
