phone_number,call_type,call_duration,call_location_longitude,call_location_latitude
050-9257032,out-call,10,31.4483752117,34.3860904095
050-6280746,out-call,44,31.3638037309,34.3263662288
050-3045219,in-call,106,31.4508158748,34.4116155483
050-4344826,in-call,718,31.4446179284,34.4205382218
050-7818397,out-call,2760,31.4853047668,34.4469806131
050-2343933,out-call,193,31.4521291633,34.4093212001
050-6351199,in-call,118,31.469516677,34.4357324876
050-4297693,in-call,1728,31.4923675741,34.4694377543
