phone_number,call_type,call_duration,call_location_longitude,call_location_latitude
050-3053530,out-call,3290,31.4735526734,34.4163213441
050-6435125,out-call,730,31.4728833476,34.4294289643
050-9974899,out-call,2117,31.4588839221,34.4066537365
050-9397872,in-call,3481,31.4855711611,34.4511883717
050-6717765,out-call,2796,31.4588018273,34.4073392591
050-3215527,out-call,960,31.4244084588,34.3856652066
050-5547581,in-call,112,31.4241607967,34.3834027287
