phone_number,call_type,call_duration,call_location_longitude,call_location_latitude
050-3324288,out-call,2500,31.4603801358,34.4337511737
050-9690195,out-call,3211,31.4540998104,34.4270512393
050-1879215,in-call,1140,31.4704690633,34.4324460435
050-5300165,in-call,104,31.4384874109,34.3882144647
050-4338378,in-call,65,31.4497953815,34.4094928421
050-9592908,out-call,90,31.4680503002,34.4228187196
