phone_number,call_type,call_duration,call_location_longitude,call_location_latitude
050-9463210,in-call,771,31.4562497925,34.4084533901
050-7410322,out-call,747,31.4794465768,34.4557834567
050-4432521,out-call,60,31.4528320952,34.4109398414
050-9109498,out-call,85,31.404394757,34.3674562261
050-2393979,in-call,2053,31.477900145,34.4379201979
050-4890160,out-call,2234,31.4535564111,34.4247536833
050-5961723,out-call,1721,31.397558136,34.3306230961
