phone_number,call_type,call_duration,call_location_longitude,call_location_latitude
050-8792697,out-call,1991,31.4149400924,34.3738431222
050-9128466,out-call,3229,31.4369929273,34.3839249815
050-3636512,out-call,2248,31.4590984559,34.4131347071
050-2572685,out-call,14,31.4414360708,34.4169856785
050-5482274,out-call,2550,31.4410704879,34.4179879565
050-3466857,in-call,72,31.4929207075,34.4483346972
