phone_number,call_type,call_duration,call_location_longitude,call_location_latitude
050-8088204,in-call,92,31.4743138819,34.4338741225
050-1966690,in-call,40,31.4636618738,34.4178019602
050-7563086,in-call,75,31.411363375,34.3789157197
050-5948271,in-call,80,31.4570160966,34.4152143112
050-7898210,in-call,60,31.3983441369,34.3496452396
050-9966631,out-call,253,31.4467800168,34.4138339537
050-6202733,out-call,101,31.4180060969,34.3685124516
050-3123063,in-call,990,31.4590984559,34.4131347071
050-7988135,out-call,1735,31.4655471768,34.4368582518
