phone_number,call_type,call_duration,call_location_longitude,call_location_latitude
050-3618955,in-call,1391,31.4729728058,34.4229730263
050-7125231,in-call,18,31.4592957266,34.4201480978
050-9053312,out-call,90,31.4622488224,34.4160114546
050-8924934,in-call,38,31.4663646035,34.4270451291
050-8144509,in-call,94,31.4658755644,34.4259949352
050-4897631,out-call,1761,31.4859855685,34.4551117227
050-1107170,in-call,97,31.4792810731,34.4540739144
