phone_number,call_type,call_duration,call_location_longitude,call_location_latitude
050-5386738,out-call,97,31.4603801358,34.4337511737
050-2607425,in-call,80,31.4751188549,34.42465327
050-8224733,out-call,93,31.4726261904,34.4280875368
050-8139567,out-call,46,31.4570217227,34.43098793
050-6261024,in-call,1907,31.4136725211,34.3974603261
050-2577072,out-call,46,31.4579749736,34.4218149338
050-7839007,in-call,33,31.3963059824,34.3452942379
050-7538936,in-call,100,31.4642390282,34.4268473943
