phone_number,call_type,call_duration,call_location_longitude,call_location_latitude
050-1324534,in-call,46,31.4554107069,34.4142565368
050-3173041,in-call,58,31.4510746214,34.4129889062
050-5932204,out-call,81,31.3650861948,34.3234230455
050-8419860,in-call,43,31.404626619,34.3693541497
050-6430558,out-call,3137,31.4440611029,34.4127734517
050-2378259,out-call,61,31.4669462916,34.4229747372
