phone_number,call_type,call_duration,call_location_longitude,call_location_latitude
050-1371378,out-call,27,31.4418387948,34.4101966819
050-2587036,in-call,1415,31.4140106792,34.3656523064
050-6904515,out-call,48,31.4733130493,34.4363330356
050-3892500,in-call,73,31.4070059439,34.3703669309
050-3059077,out-call,20,31.397120587,34.3627790426
