phone_number,call_type,call_duration,call_location_longitude,call_location_latitude
050-7487950,in-call,1194,31.4678441366,34.4324815295
050-9983752,in-call,332,31.4646345859,34.4301524635
050-7662033,in-call,1069,31.4388893389,34.4242956047
050-1941513,in-call,1270,31.455738771,34.4242593075
050-5137182,in-call,172,31.46539232,34.4406436849
050-5598566,out-call,1148,31.4407434859,34.4107400656
050-6669327,out-call,22,31.4380330742,34.3861289022
