phone_number,call_type,call_duration,call_location_longitude,call_location_latitude
050-8386162,in-call,2210,31.4426818005,34.4135096222
050-9830388,in-call,2216,31.4125128733,34.3749697024
050-8208281,in-call,991,31.4559064218,34.4049054926
050-5426716,out-call,1606,31.4605203532,34.4164805924
050-1074452,in-call,1186,31.4439182865,34.421721717
050-1276297,in-call,17,31.4656383869,34.4456726482
050-9638726,in-call,18,31.4539333189,34.4148310604
050-9742780,in-call,83,31.4565991892,34.4252813253
050-2792787,in-call,32,31.4605692659,34.4263998871
