phone_number,call_type,call_duration,call_location_longitude,call_location_latitude
050-5010190,out-call,2083,31.4294034971,34.3944257984
050-6391671,out-call,657,31.3976604475,34.3657595554
050-4739155,in-call,120,31.4788414802,34.4279272339
050-1393824,out-call,22,31.4541589631,34.4054997136
050-9205100,in-call,60,31.432287767,34.3764514308
