phone_number,call_type,call_duration,call_location_longitude,call_location_latitude
050-8861404,out-call,386,31.4416462802,34.4118444208
050-6441070,in-call,1704,31.4656729984,34.427087863
050-7587134,in-call,44,31.3831322989,34.3428198075
050-8078199,out-call,110,31.466920661,34.4089776019
050-5426138,out-call,50,31.4130511589,34.3701767223
050-7548007,in-call,2051,31.4664152452,34.4383676069
050-8180612,out-call,73,31.4565431683,34.4169559302
050-8139838,out-call,94,31.4451216556,34.3902476214
