phone_number,call_type,call_duration,call_location_longitude,call_location_latitude
050-2619255,out-call,2112,31.3920320863,34.3387423562
050-5342851,in-call,15,31.4118161217,34.3676211143
050-5791147,in-call,21,31.4900344689,34.4602066217
050-7712922,out-call,1008,31.3941799514,34.3310251222
050-3027324,in-call,53,31.4426277634,34.413364828
050-7503023,out-call,53,31.4552359202,34.4218806229
050-5426640,out-call,113,31.4000151816,34.3762586332
050-9359641,out-call,2521,31.4548823465,34.4110189924
050-7681624,out-call,31,31.4490057709,34.4151576669
