phone_number,call_type,call_duration,call_location_longitude,call_location_latitude
050-8471337,out-call,118,31.4533831119,34.4214211646
050-7020870,out-call,26,31.4455112556,34.4105124788
050-9600475,out-call,3276,31.4816217703,34.450647359
050-1919493,out-call,95,31.4115878811,34.3853942436
050-4561591,in-call,1828,31.441975926,34.4306675862
050-4716289,out-call,87,31.4749426633,34.4466698838
