phone_number,call_type,call_duration,call_location_longitude,call_location_latitude
050-3274414,out-call,91,31.4568951623,34.4224222032
050-1171090,out-call,2828,31.4406550787,34.4127199193
050-4368417,out-call,1356,31.4380330742,34.3861289022
050-1775407,out-call,85,31.4527773456,34.4118023925
050-8401050,out-call,85,31.4761328323,34.4360624788
050-2723680,in-call,2211,31.423483446,34.3655155728
050-8368156,out-call,3485,31.4060673095,34.3702847061
050-3401399,in-call,50,31.4414360708,34.4169856785
