phone_number,call_type,call_duration,call_location_longitude,call_location_latitude
050-7707607,in-call,2349,31.4653152119,34.4199350765
050-2926727,in-call,498,31.3906410922,34.3520124945
050-8446819,out-call,48,31.4527952762,34.4077494173
050-1979773,in-call,542,31.458141961,34.4215550318
050-4965268,out-call,116,31.4718381075,34.4301420025
050-9059746,in-call,1701,31.4449310116,34.4107775652
