phone_number,call_type,call_duration,call_location_longitude,call_location_latitude
050-6033397,out-call,22,31.4599615626,34.4265338105
050-6498914,out-call,279,31.4693233254,34.4411255052
050-4291097,out-call,105,31.4761417939,34.4366461176
050-3935694,in-call,120,31.4783121554,34.4431687838
050-1693330,out-call,58,31.4728072149,34.4379491653
