phone_number,call_type,call_duration,call_location_longitude,call_location_latitude
050-5276994,out-call,2046,31.466811665,34.4312148307
050-9577115,out-call,1093,31.4480293845,34.4173974183
050-1057602,in-call,109,31.4083611358,34.3582078354
050-7445594,in-call,3557,31.4583737395,34.4363555717
050-7089428,out-call,2059,31.4063970227,34.367236012
