phone_number,call_type,call_duration,call_location_longitude,call_location_latitude
050-7712432,in-call,1208,31.4644321301,34.4249175036
050-3009696,out-call,2814,31.4465169934,34.4252204385
050-5841949,out-call,106,31.4585143414,34.4300812224
050-2770749,in-call,1941,31.4504145185,34.413904905
050-1924157,out-call,444,31.467416119,34.4355229645
050-7688680,in-call,64,31.4492479872,34.409418936
050-3520336,in-call,641,31.3905176367,34.3236890761
