phone_number,call_type,call_duration,call_location_longitude,call_location_latitude
050-2912767,out-call,2711,31.4862830332,34.4357066643
050-1991925,out-call,2400,31.4651674662,34.4221598319
050-7560383,out-call,137,31.4506779726,34.4149070029
050-4961233,in-call,34,31.4658618419,34.4501234781
050-3537403,out-call,213,31.399410084,34.3455826448
050-8982794,out-call,57,31.4742461865,34.4587378238
050-9741903,in-call,88,31.4514775244,34.4124337127
050-8037572,out-call,587,31.4106260663,34.3481740885
