phone_number,call_type,call_duration,call_location_longitude,call_location_latitude
050-1008537,out-call,3498,31.4379661856,34.3887840963
050-4073258,out-call,824,31.4656423795,34.4388863108
050-7910638,in-call,1763,31.4435614931,34.3871035186
050-7191552,out-call,2486,31.4086763625,34.3837726988
050-9099016,out-call,302,31.4381894175,34.3914316593
050-1106679,in-call,60,31.4608159264,34.4284421831
