phone_number,call_type,call_duration,call_location_longitude,call_location_latitude
050-3641531,in-call,148,31.455740899,34.4219564912
050-5467678,out-call,87,31.4582878747,34.4330951253
050-5061855,out-call,26,31.4799360297,34.4478268347
050-2736698,in-call,2283,31.4349826054,34.4058099771
050-8254051,out-call,75,31.4566405187,34.4106114174
