phone_number,call_type,call_duration,call_location_longitude,call_location_latitude
050-3907718,out-call,34,31.4659320974,34.4317895356
050-3367530,out-call,2005,31.4663017736,34.4289719006
050-5587404,out-call,3532,31.4986355907,34.459047539
050-8675734,in-call,796,31.4676542928,34.440502051
050-9962070,in-call,57,31.4533266997,34.4138624076
050-7418358,out-call,1430,31.4101188788,34.3783558506
050-7789059,out-call,61,31.4071272846,34.3692389686
050-5116014,out-call,3290,31.3926838593,34.3395584085
