phone_number,call_type,call_duration,call_location_longitude,call_location_latitude
050-3424314,out-call,19,31.495242648,34.4551129446
050-5503878,in-call,93,31.4430824317,34.41087444
050-4071736,in-call,645,31.4463122737,34.390845596
050-5585046,out-call,776,31.4620726106,34.4117632822
050-6187005,in-call,28,31.4653152119,34.4199350765
