phone_number,call_type,call_duration,call_location_longitude,call_location_latitude
050-4227927,in-call,68,31.4701952503,34.4438182716
050-2020039,in-call,43,31.4148309985,34.371571824
050-8304655,in-call,1365,31.4494722838,34.4097574738
050-8151475,in-call,250,31.4615073077,34.407980617
050-8374394,in-call,87,31.4045182529,34.3726870795
