phone_number,call_type,call_duration,call_location_longitude,call_location_latitude
050-9875574,out-call,36,31.4502452242,34.4211442075
050-1571347,in-call,1014,31.4833230677,34.4324186827
050-9947418,in-call,127,31.4461536446,34.4213858179
050-5011529,in-call,1905,31.471034349,34.4424066555
050-4300689,out-call,96,31.399568208,34.3701761599
050-9599526,out-call,450,31.4591242449,34.4269723722
050-1438227,in-call,537,31.461227415,34.4238509328
