phone_number,call_type,call_duration,call_location_longitude,call_location_latitude
050-2970753,in-call,2168,31.4517666551,34.4150817063
050-3159666,out-call,78,31.4546227694,34.413848848
050-9994423,in-call,11,31.4532138548,34.416176149
050-4953534,in-call,2283,31.4623459749,34.4238432396
050-2215271,out-call,60,31.4653847904,34.4251924419
