phone_number,call_type,call_duration,call_location_longitude,call_location_latitude
050-1256861,in-call,1503,31.3892280586,34.3440058983
050-1201192,in-call,117,31.4060673095,34.3702847061
050-7757554,in-call,69,31.4750361642,34.4347452613
050-3282323,out-call,1244,31.4545681519,34.4199040741
050-2727026,in-call,70,31.4712243471,34.4260696961
050-9100092,in-call,39,31.4722948246,34.4338796065
050-7463889,in-call,2260,31.4545542565,34.4116130094
