phone_number,call_type,call_duration,call_location_longitude,call_location_latitude
050-3010990,out-call,44,31.4676308855,34.4228143384
050-5166266,in-call,60,31.4640068327,34.4330935217
050-2352354,out-call,10,31.4839167601,34.4507995414
050-6945755,out-call,1323,31.4573783606,34.4300424343
050-6315679,out-call,3191,31.463467231,34.4394066945
050-1778993,out-call,2843,31.3910194136,34.3385789383
050-5589906,in-call,104,31.4800626561,34.4242659178
