phone_number,call_type,call_duration,call_location_longitude,call_location_latitude
050-2331494,in-call,90,31.4457470154,34.4023217859
050-6768057,in-call,61,31.4220783574,34.3598663774
050-5684417,out-call,3543,31.4533831119,34.4214211646
050-4265372,in-call,1880,31.4900344689,34.4602066217
050-5748274,out-call,1853,31.4482701483,34.4051270677
