phone_number,call_type,call_duration,call_location_longitude,call_location_latitude
050-7156593,out-call,16,31.4457729412,34.3908862621
050-9196093,in-call,2232,31.4121956534,34.3690327663
050-9019922,out-call,54,31.4454345026,34.4309208369
050-2157300,out-call,1571,31.425051825,34.3645563743
050-1259014,in-call,244,31.4568787163,34.4141771888
050-6343785,out-call,68,31.451158431,34.4231370409
050-8539152,out-call,3496,31.4492478502,34.4149096152
050-5571065,in-call,61,31.417615512,34.3728814151
