phone_number,call_type,call_duration,call_location_longitude,call_location_latitude
050-1721679,out-call,78,31.4069950115,34.3462384131
050-8038791,in-call,59,31.4416462802,34.4118444208
050-4088915,out-call,77,31.4626888602,34.4214682459
050-6507935,in-call,2279,31.4443278142,34.411670786
050-5734007,out-call,97,31.4134313155,34.3709256452
050-8132859,in-call,966,31.4278991082,34.3951056152
