phone_number,call_type,call_duration,call_location_longitude,call_location_latitude
050-8985429,out-call,581,31.4436259822,34.4133619643
050-5379761,in-call,115,31.4180060969,34.3685124516
050-4214318,in-call,1886,31.4542250533,34.4230287337
050-6128859,in-call,430,31.4036212139,34.3898814694
050-7009978,in-call,94,31.4714043707,34.4459420352
050-9767629,out-call,452,31.4900344689,34.4602066217
050-9729241,out-call,2035,31.4403074664,34.42188464
050-5474111,in-call,2562,31.4184590536,34.3687100996
050-3403904,out-call,74,31.4165384525,34.3716291299
