phone_number,call_type,call_duration,call_location_longitude,call_location_latitude
050-6089881,in-call,33,31.4075750075,34.3769454315
050-9408080,out-call,175,31.4658755644,34.4259949352
050-1372875,in-call,1064,31.4606581135,34.4294726209
050-8150008,in-call,117,31.4659661316,34.4341877249
050-3396473,out-call,39,31.479035083,34.4210583502
050-9405539,out-call,3125,31.4425597092,34.4213049479
050-6341032,out-call,23,31.4361267257,34.3878623345
050-2741960,in-call,66,31.4327079359,34.3841186016
