phone_number,call_type,call_duration,call_location_longitude,call_location_latitude
050-5623633,in-call,1011,31.4431980064,34.4298243133
050-3042757,in-call,54,31.4887777718,34.4691165734
050-2648922,in-call,717,31.4067114668,34.3448400634
050-2518527,out-call,115,31.4633524327,34.4275985163
050-1569649,out-call,22,31.4562207311,34.413409462
050-5684636,out-call,39,31.4565590108,34.4214185675
050-9034783,in-call,648,31.4582878747,34.4330951253
050-1651460,in-call,99,31.3935332878,34.3429315879
