phone_number,call_type,call_duration,call_location_longitude,call_location_latitude
050-2034823,in-call,113,31.4524326353,34.4227144306
050-9972615,in-call,104,31.4119049065,34.3693588016
050-1483264,out-call,3297,31.4672449188,34.4362546193
050-8603736,out-call,2463,31.4868214273,34.4455014181
050-1217485,in-call,59,31.4742461865,34.4587378238
050-5386463,in-call,894,31.4468059533,34.3890834469
