phone_number,call_type,call_duration,call_location_longitude,call_location_latitude
050-4062497,in-call,74,31.4561545503,34.4191888413
050-6563425,in-call,99,31.4546227694,34.413848848
050-7296867,in-call,2760,31.4291176397,34.418843157
050-1466083,out-call,84,31.4650275465,34.436264348
050-2816134,out-call,16,31.4351947793,34.3869603935
