phone_number,call_type,call_duration,call_location_longitude,call_location_latitude
050-1197336,out-call,2778,31.4542242134,34.4163847008
050-6585272,out-call,3463,31.4448120169,34.4128287802
050-5995468,out-call,710,31.4120620025,34.3600858566
050-3654878,in-call,85,31.4493493057,34.4041317317
050-3300352,out-call,1342,31.4505080017,34.4107241454
050-1192172,out-call,2740,31.4102046979,34.3592035968
