phone_number,call_type,call_duration,call_location_longitude,call_location_latitude
050-2542787,out-call,2353,31.4421375011,34.4100693258
050-5059248,in-call,2561,31.3896033247,34.3521375083
050-9875286,in-call,3387,31.4832673007,34.4619470231
050-5911125,in-call,2299,31.4045182529,34.3726870795
050-2046888,out-call,117,31.4467800168,34.4138339537
050-3621511,out-call,722,31.4743134187,34.442979748
050-7435108,in-call,2989,31.4620382289,34.4222745322
050-3386570,in-call,17,31.4622961399,34.4127153871
050-3358999,out-call,71,31.409148782,34.3727662031
