phone_number,call_type,call_duration,call_location_longitude,call_location_latitude
050-8744892,out-call,1057,31.385834961,34.3459518194
050-6591111,in-call,534,31.4959592157,34.4589067176
050-2637377,in-call,3109,31.4882903037,34.4579899733
050-7313659,in-call,608,31.438096906,34.3870759478
050-7998166,in-call,599,31.4722948246,34.4338796065
050-4505888,in-call,1330,31.3819018853,34.3516975237
050-1207599,in-call,86,31.4359778973,34.3880127589
050-5770627,out-call,2089,31.4636740217,34.4233160226
