phone_number,call_type,call_duration,call_location_longitude,call_location_latitude
050-1614371,in-call,3136,31.4547287904,34.42480535
050-2887378,out-call,96,31.4670003414,34.4339450829
050-5173632,in-call,42,31.4395535002,34.3917766427
050-1245724,out-call,103,31.4744632447,34.4324341509
050-6928016,out-call,68,31.4498547886,34.4127343853
