phone_number,call_type,call_duration,call_location_longitude,call_location_latitude
050-2711309,out-call,365,31.4579629122,34.4027048723
050-9102798,out-call,76,31.4586559461,34.4161997161
050-4458993,in-call,283,31.4923202358,34.4524890052
050-4307109,in-call,109,31.41435908,34.3682597162
050-9663673,in-call,899,31.4095093497,34.3687201481
050-3208881,in-call,11,31.4943523499,34.4670412302
050-1923399,in-call,69,31.4704486303,34.413878204
