phone_number,call_type,call_duration,call_location_longitude,call_location_latitude
050-8220401,out-call,117,31.4736061795,34.4273601016
050-5985104,in-call,278,31.4533831119,34.4214211646
050-3063873,in-call,736,31.4659022564,34.4169429189
050-7697294,out-call,797,31.3962183231,34.3519699686
050-3209129,out-call,3471,31.4093868218,34.3707090685
050-9943583,out-call,3455,31.4854447546,34.4373456791
050-7998703,out-call,72,31.4603328897,34.4246044839
050-8259105,in-call,197,31.4639019912,34.4276644218
