phone_number,call_type,call_duration,call_location_longitude,call_location_latitude
050-4547417,out-call,13,31.3856031989,34.3397749851
050-8093683,in-call,46,31.4544520863,34.4103019412
050-1195805,in-call,28,31.4825380585,34.4452705357
050-8009718,out-call,3257,31.4230204576,34.3664219791
050-5946424,in-call,106,31.4699994224,34.4360299155
050-1195138,in-call,47,31.4741415245,34.4419162799
050-5057856,out-call,2189,31.4534134607,34.4235652424
050-9974079,out-call,86,31.4393868799,34.3872503242
050-6910312,in-call,3489,31.4518681462,34.4110462701
