phone_number,call_type,call_duration,call_location_longitude,call_location_latitude
050-5644597,out-call,41,31.4572330395,34.4023962785
050-3456294,in-call,1395,31.4141301223,34.3893600034
050-1526856,in-call,104,31.4829480149,34.4278457203
050-1504104,in-call,43,31.45646867,34.4124555488
050-3030258,in-call,354,31.4113807039,34.3730853395
050-4326411,in-call,49,31.4882339499,34.4833967546
050-2176639,out-call,1045,31.4350360122,34.3857725754
050-2586948,out-call,28,31.440748119,34.3894416218
050-2618540,in-call,3183,31.4839167601,34.4507995414
