phone_number,call_type,call_duration,call_location_longitude,call_location_latitude
050-7632742,out-call,24,31.3700678243,34.3286565723
050-6678980,out-call,3565,31.4592312397,34.4214330822
050-7561017,in-call,1131,31.4580957259,34.4244530085
050-3839050,in-call,28,31.438796514,34.3913725638
050-6940877,out-call,949,31.4719827256,34.4495286211
050-1532301,in-call,60,31.4583979126,34.4267184218
050-2162239,in-call,1168,31.4639486619,34.422119097
050-1944928,out-call,108,31.4895518764,34.4439702849
