phone_number,call_type,call_duration,call_location_longitude,call_location_latitude
050-1336926,in-call,2372,31.3650861948,34.3234230455
050-5880288,in-call,1391,31.4874216063,34.4379888242
050-3796494,out-call,185,31.4788826921,34.4222524095
050-5332604,in-call,2494,31.4659320974,34.4317895356
050-9972344,in-call,22,31.4877233035,34.4454120756
050-5043637,in-call,26,31.4415296855,34.4142632262
050-9966293,in-call,1951,31.4735481489,34.4191694921
