phone_number,call_type,call_duration,call_location_longitude,call_location_latitude
050-8802938,in-call,21,31.4693842949,34.4263893178
050-5213361,out-call,2177,31.4489751477,34.4094207303
050-8266559,out-call,61,31.4506177452,34.4106726933
050-2114511,out-call,910,31.4846512256,34.4406516352
050-1815096,out-call,3198,31.4340663013,34.4126158938
050-5613522,out-call,71,31.4187195646,34.370896626
050-7352128,out-call,3537,31.4868993795,34.4475732882
050-6261756,out-call,37,31.4549275034,34.3853803945
