phone_number,call_type,call_duration,call_location_longitude,call_location_latitude
050-6549629,in-call,2563,31.4582029576,34.4157823602
050-1497667,in-call,1047,31.4070229088,34.3673389136
050-3652169,in-call,91,31.4552357893,34.4086902562
050-2875908,out-call,3518,31.4618735822,34.4268359858
050-6708798,out-call,49,31.4513935565,34.3935425193
050-7903370,in-call,3547,31.4720821603,34.4374686372
050-1236929,out-call,2484,31.4518802193,34.4193164251
050-2982920,out-call,517,31.4551051172,34.422406659
