phone_number,call_type,call_duration,call_location_longitude,call_location_latitude
050-5785046,out-call,63,31.4567551899,34.4346558514
050-4447725,in-call,3424,31.4435060957,34.3774771599
050-6851727,out-call,81,31.4602523022,34.4240151158
050-7214292,in-call,392,31.4726009411,34.4331042708
050-3533571,out-call,3125,31.4537867155,34.4299099438
