phone_number,call_type,call_duration,call_location_longitude,call_location_latitude
050-1816773,out-call,69,31.4551919765,34.4205058124
050-9237456,in-call,35,31.4551068963,34.4087898552
050-8288375,out-call,1197,31.4718539929,34.4227112306
050-3059182,in-call,70,31.4032150212,34.3704400643
050-8962971,out-call,2324,31.4697014182,34.4628048266
050-8279730,out-call,107,31.4534231011,34.4230340285
050-8413172,in-call,3002,31.3952005458,34.3526302561
050-1180628,in-call,1377,31.4665534761,34.4374424455
050-4871872,out-call,2369,31.5005126767,34.4661201416
