phone_number,call_type,call_duration,call_location_longitude,call_location_latitude
050-8856836,in-call,532,31.4617028975,34.4298169116
050-4728350,out-call,666,31.4796846252,34.4399917651
050-5698084,out-call,471,31.4495430978,34.4219857158
050-8346083,in-call,110,31.4140106792,34.3656523064
050-2926850,in-call,1194,31.4120481911,34.3928677077
