phone_number,call_type,call_duration,call_location_longitude,call_location_latitude
050-8819663,in-call,44,31.4788763129,34.4317137201
050-8596690,out-call,92,31.4568303869,34.4289387334
050-5685315,in-call,34,31.4406550787,34.4127199193
050-3332304,out-call,3170,31.4851809774,34.4354380202
050-7167117,out-call,78,31.4776415637,34.4300610084
050-9665130,out-call,1264,31.4428593257,34.4124923035
050-2204336,in-call,1087,31.4536887659,34.4123480838
050-9342073,in-call,106,31.4631025246,34.4278868037
