phone_number,call_type,call_duration,call_location_longitude,call_location_latitude
050-2539462,in-call,92,31.4338491951,34.4066820678
050-7610971,out-call,1110,31.4340663013,34.4126158938
050-6141901,out-call,100,31.4337382707,34.4042810754
050-7029971,out-call,79,31.4506779726,34.4149070029
050-9510255,in-call,92,31.4454714542,34.3763129946
