phone_number,call_type,call_duration,call_location_longitude,call_location_latitude
050-3067317,out-call,120,31.4474015596,34.4200578318
050-4472299,in-call,3285,31.4638946043,34.4204209835
050-7840022,in-call,19,31.4837681134,34.4475407039
050-8962718,out-call,3014,31.4788264753,34.4272652061
050-6067757,out-call,2278,31.4461072523,34.4156410128
050-6446850,out-call,1134,31.4481599796,34.4044254467
050-4310779,in-call,37,31.4629763374,34.4345974942
