phone_number,call_type,call_duration,call_location_longitude,call_location_latitude
050-6976847,in-call,66,31.3810729087,34.3431676622
050-8320714,out-call,1406,31.4564485984,34.3900531874
050-2873547,in-call,86,31.488014762,34.4562596038
050-9062668,in-call,1008,31.4351435636,34.4128891933
050-9896526,out-call,24,31.449202891,34.41424247
050-9947668,out-call,79,31.4553550454,34.4341225876
050-7030557,in-call,2729,31.4728716814,34.4450645104
050-8694058,out-call,63,31.4733130493,34.4363330356
050-7788839,out-call,350,31.4575801076,34.4103798603
