phone_number,call_type,call_duration,call_location_longitude,call_location_latitude
050-6069381,out-call,3219,31.4583737395,34.4363555717
050-4192303,out-call,2020,31.4098649553,34.3770623682
050-2414039,in-call,71,31.438096906,34.3870759478
050-8666077,in-call,1395,31.4371523822,34.4235345273
050-6604280,in-call,115,31.4591168909,34.4377022671
