phone_number,call_type,call_duration,call_location_longitude,call_location_latitude
050-6801701,out-call,1577,31.4370237445,34.4153312545
050-3632314,in-call,2075,31.4696657155,34.448983313
050-5480181,out-call,1427,31.4483097131,34.4223316496
050-5393581,in-call,77,31.4638946043,34.4204209835
050-6209796,in-call,1405,31.3934904682,34.3506200066
050-1179266,out-call,38,31.4130511589,34.3701767223
050-2136702,in-call,119,31.4720674366,34.4455291764
050-5785322,out-call,44,31.4511656929,34.4146486761
