phone_number,call_type,call_duration,call_location_longitude,call_location_latitude
050-3754219,in-call,61,31.4148757314,34.3658454271
050-6652739,out-call,36,31.4899421639,34.4684686492
050-7725244,out-call,104,31.4719827256,34.4495286211
050-8389520,out-call,28,31.4456415728,34.4115709592
050-1718311,out-call,57,31.4562113853,34.4093466619
050-7192539,out-call,2830,31.4518591303,34.4195736837
050-1773230,in-call,2362,31.3925437606,34.3470697368
050-3260420,in-call,3048,31.3892206533,34.3326497925
050-3146294,out-call,1373,31.4048630189,34.3699537451
