phone_number,call_type,call_duration,call_location_longitude,call_location_latitude
050-9756148,in-call,35,31.4854447546,34.4373456791
050-7373624,out-call,293,31.4614128991,34.42412172
050-6724844,out-call,2296,31.46849095,34.4299624465
050-3695577,in-call,1750,31.4094925427,34.3790858731
050-3338229,out-call,78,31.5005126767,34.4661201416
050-3616175,in-call,40,31.4446179284,34.4205382218
050-7684547,out-call,110,31.4955484426,34.4502712782
050-4317205,out-call,34,31.4598701916,34.4256010501
