phone_number,call_type,call_duration,call_location_longitude,call_location_latitude
050-2172727,in-call,1944,31.4134607272,34.374601652
050-2948431,out-call,57,31.4719827256,34.4495286211
050-6734789,in-call,57,31.4788826921,34.4222524095
050-6580839,in-call,119,31.4510746214,34.4129889062
050-1283430,in-call,25,31.4901379319,34.4469718655
050-4811917,in-call,67,31.4608003056,34.4244494818
