phone_number,call_type,call_duration,call_location_longitude,call_location_latitude
050-1696671,in-call,51,31.4349385559,34.4074187401
050-8875465,in-call,50,31.4134078974,34.3747990297
050-9341617,in-call,15,31.4264406159,34.3821411777
050-7030637,out-call,99,31.4269030157,34.3969957824
050-7008230,out-call,60,31.4966489898,34.4681229156
050-5976887,in-call,109,31.4485571372,34.4162031005
