phone_number,call_type,call_duration,call_location_longitude,call_location_latitude
050-1018584,out-call,87,31.4578270386,34.4125664191
050-3867058,out-call,72,31.4564244162,34.4086035671
050-2882886,out-call,10,31.4592988864,34.4148799554
050-7127193,out-call,2355,31.4625445411,34.4101872943
050-5480884,out-call,272,31.4505479363,34.417222674
050-1517715,in-call,2554,31.4527641951,34.4151095221
050-1460924,in-call,1919,31.4566796353,34.4309474487
050-1375066,out-call,2301,31.4679919105,34.434584837
