phone_number,call_type,call_duration,call_location_longitude,call_location_latitude
050-9404046,in-call,3277,31.425509871,34.3840382134
050-1391698,in-call,2096,31.4742074474,34.4558649624
050-1744136,out-call,82,31.4128516048,34.3469154077
050-2749483,out-call,2583,31.4731859249,34.44124727
050-6063230,in-call,457,31.4410681672,34.4212649434
050-6774670,in-call,76,31.4445306938,34.3780868616
050-5848247,out-call,2829,31.4518659959,34.4160782907
050-1123510,in-call,966,31.3926838593,34.3395584085
050-9512343,out-call,3292,31.4532572839,34.421373547
