phone_number,call_type,call_duration,call_location_longitude,call_location_latitude
050-5452292,in-call,74,31.4806490147,34.4432785975
050-8353281,in-call,70,31.4623187353,34.4015814418
050-5386583,out-call,32,31.4587508674,34.4267716659
050-2832374,in-call,24,31.4483928668,34.4217106729
050-3780499,out-call,2445,31.4608003056,34.4244494818
050-6919677,out-call,113,31.4699994224,34.4360299155
050-7785986,out-call,83,31.4600903271,34.4170345021
050-8419926,out-call,104,31.4060715961,34.3740755439
050-2435498,in-call,48,31.4327079359,34.3841186016
050-9901196,out-call,2369,31.4527398776,34.4163472893
050-5918456,in-call,1571,31.4684817028,34.4379984063
050-9084037,in-call,99,31.467123119,34.431897416
050-4216440,in-call,60,31.411937242,34.3774345901
050-9417554,out-call,2977,31.4522895226,34.4207387862
050-6283945,out-call,120,31.419487532,34.3603406838
