phone_number,call_type,call_duration,call_location_longitude,call_location_latitude
050-4100530,in-call,118,31.4565590108,34.4214185675
050-9965234,out-call,77,31.4455844818,34.4118587893
050-4181823,in-call,75,31.4771072642,34.4246029397
050-1429789,in-call,3141,31.3978811112,34.3503819519
050-9878199,out-call,50,31.4571398718,34.3873794017
050-5171118,in-call,1981,31.4393778871,34.4129509909
050-4456657,in-call,3385,31.441424977,34.3915680729
050-8637003,out-call,90,31.4371688746,34.3885671099
