phone_number,call_type,call_duration,call_location_longitude,call_location_latitude
050-4466201,in-call,75,31.4365493475,34.41282278
050-2104433,out-call,1483,31.4605736477,34.417459759
050-8201133,in-call,76,31.4729955763,34.4404847715
050-6049788,out-call,50,31.4514572657,34.4152916175
050-7209163,in-call,1388,31.47175844,34.44541926
