phone_number,call_type,call_duration,call_location_longitude,call_location_latitude
050-7443195,in-call,55,31.4863528226,34.4488761578
050-3506263,out-call,1015,31.4743134187,34.442979748
050-6085642,out-call,2578,31.4554433208,34.4042927986
050-9397380,out-call,1331,31.4591190001,34.4086305096
050-1874922,out-call,431,31.4655989581,34.4219285786
