phone_number,call_type,call_duration,call_location_longitude,call_location_latitude
050-3321145,out-call,22,31.4788763129,34.4317137201
050-1742992,in-call,580,31.3930409441,34.3516170708
050-4778374,out-call,44,31.4514775244,34.4124337127
050-5684560,in-call,2854,31.4838993567,34.4468827832
050-4693949,in-call,111,31.4641338309,34.4231113598
050-5624625,in-call,21,31.4092559526,34.3702509536
050-9814364,in-call,120,31.4514775244,34.4124337127
050-7614982,out-call,90,31.5090734048,34.4595040924
