phone_number,call_type,call_duration,call_location_longitude,call_location_latitude
050-1957203,out-call,2362,31.4508306269,34.4405132131
050-6329630,in-call,1322,31.4910247756,34.4638925643
050-5837361,in-call,1624,31.4491799025,34.4191545064
050-1851374,in-call,228,31.4002294108,34.3723867023
050-8547869,in-call,68,31.4522064674,34.4161538217
