phone_number,call_type,call_duration,call_location_longitude,call_location_latitude
050-7767667,in-call,109,31.4454266461,34.4137820607
050-1566702,in-call,3066,31.5040985765,34.479430491
050-8264476,out-call,2689,31.4621326068,34.4155113862
050-9430751,in-call,654,31.4158606961,34.3652032489
050-2358637,in-call,83,31.465098196,34.4205460031
050-8774284,out-call,80,31.457977434,34.4223134092
050-5396780,in-call,2730,31.4660577298,34.4079282584
