phone_number,call_type,call_duration,call_location_longitude,call_location_latitude
050-8499847,in-call,1352,31.4534622091,34.4172794175
050-3448341,out-call,39,31.4895969451,34.4407751865
050-2870176,in-call,3213,31.4627065474,34.4191403779
050-2737970,out-call,20,31.4736380577,34.4429667223
050-4217055,in-call,67,31.4798293215,34.4345755707
050-5779332,out-call,1215,31.4619741224,34.4136218748
050-7294742,in-call,3052,31.4655399557,34.4283228483
050-2349634,out-call,15,31.4446179284,34.4205382218
