phone_number,call_type,call_duration,call_location_longitude,call_location_latitude
050-1718421,out-call,2679,31.4497953815,34.4094928421
050-3973930,out-call,572,31.4152009394,34.3732247654
050-8496154,out-call,3058,31.4101049056,34.3880589632
050-6324558,out-call,2560,31.4501674529,34.4152219216
050-3486632,out-call,85,31.4631025246,34.4278868037
050-2238129,in-call,3412,31.4524326353,34.4227144306
050-5001676,in-call,91,31.452110462,34.4140305824
050-4252036,in-call,88,31.4438602822,34.4132835242
