phone_number,call_type,call_duration,call_location_longitude,call_location_latitude
050-4490229,out-call,87,31.490687727,34.451370718
050-6639555,in-call,3329,31.4469874223,34.4165641637
050-8576425,out-call,112,31.4746695262,34.4340052809
050-9935227,out-call,20,31.4576716896,34.4293196467
050-7359989,out-call,789,31.452123507,34.4230120312
050-4439312,out-call,1184,31.3851518154,34.3371004068
050-9387036,in-call,1320,31.4718654658,34.4341594752
050-7117077,out-call,59,31.4696657155,34.448983313
050-1027184,in-call,3519,31.4726589335,34.4402410449
