phone_number,call_type,call_duration,call_location_longitude,call_location_latitude
050-8820216,out-call,1420,31.4458108469,34.3896470333
050-6610175,out-call,498,31.4885116498,34.4571171188
050-7108959,in-call,3146,31.4588018273,34.4073392591
050-3301067,in-call,99,31.4016608221,34.3680082565
050-1723647,out-call,53,31.4815544704,34.4475076542
050-7031377,out-call,78,31.382585902,34.3386753672
