phone_number,call_type,call_duration,call_location_longitude,call_location_latitude
050-8037459,in-call,403,31.4448120913,34.4049982381
050-5563111,out-call,439,31.4806767148,34.4408022479
050-5606964,in-call,3034,31.4545542565,34.4116130094
050-4172286,out-call,111,31.4410704879,34.4179879565
050-9552411,out-call,3062,31.477628419,34.4472212832
050-1514450,out-call,3168,31.4374412796,34.4059477378
050-4461937,in-call,2405,31.4520045705,34.4165160076
