phone_number,call_type,call_duration,call_location_longitude,call_location_latitude
050-2014234,out-call,2629,31.4806767148,34.4408022479
050-1840603,out-call,103,31.450049612,34.411394682
050-2128974,in-call,2507,31.4606807978,34.4266625123
050-4586047,in-call,45,31.4551437049,34.4085842393
050-8380422,in-call,2945,31.4135347207,34.3758405459
050-4292946,out-call,1535,31.4600903271,34.4170345021
050-2606767,out-call,62,31.4610149911,34.4189778929
050-2116122,in-call,2421,31.4121956534,34.3690327663
050-3738243,out-call,3476,31.4501053096,34.4159147547
