phone_number,call_type,call_duration,call_location_longitude,call_location_latitude
050-9916460,out-call,856,31.4073868279,34.3763047638
050-1427863,in-call,106,31.4414514201,34.4115921947
050-7403284,out-call,16,31.4555821179,34.4227737012
050-1732677,in-call,118,31.4610226154,34.3919316403
050-8081627,out-call,40,31.3906275208,34.3369495903
050-5435569,out-call,2027,31.4412515447,34.4139064769
050-1782504,in-call,255,31.4508804192,34.4151535765
