phone_number,call_type,call_duration,call_location_longitude,call_location_latitude
050-2667826,out-call,76,31.4642372814,34.4322704607
050-1947378,out-call,54,31.4437986739,34.3884287763
050-2124092,out-call,120,31.4696657155,34.448983313
050-7350457,out-call,61,31.4658618419,34.4501234781
050-3938898,in-call,80,31.4418406889,34.3854883109
050-6697887,out-call,36,31.3864361065,34.3425352432
