phone_number,call_type,call_duration,call_location_longitude,call_location_latitude
050-6406338,in-call,264,31.4545351366,34.3926239204
050-9665309,in-call,555,31.4602145644,34.4176654625
050-2670629,out-call,377,31.4051969532,34.3670325635
050-7134938,in-call,99,31.4340153418,34.4148745414
050-2206983,in-call,94,31.4751658411,34.4307461708
050-9658466,in-call,2031,31.4555254148,34.4009133606
050-8602914,in-call,2480,31.4291176397,34.418843157
050-2193719,in-call,3557,31.474171466,34.4453427601
050-3185261,out-call,1398,31.4073077676,34.389272375
