phone_number,call_type,call_duration,call_location_longitude,call_location_latitude
050-8537424,in-call,2283,31.4618291398,34.4344809616
050-5961952,out-call,1200,31.4745619346,34.424889056
050-5182875,in-call,43,31.4593226812,34.411206188
050-7374716,in-call,37,31.4060715961,34.3740755439
050-5664350,out-call,108,31.4435614931,34.3871035186
050-4070424,in-call,183,31.4487711088,34.4094388274
050-1976512,in-call,1372,31.423483446,34.3655155728
