phone_number,call_type,call_duration,call_location_longitude,call_location_latitude
050-4965081,in-call,100,31.4484030138,34.4206621737
050-1678459,in-call,108,31.4566796353,34.4309474487
050-7885740,out-call,2194,31.4485571372,34.4162031005
050-2629813,out-call,166,31.4990993168,34.4508257177
050-4846057,in-call,19,31.47175844,34.44541926
050-5074185,in-call,2231,31.3807531011,34.339928365
050-9950146,in-call,1548,31.4510856116,34.4097016143
050-1666386,out-call,2542,31.4134078974,34.3747990297
050-9775321,out-call,112,31.4656729984,34.427087863
