phone_number,call_type,call_duration,call_location_longitude,call_location_latitude
050-7147401,in-call,70,31.4943523499,34.4670412302
050-4498190,out-call,111,31.4882996,34.4450850922
050-5936671,in-call,110,31.450515615,34.4213783805
050-7178453,in-call,118,31.3962183231,34.3519699686
050-2720753,in-call,1218,31.4156977238,34.3703840001
