phone_number,call_type,call_duration,call_location_longitude,call_location_latitude
050-7047371,in-call,55,31.3994078598,34.3710226343
050-1332123,out-call,39,31.4177956393,34.3723642361
050-3511189,out-call,1152,31.4549546704,34.3952025443
050-6990787,out-call,1511,31.3926838593,34.3395584085
050-5288557,in-call,50,31.4732435139,34.4294301072
050-2941387,in-call,113,31.4650504862,34.4313490425
050-9544683,in-call,83,31.4256380027,34.41376036
050-5585788,out-call,100,31.4006527183,34.3709534885
050-7152171,in-call,36,31.4700545459,34.4240119297
