phone_number,call_type,call_duration,call_location_longitude,call_location_latitude
050-3103597,out-call,1962,31.4387735212,34.3852259875
050-6501691,in-call,26,31.4556410783,34.4106171931
050-6925951,out-call,12,31.4489751477,34.4094207303
050-5059680,in-call,48,31.3825528853,34.334303103
050-1946257,in-call,3281,31.4558231428,34.4087345933
050-9469795,out-call,78,31.4461536446,34.4213858179
050-8362395,in-call,2137,31.4522895226,34.4207387862
050-4362655,out-call,928,31.4006527183,34.3709534885
050-6671173,out-call,115,31.4689525064,34.4227713386
