phone_number,call_type,call_duration,call_location_longitude,call_location_latitude
050-4896277,out-call,59,31.4394105261,34.4071439561
050-1604243,out-call,2475,31.3972477621,34.3666989152
050-5229097,out-call,2253,31.4425702778,34.4125488669
050-3831133,in-call,1412,31.4751047438,34.4435120603
050-7852973,in-call,29,31.4397798548,34.4129387527
050-5853764,in-call,33,31.4587508674,34.4267716659
