phone_number,call_type,call_duration,call_location_longitude,call_location_latitude
050-1010230,out-call,91,31.4901379319,34.4469718655
050-7054409,out-call,1852,31.4556107997,34.4193679069
050-3002964,in-call,98,31.4030115818,34.3673775023
050-1936577,in-call,46,31.4465534955,34.4107081537
050-1111427,in-call,11,31.4497293437,34.4101596567
