phone_number,call_type,call_duration,call_location_longitude,call_location_latitude
050-2808159,out-call,13,31.4436837423,34.4155154245
050-2017623,out-call,70,31.4584658889,34.4230255727
050-9746293,out-call,66,31.4465534955,34.4107081537
050-9074353,out-call,894,31.4467924727,34.413096221
050-4540673,in-call,1075,31.4610779439,34.404794995
050-4432235,out-call,12,31.4732587922,34.4183869306
