phone_number,call_type,call_duration,call_location_longitude,call_location_latitude
050-1763886,out-call,10,31.3966859363,34.3536635998
050-8593879,out-call,1301,31.4588839221,34.4066537365
050-9356431,out-call,3074,31.3841319542,34.3454214962
050-4989334,in-call,3482,31.4529551018,34.4248827889
050-5687262,in-call,68,31.500295081,34.4519686026
