phone_number,call_type,call_duration,call_location_longitude,call_location_latitude
050-1943223,in-call,81,31.4580278603,34.4161475389
050-9821324,in-call,662,31.4990993168,34.4508257177
050-6808037,in-call,86,31.478674876,34.4391922854
050-2420188,in-call,2958,31.383552896,34.3327684958
050-2713716,out-call,364,31.4050085367,34.3738033499
050-4637312,in-call,1787,31.4650406548,34.4203910097
050-5057730,in-call,78,31.3930225551,34.3437037118
