phone_number,call_type,call_duration,call_location_longitude,call_location_latitude
050-2645029,in-call,115,31.4867311396,34.4415294147
050-6136016,in-call,38,31.495242648,34.4551129446
050-2307325,out-call,12,31.440748119,34.3894416218
050-2679972,out-call,56,31.4757905443,34.4258416547
050-2112725,out-call,44,31.4745933558,34.4457888536
