phone_number,call_type,call_duration,call_location_longitude,call_location_latitude
050-3569397,in-call,93,31.4774047663,34.4382903037
050-9052306,out-call,3080,31.3966859363,34.3536635998
050-2528611,out-call,1591,31.4667033598,34.4342733925
050-1587395,in-call,831,31.4743228609,34.428659975
050-2591315,out-call,103,31.4654571407,34.4284463571
050-5416996,in-call,24,31.411363375,34.3789157197
