phone_number,call_type,call_duration,call_location_longitude,call_location_latitude
050-5029638,out-call,63,31.4532572839,34.421373547
050-5704666,in-call,2208,31.4450083629,34.3914056574
050-9915519,in-call,47,31.4783121554,34.4431687838
050-4147402,in-call,2653,31.442522918,34.4111515383
050-1121852,in-call,45,31.4727045278,34.4365398724
050-1826178,out-call,1879,31.4457729412,34.3908862621
050-3998244,out-call,123,31.4697161997,34.4435726845
050-1179533,out-call,34,31.4724820116,34.4372099933
050-6999068,in-call,52,31.4776415637,34.4300610084
