phone_number,call_type,call_duration,call_location_longitude,call_location_latitude
050-3168402,in-call,92,31.4607666867,34.4221382585
050-4611054,in-call,3295,31.4544885598,34.4104676694
050-7580695,out-call,3152,31.4164608455,34.3711477453
050-8530378,out-call,2198,31.4495657937,34.416463989
050-1690792,out-call,108,31.4482136901,34.3864572468
050-1706249,in-call,3213,31.3972021384,34.3519496205
050-2223961,in-call,65,31.4101049056,34.3880589632
050-7268473,out-call,2488,31.4106260663,34.3481740885
