phone_number,call_type,call_duration,call_location_longitude,call_location_latitude
050-7525877,out-call,2470,31.4286650518,34.4122904783
050-3069727,out-call,3562,31.3934904682,34.3506200066
050-4448812,out-call,1080,31.3835849602,34.3428341635
050-7457620,out-call,16,31.4363784459,34.40657836
050-9013973,in-call,78,31.4732435139,34.4294301072
050-8125373,in-call,1731,31.4122669935,34.3674592315
050-9144763,out-call,102,31.4665561704,34.4099140993
