phone_number,call_type,call_duration,call_location_longitude,call_location_latitude
050-7847250,in-call,73,31.4363349414,34.3902005627
050-1368581,out-call,28,31.4389262405,34.3843009456
050-4556943,in-call,24,31.3843825756,34.3291570747
050-6832982,in-call,2447,31.4697934428,34.4299608611
050-3751425,out-call,2921,31.4680377681,34.4266869515
050-2785769,out-call,50,31.467123119,34.431897416
050-1989868,in-call,2422,31.4582449462,34.4151136459
