phone_number,call_type,call_duration,call_location_longitude,call_location_latitude
050-3219490,out-call,114,31.4605407018,34.4267584628
050-9316717,out-call,73,31.464659551,34.4322926804
050-1101267,in-call,3433,31.457977434,34.4223134092
050-3009151,in-call,1608,31.3905176367,34.3236890761
050-8428482,out-call,68,31.4188010071,34.3674247723
