phone_number,call_type,call_duration,call_location_longitude,call_location_latitude
050-2008292,out-call,21,31.4626477346,34.4283456456
050-1386313,in-call,86,31.46296571,34.4083291779
050-1565193,out-call,1668,31.4469874223,34.4165641637
050-1516050,out-call,116,31.4618585679,34.4069199481
050-7168902,in-call,3372,31.4262657911,34.4148051498
050-8980389,in-call,1560,31.4627065474,34.4191403779
