phone_number,call_type,call_duration,call_location_longitude,call_location_latitude
050-4505540,in-call,1744,31.4720391744,34.437622742
050-4277574,out-call,1969,31.4153757213,34.3716241802
050-9120244,in-call,103,31.4024813161,34.3778386152
050-3495141,in-call,27,31.4697934428,34.4299608611
050-5608647,in-call,422,31.4883615237,34.459111663
050-3460667,in-call,3515,31.4636618738,34.4178019602
