phone_number,call_type,call_duration,call_location_longitude,call_location_latitude
050-7412551,out-call,916,31.4483533165,34.4133175911
050-6550547,in-call,26,31.4589576352,34.4296106335
050-1124755,out-call,81,31.4362196839,34.3854789373
050-5827333,in-call,55,31.4612608337,34.4124492765
050-8181132,out-call,27,31.4431980064,34.4298243133
050-6117574,in-call,70,31.4733277982,34.4646399179
050-2346422,in-call,2526,31.4593452023,34.4139398433
