phone_number,call_type,call_duration,call_location_longitude,call_location_latitude
050-6608572,out-call,332,31.5009686311,34.4657444309
050-6344972,out-call,109,31.4891549428,34.4421846683
050-6059148,in-call,3299,31.3988934495,34.3739620372
050-2013387,in-call,1012,31.471209528,34.4273093094
050-3094276,in-call,1010,31.4562257299,34.407485409
050-8583787,in-call,62,31.4522507915,34.4122515748
050-6559704,in-call,78,31.4811718997,34.4525237602
050-6005458,out-call,2127,31.4629763374,34.4345974942
050-5697438,out-call,283,31.4865004475,34.4694174275
