phone_number,call_type,call_duration,call_location_longitude,call_location_latitude
050-4460874,out-call,2166,31.407756082,34.3773791294
050-8843293,out-call,34,31.4743228609,34.428659975
050-9458781,in-call,67,31.4740223126,34.44216505
050-7365777,out-call,45,31.4804998053,34.4470116578
050-2726118,out-call,951,31.4184884116,34.364528053
050-6950689,in-call,853,31.4374035238,34.4310437595
