phone_number,call_type,call_duration,call_location_longitude,call_location_latitude
050-3878838,out-call,3112,31.4697161997,34.4435726845
050-6086397,in-call,63,31.4361380831,34.405061176
050-8413534,in-call,114,31.4360805621,34.4076782923
050-7462538,out-call,120,31.438354837,34.3847979181
050-2126262,in-call,1953,31.4395535002,34.3917766427
