phone_number,call_type,call_duration,call_location_longitude,call_location_latitude
050-9254661,out-call,69,31.4855711611,34.4511883717
050-8481074,in-call,3575,31.3892119499,34.3354461585
050-9212485,out-call,105,31.4532676239,34.4210022665
050-6413380,out-call,77,31.4076598267,34.3706299202
050-2708057,out-call,111,31.4353753261,34.4062897361
