phone_number,call_type,call_duration,call_location_longitude,call_location_latitude
050-7785306,in-call,2739,31.4416880261,34.4121212569
050-4888362,out-call,55,31.4588839221,34.4066537365
050-1016659,in-call,67,31.4694958681,34.4320858625
050-1000360,in-call,93,31.4603870402,34.4261706568
050-2708434,in-call,86,31.4011803643,34.3496764091
050-3392296,out-call,112,31.4827897458,34.4421824179
050-3601677,out-call,62,31.4221292933,34.3822444026
