phone_number,call_type,call_duration,call_location_longitude,call_location_latitude
050-5848281,in-call,49,31.4501674529,34.4152219216
050-1077708,in-call,419,31.4740015689,34.4579819752
050-6543885,out-call,370,31.458120942,34.4241992273
050-2646826,out-call,60,31.4740455907,34.4421110586
050-6733783,out-call,1024,31.4712752617,34.4184139103
050-9752505,in-call,23,31.3949325564,34.3390069581
