phone_number,call_type,call_duration,call_location_longitude,call_location_latitude
050-8563640,out-call,44,31.457149316,34.4336170706
050-5040566,out-call,101,31.4915636363,34.4491678944
050-6805269,in-call,3275,31.4694094289,34.4159234357
050-7398141,in-call,77,31.4328277996,34.3863938987
050-8974054,in-call,67,31.4726946178,34.4401864084
050-7631245,in-call,3140,31.4479220665,34.4176248284
050-4514963,in-call,184,31.4518681462,34.4110462701
050-3222627,in-call,2539,31.4706016982,34.4206452521
