phone_number,call_type,call_duration,call_location_longitude,call_location_latitude
050-9124608,in-call,64,31.4687893882,34.4029168083
050-7300826,in-call,206,31.4949724699,34.4437936004
050-8855168,in-call,767,31.4601884488,34.4319844123
050-8264620,out-call,1242,31.4598155351,34.4240197548
050-3672091,out-call,81,31.4838993567,34.4468827832
050-1106012,out-call,30,31.4658618419,34.4501234781
050-9378540,in-call,3461,31.4665325384,34.4287534473
050-5612677,in-call,1083,31.4433547256,34.42009203
050-3440549,in-call,1731,31.4855422966,34.4568465245
