phone_number,call_type,call_duration,call_location_longitude,call_location_latitude
050-8158280,out-call,3140,31.4752026267,34.4439636627
050-1134728,in-call,60,31.4375778135,34.387031074
050-2935137,in-call,21,31.4718381075,34.4301420025
050-8346275,out-call,19,31.4781905522,34.4356728132
050-2982059,in-call,18,31.4571264098,34.4204431006
