phone_number,call_type,call_duration,call_location_longitude,call_location_latitude
050-5103320,out-call,3178,31.4547671868,34.4310260456
050-9928944,in-call,64,31.4798293215,34.4345755707
050-2682114,in-call,821,31.4863528226,34.4488761578
050-4531367,out-call,2102,31.4176636461,34.3654709939
050-1743660,in-call,1231,31.4511113213,34.4327574836
050-7341930,in-call,735,31.4365493475,34.41282278
