phone_number,call_type,call_duration,call_location_longitude,call_location_latitude
050-5780402,out-call,92,31.462762264,34.4206597931
050-2829398,out-call,93,31.4874216063,34.4379888242
050-8941477,out-call,76,31.4435420022,34.3870628271
050-1169811,out-call,1543,31.458874013,34.4239696131
050-9540418,in-call,10,31.4616095377,34.4302013809
050-6740799,out-call,71,31.4154903771,34.3675254259
050-9966971,in-call,991,31.4497293437,34.4101596567
050-1390497,out-call,120,31.3896208494,34.3448966316
050-7556128,out-call,3027,31.4576590182,34.4136145182
