phone_number,call_type,call_duration,call_location_longitude,call_location_latitude
050-9645302,out-call,938,31.4576590182,34.4136145182
050-8195133,in-call,1253,31.448885349,34.4236189186
050-7406320,out-call,816,31.4389262405,34.3843009456
050-3830528,in-call,101,31.4874433996,34.4482799872
050-3611731,in-call,78,31.4681477293,34.4410146879
050-3851794,out-call,327,31.4070719077,34.3671522931
