phone_number,call_type,call_duration,call_location_longitude,call_location_latitude
050-7071461,out-call,58,31.4649611646,34.4161303982
050-9208304,in-call,3287,31.4006955019,34.349553003
050-1895847,out-call,2074,31.4660508534,34.4230680306
050-1568301,out-call,44,31.4617520388,34.4249686009
050-8509703,in-call,70,31.4676542928,34.440502051
050-1063193,in-call,47,31.4504578171,34.4232805659
050-9003746,in-call,36,31.4500891758,34.4237781924
050-3964700,out-call,1897,31.4163864896,34.3628368559
050-1525799,in-call,1833,31.4126864996,34.3729034483
