phone_number,call_type,call_duration,call_location_longitude,call_location_latitude
050-1696227,in-call,58,31.4124862952,34.371886135
050-7073672,out-call,26,31.4525662983,34.4292603679
050-8102066,out-call,119,31.4524326353,34.4227144306
050-3899406,in-call,1310,31.4732587922,34.4183869306
050-1400914,out-call,1584,31.4644629979,34.4197758242
050-9659599,out-call,102,31.4145706943,34.3948515407
050-8421743,out-call,53,31.4620349531,34.4240168097
