phone_number,call_type,call_duration,call_location_longitude,call_location_latitude
050-3724401,out-call,2507,31.4771002081,34.4511613203
050-6846757,in-call,2689,31.4486219753,34.4179823678
050-9490867,in-call,1307,31.4700939862,34.4291516687
050-6601718,out-call,423,31.4505479363,34.417222674
050-2473351,out-call,615,31.4263426414,34.381923628
