phone_number,call_type,call_duration,call_location_longitude,call_location_latitude
050-7163234,out-call,116,31.4697161997,34.4435726845
050-3313965,in-call,2070,31.4012899365,34.347095023
050-3989320,in-call,944,31.4894798118,34.4441718434
050-8759491,in-call,111,31.4767386256,34.4442323259
050-8562656,out-call,57,31.4369078124,34.3882136937
050-4471179,out-call,2559,31.465098196,34.4205460031
050-6474713,in-call,57,31.4374412796,34.4059477378
