phone_number,call_type,call_duration,call_location_longitude,call_location_latitude
050-9683719,out-call,1717,31.4343761124,34.3865806141
050-4013523,in-call,3488,31.4294167666,34.3777998408
050-9290405,out-call,3395,31.4745083922,34.4320146954
050-4992684,in-call,62,31.4382991973,34.4058086046
050-4925084,out-call,17,31.3638037309,34.3263662288
050-7416798,in-call,3089,31.4485336758,34.4018030911
050-8915575,out-call,1416,31.4791322325,34.4290299874
