phone_number,call_type,call_duration,call_location_longitude,call_location_latitude
050-2296555,out-call,569,31.4484030138,34.4206621737
050-4202657,in-call,648,31.4608003056,34.4244494818
050-7878967,out-call,2496,31.4226276591,34.385024998
050-7508657,in-call,10,31.4750206819,34.4618133475
050-1286100,out-call,361,31.3833024421,34.34533802
050-5325562,in-call,109,31.4589025502,34.4175639232
