phone_number,call_type,call_duration,call_location_longitude,call_location_latitude
050-9014373,out-call,2678,31.3836244866,34.3435224794
050-5328275,out-call,95,31.4399296746,34.3878041132
050-7984277,out-call,93,31.462544631,34.4465874317
050-5753708,in-call,1142,31.4974245065,34.4710864139
050-4358628,out-call,1915,31.5090734048,34.4595040924
050-2622939,out-call,47,31.4565895909,34.4171446744
050-5986961,in-call,48,31.450049612,34.411394682
