phone_number,call_type,call_duration,call_location_longitude,call_location_latitude
050-8034236,out-call,118,31.4508804192,34.4151535765
050-9437663,out-call,626,31.4328632078,34.386370289
050-4328864,out-call,97,31.4566692962,34.4123115889
050-8040864,in-call,33,31.4531344006,34.4098699149
050-2425765,out-call,90,31.4829601287,34.4622451087
050-2393427,out-call,15,31.442522918,34.4111515383
050-9861658,in-call,3271,31.4084863513,34.3428316502
