phone_number,call_type,call_duration,call_location_longitude,call_location_latitude
050-4834659,out-call,68,31.4480841067,34.3827218455
050-4963409,in-call,101,31.441424977,34.3915680729
050-9177500,in-call,2797,31.4557598145,34.3919358875
050-3942568,in-call,91,31.4793973371,34.4342053514
050-4102472,in-call,19,31.4433416926,34.4122325316
050-3794209,out-call,3101,31.4874216063,34.4379888242
050-7902212,in-call,3434,31.4676830717,34.4319482098
050-7151938,out-call,1096,31.4085792027,34.3679488113
050-5283297,out-call,56,31.4576174777,34.3997230933
