phone_number,call_type,call_duration,call_location_longitude,call_location_latitude
050-6445556,out-call,2012,31.4519656249,34.4102639808
050-7393994,out-call,1446,31.382909555,34.3508885404
050-1790786,in-call,945,31.4368986528,34.3883951596
050-3590991,out-call,963,31.4794465768,34.4557834567
050-4652742,out-call,80,31.4477822513,34.4143249607
050-1213286,in-call,38,31.4653674294,34.4271635729
