phone_number,call_type,call_duration,call_location_longitude,call_location_latitude
050-6524934,in-call,111,31.4204034425,34.3680625953
050-2149644,out-call,36,31.4386164116,34.3876718497
050-4547804,in-call,3545,31.4640685396,34.4219469919
050-9146031,in-call,43,31.3809015837,34.3327928515
050-9652996,out-call,116,31.4625033741,34.4115822361
050-5080601,in-call,68,31.4955484426,34.4502712782
050-3295360,out-call,238,31.4545542565,34.4116130094
