phone_number,call_type,call_duration,call_location_longitude,call_location_latitude
050-2696010,out-call,24,31.4363349414,34.3902005627
050-6589277,out-call,29,31.4612318809,34.4215846491
050-9044851,in-call,603,31.4517864848,34.4225366303
050-6601621,out-call,53,31.4755260091,34.4422657864
050-4526296,in-call,62,31.449850637,34.4207532107
050-1158525,out-call,1368,31.4435854418,34.4148347289
