phone_number,call_type,call_duration,call_location_longitude,call_location_latitude
050-3151517,out-call,48,31.4477040406,34.4101418345
050-9850487,out-call,62,31.4535564111,34.4247536833
050-5812498,in-call,853,31.4143900044,34.3744792212
050-3969568,out-call,35,31.4838823799,34.4368917842
050-3160916,out-call,90,31.4588097946,34.4389112172
050-7050157,in-call,1702,31.4591168909,34.4377022671
