phone_number,call_type,call_duration,call_location_longitude,call_location_latitude
050-9951287,out-call,747,31.4510746214,34.4129889062
050-5185767,out-call,108,31.4454483178,34.418985001
050-8169756,out-call,109,31.4552477456,34.4222605252
050-1250432,out-call,3362,31.3734879126,34.3416069856
050-4832154,in-call,96,31.4593182243,34.4253019274
050-2020376,out-call,1192,31.4857780302,34.4505071091
050-8059840,in-call,29,31.4406550787,34.4127199193
050-5702654,out-call,120,31.4823182768,34.4372045928
