phone_number,call_type,call_duration,call_location_longitude,call_location_latitude
050-6164449,in-call,20,31.4608715443,34.4159737171
050-1967824,out-call,619,31.4328277996,34.3863938987
050-7330735,in-call,3370,31.4377221522,34.3862446671
050-9562290,out-call,29,31.3882155035,34.3532024544
050-8105316,out-call,109,31.457013725,34.4309795339
050-2080369,out-call,866,31.4603801358,34.4337511737
050-8075142,in-call,38,31.467895264,34.43252094
050-5722693,in-call,110,31.450130072,34.4157747359
050-8617615,in-call,2520,31.452977174,34.4248900335
