phone_number,call_type,call_duration,call_location_longitude,call_location_latitude
050-8405351,in-call,2362,31.4822680598,34.4525014161
050-1165012,in-call,3374,31.3713137169,34.3341686123
050-1629398,out-call,2989,31.4505655875,34.4180090125
050-9120023,in-call,3439,31.4980627765,34.4650250842
050-8552371,out-call,108,31.4699240011,34.4377186208
050-4192135,in-call,841,31.4159216806,34.3735834253
