phone_number,call_type,call_duration,call_location_longitude,call_location_latitude
050-1947073,in-call,1605,31.4572667398,34.4313810359
050-6354372,out-call,12,31.4215622608,34.3621889746
050-7315336,in-call,2200,31.4511955188,34.4102028522
050-4204641,out-call,1418,31.42459282,34.3661006437
050-3153259,out-call,87,31.425051825,34.3645563743
050-1814039,in-call,2995,31.4547671868,34.4310260456
