phone_number,call_type,call_duration,call_location_longitude,call_location_latitude
050-1468928,out-call,2192,31.4639417277,34.4255806458
050-5755969,in-call,1199,31.4742461865,34.4587378238
050-2831337,in-call,3561,31.4590058886,34.4106218599
050-2792075,in-call,432,31.4704486303,34.413878204
050-9708480,out-call,2798,31.4504145185,34.413904905
