phone_number,call_type,call_duration,call_location_longitude,call_location_latitude
050-2695182,in-call,46,31.4796846252,34.4399917651
050-5087065,in-call,1209,31.4551593064,34.426053569
050-2451299,out-call,20,31.4482773785,34.3884988525
050-6176720,in-call,234,31.4381482042,34.4055329253
050-7794943,out-call,3425,31.4224784291,34.3832074858
050-2404066,out-call,23,31.4106260663,34.3481740885
