phone_number,call_type,call_duration,call_location_longitude,call_location_latitude
050-8797467,in-call,112,31.448571597,34.4250910038
050-8180105,out-call,59,31.4894798118,34.4441718434
050-3584750,out-call,2441,31.4530379553,34.4109460183
050-8794472,in-call,1453,31.437552405,34.3851096326
050-2635659,out-call,684,31.4427474201,34.3848382275
050-5992271,out-call,1267,31.4765695111,34.4310951161
