phone_number,call_type,call_duration,call_location_longitude,call_location_latitude
050-5352160,out-call,74,31.4928730377,34.4573351504
050-2203087,in-call,109,31.4564244162,34.4086035671
050-9725347,out-call,2116,31.4614928195,34.4262939537
050-4918114,in-call,3184,31.4520908046,34.4252686597
050-6381679,in-call,2404,31.4554433208,34.4042927986
050-8337878,in-call,30,31.4131642775,34.3726206349
