phone_number,call_type,call_duration,call_location_longitude,call_location_latitude
050-7041807,in-call,113,31.4429174506,34.4120830912
050-3048966,out-call,1596,31.4787156236,34.4354459906
050-7807795,out-call,3082,31.4654850697,34.4317974875
050-4868864,out-call,966,31.4655399557,34.4283228483
050-3729532,in-call,2333,31.4256380027,34.41376036
050-8407787,in-call,457,31.4571264098,34.4204431006
050-3013996,out-call,283,31.4100600797,34.3674265126
050-2665184,out-call,1230,31.4533933845,34.4112703392
050-3006683,out-call,24,31.4677720596,34.4377856625
