phone_number,call_type,call_duration,call_location_longitude,call_location_latitude
050-1521973,in-call,103,31.4112265511,34.3754581187
050-1899986,in-call,2882,31.4785766596,34.4390004834
050-8933364,out-call,1744,31.4541733503,34.4285524462
050-7468567,out-call,29,31.4978693378,34.4635536145
050-7110509,out-call,1013,31.3865199198,34.3444558734
050-9572594,in-call,3114,31.4794057534,34.4333071989
