phone_number,call_type,call_duration,call_location_longitude,call_location_latitude
050-4796000,in-call,77,31.4795240899,34.4504927824
050-9178304,in-call,1038,31.4501990918,34.4129010945
050-4040350,out-call,2389,31.4679886778,34.4144973295
050-3420734,out-call,114,31.4621153068,34.4205928275
050-7319761,in-call,65,31.4579559461,34.4172412846
050-2116425,in-call,2998,31.4533604314,34.3932175974
050-5181113,out-call,86,31.4793973371,34.4342053514
