phone_number,call_type,call_duration,call_location_longitude,call_location_latitude
050-3426941,out-call,3341,31.4609847189,34.4026945499
050-1544697,in-call,1941,31.3684317545,34.3335856596
050-2257705,out-call,10,31.3939547511,34.3628876668
050-9211196,out-call,1001,31.4365228188,34.3845756804
050-9073759,out-call,96,31.4375924809,34.4073916838
050-6316044,in-call,3152,31.4608583819,34.4287748949
050-8088332,in-call,65,31.4241226001,34.3820424583
