phone_number,call_type,call_duration,call_location_longitude,call_location_latitude
050-2431547,in-call,46,31.465098196,34.4205460031
050-8396346,in-call,68,31.459539465,34.4107171051
050-6167287,out-call,2675,31.4504145185,34.413904905
050-4713798,out-call,115,31.4475585857,34.4191477948
050-2096610,in-call,1727,31.4220985229,34.3624456702
050-3056441,in-call,3084,31.4098434054,34.3730136134
050-7107610,out-call,114,31.3978811112,34.3503819519
050-4198910,out-call,31,31.4527669656,34.4141678453
