phone_number,call_type,call_duration,call_location_longitude,call_location_latitude
050-2479552,in-call,96,31.4508306269,34.4405132131
050-1191317,out-call,29,31.4091445594,34.3719734072
050-4154498,in-call,79,31.4737886188,34.4275028564
050-5415360,in-call,48,31.4488706999,34.4141870567
050-6279399,in-call,894,31.3831322989,34.3428198075
050-1967207,out-call,56,31.4048630189,34.3699537451
050-2209828,out-call,63,31.4749244111,34.4398650905
050-6442960,in-call,43,31.420180812,34.364861463
050-1382457,in-call,51,31.4670003414,34.4339450829
