phone_number,call_type,call_duration,call_location_longitude,call_location_latitude
050-2973924,out-call,118,31.4069665646,34.3864137299
050-5099935,in-call,476,31.4145242676,34.3919634168
050-3201997,in-call,1700,31.4431980064,34.4298243133
050-1879555,in-call,117,31.4433416926,34.4122325316
050-6203772,out-call,106,31.4809963175,34.4636590609
050-9637371,in-call,1279,31.4840374346,34.4434320577
050-4906250,in-call,28,31.4736380577,34.4429667223
050-7315135,out-call,26,31.4669327658,34.4319071214
