phone_number,call_type,call_duration,call_location_longitude,call_location_latitude
050-8199074,in-call,3145,31.4127765418,34.372936411
050-9147965,out-call,2179,31.4450385327,34.4131126074
050-9131036,in-call,54,31.4526881234,34.407419899
050-6957575,in-call,109,31.4070719077,34.3671522931
050-9165758,in-call,2217,31.4068689515,34.3739209691
050-2343493,in-call,71,31.4587070371,34.4003601471
050-3724966,in-call,57,31.4466466413,34.4258776117
050-8716817,in-call,56,31.4074307167,34.3685163725
