phone_number,call_type,call_duration,call_location_longitude,call_location_latitude
050-5290239,in-call,863,31.4829480149,34.4278457203
050-3582446,in-call,85,31.4541896801,34.4288829106
050-1817653,in-call,1636,31.4819703061,34.4558694574
050-9552638,out-call,1721,31.502870731,34.4619702228
050-9678785,out-call,102,31.4073077676,34.389272375
050-6703372,in-call,1996,31.4560494575,34.3964324711
050-2850895,in-call,1034,31.4534649031,34.4166626015
050-4610651,out-call,17,31.4470437346,34.4147845308
050-2498097,out-call,44,31.36298942,34.3096909348
