phone_number,call_type,call_duration,call_location_longitude,call_location_latitude
050-3693667,in-call,3354,31.4593567073,34.4211053094
050-8326097,out-call,33,31.4340718144,34.3754063671
050-9305932,out-call,13,31.4475635184,34.4044426075
050-4844966,in-call,116,31.4617028975,34.4298169116
050-9134476,in-call,2721,31.4322201825,34.4009722341
050-2105519,out-call,2474,31.4448439456,34.4045634909
