phone_number,call_type,call_duration,call_location_longitude,call_location_latitude
050-2322946,out-call,744,31.4796846252,34.4399917651
050-1016417,out-call,328,31.4483279172,34.4127975535
050-2653154,in-call,73,31.4608003056,34.4244494818
050-7224386,out-call,652,31.3933863219,34.3425110257
050-7169672,out-call,88,31.3893992936,34.3371229604
050-5694306,out-call,93,31.4479347719,34.4184366883
