phone_number,call_type,call_duration,call_location_longitude,call_location_latitude
050-7571615,in-call,286,31.414212199,34.3677033718
050-8195387,in-call,78,31.4950371795,34.4489746383
050-6663324,in-call,75,31.4393868799,34.3872503242
050-9698533,out-call,89,31.42185223,34.404546684
050-6865413,out-call,93,31.408966348,34.3714203459
050-2152771,out-call,1182,31.4499669697,34.4217723024
