phone_number,call_type,call_duration,call_location_longitude,call_location_latitude
050-7929158,in-call,82,31.45930629,34.412353422
050-2673231,in-call,2840,31.4569768974,34.4087521158
050-9005982,in-call,1335,31.4617046684,34.4228434856
050-2204179,in-call,15,31.4621326068,34.4155113862
050-4815628,out-call,3392,31.4106767328,34.3705481671
050-5739279,out-call,1637,31.4607602544,34.4081270285
