phone_number,call_type,call_duration,call_location_longitude,call_location_latitude
050-7497367,out-call,2789,31.4119752429,34.3716229699
050-6524962,in-call,3182,31.3964087589,34.3461175604
050-7226251,in-call,2238,31.4544099361,34.4148891907
050-1553056,out-call,2529,31.4618859283,34.4204328208
050-5674816,out-call,77,31.4211296112,34.3674513425
050-2337586,out-call,260,31.4436978347,34.3908686931
050-1572450,in-call,43,31.4115878811,34.3853942436
050-5584781,out-call,1158,31.4125953651,34.3720792664
050-1906740,in-call,2202,31.4141475232,34.3665807147
