phone_number,call_type,call_duration,call_location_longitude,call_location_latitude
050-1106749,out-call,2635,31.4690800257,34.4300803229
050-7863827,out-call,2012,31.4614709727,34.4189885561
050-8174608,out-call,2592,31.4157527287,34.3725690053
050-8260457,in-call,2811,31.4618056615,34.4246353741
050-6563125,out-call,1044,31.4704201393,34.4389124717
050-6621661,in-call,91,31.3823590451,34.3385153852
