phone_number,call_type,call_duration,call_location_longitude,call_location_latitude
050-3129370,out-call,3431,31.3633657675,34.3197222382
050-4479050,in-call,91,31.4406027142,34.4116144824
050-5035832,in-call,109,31.4683280625,34.4316321867
050-2023095,in-call,92,31.4860172913,34.4586801202
050-3323641,out-call,40,31.4119049065,34.3693588016
050-2548250,in-call,3155,31.4127562635,34.3741708786
