phone_number,call_type,call_duration,call_location_longitude,call_location_latitude
050-8024462,out-call,2965,31.3852961185,34.3480646615
050-7112990,out-call,2851,31.4135971145,34.372799029
050-7000724,out-call,66,31.4674850074,34.4375558993
050-5535246,in-call,58,31.4773752461,34.4299482248
050-3061610,out-call,47,31.4656664055,34.4344228255
