phone_number,call_type,call_duration,call_location_longitude,call_location_latitude
050-6658209,in-call,636,31.4571596287,34.4187963295
050-6706424,out-call,40,31.4855422966,34.4568465245
050-2778272,in-call,95,31.4383802653,34.4259241417
050-8259870,out-call,16,31.4542242134,34.4163847008
050-9515627,in-call,2000,31.3813423767,34.3329282311
050-2541126,in-call,74,31.4575937079,34.4337464224
050-1374705,in-call,14,31.4923675741,34.4694377543
