phone_number,call_type,call_duration,call_location_longitude,call_location_latitude
050-5574008,out-call,93,31.4351947793,34.3869603935
050-4190738,in-call,1988,31.5003099744,34.4592816296
050-1386748,out-call,2141,31.449996753,34.4156862843
050-2575373,out-call,1204,31.4124862952,34.371886135
050-8097607,in-call,87,31.4741370793,34.4300990238
