phone_number,call_type,call_duration,call_location_longitude,call_location_latitude
050-5134251,out-call,101,31.4598032711,34.4158283978
050-6363059,in-call,2920,31.4712703388,34.4447731801
050-1068427,in-call,2787,31.5087777831,34.462561031
050-9670040,in-call,701,31.4583345168,34.4144751743
050-5991586,out-call,102,31.4401244479,34.3881305116
050-9527217,in-call,100,31.4368080581,34.413196424
