phone_number,call_type,call_duration,call_location_longitude,call_location_latitude
050-3483252,in-call,63,31.4675920897,34.442333078
050-5821203,out-call,2898,31.4578945552,34.4212961438
050-5819938,out-call,960,31.4589025502,34.4175639232
050-3026734,in-call,225,31.4653674294,34.4271635729
050-9899277,out-call,21,31.4011481975,34.3698464863
050-5171329,in-call,26,31.4722191865,34.4395467345
050-6200782,in-call,48,31.4708981993,34.4247029793
050-6030969,out-call,2230,31.3850478062,34.3345453806
050-2459853,out-call,88,31.4539333189,34.4148310604
