phone_number,call_type,call_duration,call_location_longitude,call_location_latitude
050-4758205,out-call,2589,31.477628419,34.4472212832
050-4843167,in-call,2246,31.4341477956,34.3780700172
050-1612342,in-call,1529,31.4444614986,34.3752837692
050-6370357,in-call,3254,31.465849693,34.4373106529
050-2454920,out-call,27,31.4603870402,34.4261706568
