phone_number,call_type,call_duration,call_location_longitude,call_location_latitude
050-1231464,in-call,1872,31.4389262405,34.3843009456
050-8700271,out-call,597,31.4388070225,34.3875024982
050-4874805,in-call,1061,31.4291980485,34.3768910712
050-4151949,in-call,62,31.4514775244,34.4124337127
050-3268975,in-call,2686,31.3962183231,34.3519699686
050-5280975,in-call,2572,31.4381349762,34.4058623203
