phone_number,call_type,call_duration,call_location_longitude,call_location_latitude
050-8163034,in-call,111,31.4349025086,34.4012243317
050-7844042,in-call,69,31.403789421,34.348178598
050-1292781,out-call,2514,31.4832673007,34.4619470231
050-2903549,in-call,1622,31.446212774,34.3784872936
050-6863225,out-call,43,31.4776415637,34.4300610084
050-5380532,in-call,81,31.4495503469,34.4011847749
050-7279924,out-call,1375,31.4681883515,34.4482014016
050-5956785,in-call,2851,31.4333791125,34.4022189023
050-2586442,out-call,1399,31.3957142564,34.3627234843
