phone_number,call_type,call_duration,call_location_longitude,call_location_latitude
050-5501424,out-call,55,31.4300228476,34.3754562935
050-2341981,in-call,1188,31.4107007291,34.366487695
050-2124761,in-call,1282,31.4525428316,34.4170058167
050-2883782,in-call,1129,31.4463033131,34.4051549634
050-6941752,out-call,3537,31.4298523243,34.3780844638
050-4492241,in-call,1878,31.4271296688,34.3941820651
050-2045085,in-call,2148,31.4743705801,34.4301454824
050-1472325,in-call,173,31.41517641,34.3638453378
050-3536674,out-call,2860,31.4483789595,34.4154736776
