phone_number,call_type,call_duration,call_location_longitude,call_location_latitude
050-5709000,in-call,33,31.4043174718,34.3666925994
050-4452865,out-call,107,31.4829480149,34.4278457203
050-2100653,in-call,465,31.4571915615,34.4174322718
050-4318668,out-call,2240,31.4645792887,34.4345439407
050-6532717,out-call,2528,31.4069116496,34.3700929054
050-6093839,out-call,57,31.4664307647,34.4211462317
050-8175835,in-call,35,31.4519789645,34.4179423792
050-5997766,in-call,1705,31.4722191865,34.4395467345
050-4089525,out-call,104,31.4694958681,34.4320858625
