phone_number,call_type,call_duration,call_location_longitude,call_location_latitude
050-2221059,out-call,52,31.4509313905,34.4131494415
050-4721928,in-call,13,31.479643957,34.4473397644
050-1580848,out-call,82,31.4483533165,34.4133175911
050-1193762,out-call,62,31.4458108469,34.3896470333
050-1245834,in-call,2624,31.4552085376,34.4091235936
050-6025869,out-call,986,31.4640894315,34.4194114439
050-9024454,in-call,91,31.441424977,34.3915680729
050-6248622,out-call,52,31.4670045529,34.4352293083
