phone_number,call_type,call_duration,call_location_longitude,call_location_latitude
050-4589897,in-call,1477,31.4431980064,34.4298243133
050-7544448,out-call,39,31.4561954856,34.4192665603
050-3575050,out-call,20,31.4878902129,34.4532504084
050-7201512,out-call,1202,31.4744229576,34.4298713634
050-6349678,out-call,334,31.4722495377,34.4371555685
