phone_number,call_type,call_duration,call_location_longitude,call_location_latitude
050-3898882,in-call,1862,31.4067230283,34.3665793717
050-4427647,in-call,3462,31.4470854489,34.4110997095
050-3189162,out-call,163,31.455865399,34.421733042
050-5294485,in-call,2642,31.4593341744,34.4039241958
050-2057735,in-call,31,31.4761328323,34.4360624788
050-8800749,in-call,136,31.4387063289,34.3875490282
050-3894906,in-call,16,31.4411469288,34.3848542905
050-6479177,in-call,764,31.4593341744,34.4039241958
050-1071973,out-call,878,31.4583619946,34.4147014001
