phone_number,call_type,call_duration,call_location_longitude,call_location_latitude
050-8537155,in-call,179,31.4460175013,34.4037110038
050-1192952,in-call,33,31.4750228052,34.4626616855
050-9447513,out-call,3038,31.411800038,34.358561352
050-9588696,in-call,2999,31.4669462916,34.4229747372
050-9921559,in-call,94,31.4887777718,34.4691165734
050-8518714,out-call,115,31.3987592148,34.373815349
050-9059256,out-call,780,31.4687893882,34.4029168083
050-6069133,in-call,106,31.4504024551,34.4106787562
050-8216775,in-call,64,31.4598369422,34.4242708378
