phone_number,call_type,call_duration,call_location_longitude,call_location_latitude
050-8431254,in-call,1524,31.451729874,34.3862899183
050-1761950,in-call,18,31.432341552,34.3842702524
050-5306578,in-call,3584,31.4483928668,34.4217106729
050-8227595,in-call,17,31.4467478243,34.4167580305
050-8044189,out-call,3472,31.4192930396,34.3566980002
050-7172614,in-call,100,31.4754466607,34.4429383961
050-6235452,in-call,1461,31.4500891758,34.4237781924
050-6550991,in-call,1755,31.4778105616,34.4342349797
050-6005135,out-call,19,31.4112538776,34.3663592944
