phone_number,call_type,call_duration,call_location_longitude,call_location_latitude
050-5778409,out-call,676,31.4587999872,34.4146625002
050-7078319,in-call,3167,31.4204034425,34.3680625953
050-2500499,in-call,46,31.4651894447,34.4533690169
050-3956883,out-call,81,31.4461361388,34.4033450633
050-3335081,out-call,95,31.4736061795,34.4273601016
050-5279593,in-call,1320,31.4367273415,34.4041860291
050-6865073,out-call,534,31.392533422,34.3492050698
050-7997084,in-call,10,31.4537681603,34.4471489365
