phone_number,call_type,call_duration,call_location_longitude,call_location_latitude
050-3864770,out-call,1864,31.4610226154,34.3919316403
050-7359523,out-call,65,31.4538219593,34.4181951129
050-3109443,in-call,1457,31.461884707,34.4153433944
050-2207216,out-call,104,31.460768718,34.437567614
050-8102616,in-call,56,31.4576173223,34.4343655993
050-6534995,in-call,935,31.5040985765,34.479430491
050-8992108,out-call,64,31.4425597092,34.4213049479
050-2062528,out-call,77,31.4685813945,34.4315349089
