phone_number,call_type,call_duration,call_location_longitude,call_location_latitude
050-8875562,out-call,53,31.4612195818,34.4153030789
050-2522132,in-call,66,31.4141475232,34.3665807147
050-7579308,in-call,101,31.4210405057,34.367681596
050-1813621,in-call,1259,31.4521291633,34.4093212001
050-9143725,out-call,2513,31.4407123865,34.4109068075
