phone_number,call_type,call_duration,call_location_longitude,call_location_latitude
050-5466229,out-call,98,31.4400086194,34.3901531036
050-2937632,out-call,36,31.4614807191,34.4398085802
050-3551071,out-call,82,31.448571597,34.4250910038
050-4643634,out-call,2763,31.4742461865,34.4587378238
050-8793524,in-call,35,31.4012899365,34.347095023
050-5381959,out-call,118,31.4187917318,34.3704241863
050-1605811,out-call,1038,31.3730199085,34.3300007372
050-3441673,in-call,333,31.4530690943,34.4269229997
