phone_number,call_type,call_duration,call_location_longitude,call_location_latitude
050-2273545,in-call,34,31.4016514627,34.3424610059
050-4996811,in-call,3225,31.4737025537,34.4214661453
050-8793954,out-call,57,31.4792280381,34.4409753601
050-8799705,in-call,959,31.4759934282,34.4195025259
050-4922482,out-call,2510,31.4801594329,34.4493537253
050-8276906,in-call,40,31.4502677456,34.4195988324
