phone_number,call_type,call_duration,call_location_longitude,call_location_latitude
050-7228216,in-call,3194,31.4809513047,34.4343205836
050-5522442,in-call,1168,31.4724076515,34.4248313154
050-3960330,out-call,834,31.4605692659,34.4263998871
050-7446752,out-call,119,31.4816653014,34.4247156148
050-8952902,out-call,22,31.4101549423,34.381478588
050-5051887,out-call,2166,31.4343761124,34.3865806141
050-4096307,in-call,82,31.4380983029,34.3912089625
050-2488758,out-call,2544,31.4547566633,34.4227133761
