phone_number,call_type,call_duration,call_location_longitude,call_location_latitude
050-5785544,out-call,68,31.4640685396,34.4219469919
050-8741396,in-call,114,31.4895969451,34.4407751865
050-4287884,out-call,2560,31.3896208494,34.3448966316
050-9697685,in-call,621,31.4510746214,34.4129889062
050-1906365,out-call,247,31.472353442,34.4268758446
050-7742677,in-call,87,31.4580598951,34.4448994416
050-9555106,in-call,1726,31.4837347934,34.4534581254
