phone_number,call_type,call_duration,call_location_longitude,call_location_latitude
050-7238318,in-call,3266,31.4395626361,34.3906748215
050-4487831,in-call,94,31.4694615967,34.4405837724
050-5965044,out-call,261,31.46567596,34.4319476164
050-6168078,in-call,68,31.4622488224,34.4160114546
050-2865404,out-call,49,31.4437986739,34.3884287763
050-7045628,out-call,84,31.4589300877,34.413355973
050-3496502,out-call,2509,31.4702576463,34.4310856487
050-2082531,in-call,1992,31.4327801432,34.4184105028
050-8942858,out-call,1776,31.4079650774,34.3866569173
