phone_number,call_type,call_duration,call_location_longitude,call_location_latitude
050-3540022,in-call,899,31.408966348,34.3714203459
050-8774219,out-call,28,31.4696657155,34.448983313
050-5105946,out-call,2851,31.4583619946,34.4147014001
050-3760864,in-call,31,31.4767386256,34.4442323259
050-9683727,in-call,1116,31.4609847189,34.4026945499
050-1232170,out-call,299,31.4520908046,34.4252686597
