phone_number,call_type,call_duration,call_location_longitude,call_location_latitude
050-4918582,in-call,111,31.4417894514,34.3910759252
050-1054236,in-call,72,31.4526881234,34.407419899
050-1854249,in-call,2130,31.3973134795,34.3426901099
050-5900914,out-call,112,31.4122669935,34.3674592315
050-4615925,out-call,20,31.4555821179,34.4227737012
050-5736556,out-call,99,31.44811418,34.4187849885
