phone_number,call_type,call_duration,call_location_longitude,call_location_latitude
050-1954166,out-call,3554,31.4370237445,34.4153312545
050-9191690,out-call,2054,31.3941799514,34.3310251222
050-4693321,out-call,24,31.4598650028,34.4203765459
050-9086889,out-call,2150,31.4608352914,34.4340042199
050-5949450,in-call,1996,31.3978811112,34.3503819519
050-9013019,in-call,1774,31.4612589518,34.4253030274
050-5101644,in-call,243,31.483967289,34.4275863286
050-3734566,out-call,1099,31.4627905805,34.414302664
