phone_number,call_type,call_duration,call_location_longitude,call_location_latitude
050-1032650,out-call,1584,31.4595607368,34.4140715852
050-3893577,out-call,1767,31.4929207075,34.4483346972
050-4259117,in-call,978,31.4731392806,34.4375305154
050-3497610,out-call,16,31.4528375228,34.4118937631
050-7227334,out-call,1562,31.435100299,34.3855383614
