phone_number,call_type,call_duration,call_location_longitude,call_location_latitude
050-9775987,in-call,68,31.3819018853,34.3516975237
050-9299938,out-call,35,31.3765369377,34.3338884187
050-6217026,out-call,72,31.4525287484,34.4138521581
050-3945396,in-call,117,31.4427556522,34.4123293605
050-4612327,out-call,3444,31.4644952698,34.4245331189
050-9112471,in-call,30,31.4403778329,34.415522404
050-3642662,in-call,54,31.4838823799,34.4368917842
