phone_number,call_type,call_duration,call_location_longitude,call_location_latitude
050-7104573,in-call,77,31.4799682745,34.4431981488
050-9226333,in-call,3245,31.4518659959,34.4160782907
050-4317884,in-call,2814,31.4522064674,34.4161538217
050-2288653,out-call,2739,31.4210862564,34.3683751189
050-2866078,in-call,400,31.4517790045,34.4129160202
050-6840543,out-call,2396,31.4387254494,34.3898034343
050-6197171,in-call,942,31.4809513047,34.4343205836
