phone_number,call_type,call_duration,call_location_longitude,call_location_latitude
050-8335221,out-call,652,31.4522895226,34.4207387862
050-7014020,out-call,89,31.4472914723,34.4098340673
050-6985001,in-call,1728,31.4060673095,34.3702847061
050-5744924,in-call,344,31.4338305273,34.3837153595
050-9889705,in-call,34,31.4566741914,34.4263430156
050-4627081,out-call,17,31.4678766809,34.4185810777
050-9233125,out-call,2866,31.4603245138,34.4186756525
050-6077906,out-call,101,31.4728072149,34.4379491653
