phone_number,call_type,call_duration,call_location_longitude,call_location_latitude
050-3531675,out-call,730,31.4544099361,34.4148891907
050-2411563,in-call,34,31.4750434428,34.4328986639
050-7072575,out-call,119,31.4603801358,34.4337511737
050-4049219,out-call,60,31.4901379319,34.4469718655
050-5795474,in-call,52,31.4887784471,34.4481947902
