phone_number,call_type,call_duration,call_location_longitude,call_location_latitude
050-6830649,in-call,20,31.4669129372,34.4073958935
050-9315811,in-call,819,31.4005290874,34.347511676
050-8280573,out-call,28,31.4702584108,34.4235363802
050-2761231,in-call,47,31.468210852,34.4169533727
050-8547600,in-call,1775,31.4517481932,34.4104507517
050-9128466,in-call,2310,31.4905691892,34.4519373055
