phone_number,call_type,call_duration,call_location_longitude,call_location_latitude
050-7810273,in-call,51,31.4338043804,34.4020079294
050-8735628,in-call,3554,31.4221171876,34.3845985369
050-1491114,out-call,578,31.4318802579,34.4006949213
050-7456585,in-call,120,31.4661814809,34.4349723806
050-9682550,in-call,238,31.4433798147,34.3786014455
050-8331162,out-call,1822,31.4244785278,34.383563011
050-6108713,out-call,52,31.4514110116,34.4298668861
