phone_number,call_type,call_duration,call_location_longitude,call_location_latitude
050-8551877,in-call,75,31.4558430817,34.4153959378
050-3719900,in-call,98,31.5070788272,34.4728254897
050-7005178,out-call,1520,31.4532152816,34.4087487838
050-4009937,out-call,64,31.3750024447,34.3325536011
050-5764414,out-call,96,31.4684796258,34.425186894
050-6190969,in-call,3352,31.4701988524,34.407923283
050-6855435,in-call,1936,31.4862858865,34.4550064421
