phone_number,call_type,call_duration,call_location_longitude,call_location_latitude
050-1348776,in-call,875,31.4640690655,34.4291798695
050-8018374,out-call,2136,31.4164582266,34.3670051976
050-1484389,out-call,28,31.4699330708,34.4278685791
050-1152423,in-call,25,31.4586510874,34.3981592346
050-2284937,in-call,3164,31.4600482628,34.4029934433
050-7348250,in-call,1871,31.4569597751,34.426642922
