phone_number,call_type,call_duration,call_location_longitude,call_location_latitude
050-5220329,in-call,1938,31.4701988524,34.407923283
050-3377454,out-call,2560,31.4554853858,34.4052969887
050-7236725,out-call,3035,31.460732042,34.4134270113
050-5944522,out-call,1811,31.4550496097,34.4071604102
050-4536978,out-call,29,31.4829464197,34.4522446156
050-2800794,in-call,41,31.4643695885,34.4328526449
