phone_number,call_type,call_duration,call_location_longitude,call_location_latitude
050-2392259,in-call,3278,31.4720674366,34.4455291764
050-6775938,out-call,78,31.4665322472,34.4245103487
050-2556233,out-call,35,31.4483279172,34.4127975535
050-8658241,out-call,97,31.4815544704,34.4475076542
050-2228589,in-call,1918,31.461227415,34.4238509328
050-7752537,in-call,3345,31.4677763547,34.4190050576
050-6029173,out-call,120,31.4526504702,34.4194847031
050-2322410,in-call,113,31.4950371795,34.4489746383
