phone_number,call_type,call_duration,call_location_longitude,call_location_latitude
050-6325946,out-call,30,31.4458108469,34.3896470333
050-5080711,out-call,22,31.4660058861,34.4208219891
050-6739433,in-call,48,31.4130203838,34.3680522824
050-4820367,out-call,110,31.4611392716,34.4234805793
050-3726620,in-call,109,31.4882339499,34.4833967546
050-7103939,in-call,25,31.4469874223,34.4165641637
050-5509303,in-call,57,31.4333826238,34.4007120555
