phone_number,call_type,call_duration,call_location_longitude,call_location_latitude
050-4826190,in-call,53,31.4420435416,34.414862774
050-9138363,in-call,67,31.4053220318,34.3669281984
050-2639837,out-call,60,31.377206479,34.3344569285
050-5832295,in-call,3456,31.4600482628,34.4029934433
050-8366502,in-call,120,31.4659320974,34.4317895356
