phone_number,call_type,call_duration,call_location_longitude,call_location_latitude
050-9599516,out-call,1091,31.4483533165,34.4133175911
050-3101657,in-call,39,31.477628419,34.4472212832
050-9151189,in-call,123,31.4619741224,34.4136218748
050-6818153,out-call,82,31.4990993168,34.4508257177
050-6565702,in-call,508,31.4569190072,34.4146682238
050-4044648,in-call,1210,31.4407434859,34.4107400656
050-4386516,in-call,112,31.4713568138,34.4329883565
