phone_number,call_type,call_duration,call_location_longitude,call_location_latitude
050-9681806,out-call,1509,31.400340244,34.3745095638
050-6421306,in-call,38,31.4841003857,34.4352297824
050-6213976,in-call,59,31.4401714451,34.3910859883
050-1759535,out-call,105,31.4718381075,34.4301420025
050-2630483,out-call,767,31.4148855824,34.3643470036
050-4606492,out-call,2835,31.4098649553,34.3770623682
