phone_number,call_type,call_duration,call_location_longitude,call_location_latitude
050-4652217,in-call,158,31.4571264098,34.4204431006
050-5955324,out-call,1318,31.4475019466,34.4173854243
050-4140079,in-call,683,31.5087777831,34.462561031
050-1231368,out-call,752,31.4425597092,34.4213049479
050-4071423,in-call,84,31.4156905798,34.398289196
050-2268639,in-call,59,31.4713024324,34.4173538536
