phone_number,call_type,call_duration,call_location_longitude,call_location_latitude
050-3891817,in-call,2404,31.4207556733,34.3561034104
050-2840981,out-call,641,31.4495657031,34.4098815214
050-4669147,out-call,67,31.4659022564,34.4169429189
050-4880108,out-call,41,31.449850637,34.4207532107
050-5989695,in-call,935,31.393553106,34.3443836972
