phone_number,call_type,call_duration,call_location_longitude,call_location_latitude
050-4828576,out-call,1095,31.4137680133,34.3675005404
050-4914740,in-call,103,31.4704201393,34.4389124717
050-4020477,in-call,47,31.4581827514,34.4224292784
050-5679953,in-call,14,31.4569768974,34.4087521158
050-2873819,in-call,78,31.4424480254,34.3916706491
