phone_number,call_type,call_duration,call_location_longitude,call_location_latitude
050-8662605,in-call,2620,31.4799682745,34.4431981488
050-3582605,out-call,3455,31.472637675,34.4369140431
050-8877840,out-call,116,31.4164582266,34.3670051976
050-9866432,out-call,813,31.438960629,34.4227703947
050-4590689,in-call,77,31.3734879126,34.3416069856
050-4262400,in-call,1171,31.4504024551,34.4106787562
