phone_number,call_type,call_duration,call_location_longitude,call_location_latitude
050-5585716,out-call,96,31.3913883466,34.3433630642
050-5157803,in-call,89,31.4319816122,34.3767856829
050-4343441,in-call,476,31.4297016182,34.3772069361
050-6733448,in-call,38,31.4351435636,34.4128891933
050-2768271,in-call,94,31.4262655459,34.3940935209
050-6198103,in-call,100,31.4752026267,34.4439636627
