phone_number,call_type,call_duration,call_location_longitude,call_location_latitude
050-9778149,in-call,25,31.4456531432,34.4025927542
050-5767673,out-call,1032,31.4868273792,34.4404575748
050-4271568,in-call,2345,31.4300909475,34.3759119224
050-7442028,out-call,28,31.4364159927,34.403997809
050-7465236,in-call,3093,31.4099897821,34.3594474595
