phone_number,call_type,call_duration,call_location_longitude,call_location_latitude
050-1366178,in-call,195,31.3970389842,34.3663657894
050-7035333,in-call,3006,31.4625557308,34.4528259155
050-8215831,in-call,165,31.4095771413,34.3715193134
050-9856963,in-call,109,31.449202891,34.41424247
050-8232784,out-call,35,31.4577770719,34.4271963899
050-9141917,out-call,77,31.3950056587,34.3384420581
