phone_number,call_type,call_duration,call_location_longitude,call_location_latitude
050-9141253,out-call,935,31.4492479872,34.409418936
050-6630452,out-call,65,31.44811418,34.4187849885
050-6821042,out-call,2729,31.462762264,34.4206597931
050-6337796,out-call,46,31.4645091024,34.4358113612
050-4329703,in-call,26,31.435476793,34.3866330794
050-6519706,out-call,1032,31.4853047668,34.4469806131
050-9640793,out-call,112,31.459539465,34.4107171051
050-2324649,in-call,2674,31.4387735212,34.3852259875
050-1117791,in-call,18,31.4713078159,34.4238424504
