phone_number,call_type,call_duration,call_location_longitude,call_location_latitude
050-2369927,out-call,3597,31.4525662983,34.4292603679
050-1286959,in-call,1490,31.4399384145,34.4124824933
050-2599442,in-call,3191,31.4979309318,34.4548340836
050-9820860,out-call,11,31.4135772117,34.3706706096
050-1379269,out-call,11,31.4179692721,34.3655286149
050-1266952,out-call,108,31.4665561537,34.4213554111
050-1492547,in-call,72,31.497388001,34.4630613619
050-4028022,in-call,79,31.4681230731,34.4254598862
