phone_number,call_type,call_duration,call_location_longitude,call_location_latitude
050-8503447,out-call,881,31.4380983029,34.3912089625
050-1324169,out-call,106,31.4497689549,34.4190069498
050-8188470,in-call,3260,31.4642390282,34.4268473943
050-2938413,in-call,1225,31.4845379839,34.4509081738
050-6391278,in-call,2725,31.468210852,34.4169533727
050-5020044,in-call,40,31.4168622987,34.364465932
