phone_number,call_type,call_duration,call_location_longitude,call_location_latitude
050-6584146,out-call,15,31.4618859283,34.4204328208
050-5558062,out-call,97,31.4561369462,34.4104785444
050-3614898,in-call,189,31.4357332175,34.3867519884
050-1232180,out-call,1860,31.4483737422,34.4226271554
050-6373648,in-call,1838,31.4504024551,34.4106787562
050-2829144,out-call,29,31.383552896,34.3327684958
050-5664173,out-call,3283,31.4632496542,34.4218347303
050-9862690,in-call,740,31.4706239819,34.4458908909
050-4604432,in-call,563,31.450049612,34.411394682
