phone_number,call_type,call_duration,call_location_longitude,call_location_latitude
050-5500815,in-call,3236,31.4546227694,34.413848848
050-5204641,in-call,54,31.4067230283,34.3665793717
050-8713287,out-call,17,31.4114197861,34.3715398155
050-1083439,in-call,90,31.470968707,34.4289534532
050-6638933,out-call,15,31.4286650518,34.4122904783
050-2619516,in-call,76,31.4576974157,34.4015079516
050-9077619,out-call,1716,31.4795574995,34.4389983994
050-2181879,in-call,2550,31.4877329536,34.4447988512
