phone_number,call_type,call_duration,call_location_longitude,call_location_latitude
050-8758087,in-call,53,31.4929207075,34.4483346972
050-9876386,out-call,2116,31.3896208494,34.3448966316
050-8219641,out-call,39,31.4125128733,34.3749697024
050-8573627,out-call,69,31.489454002,34.4519655252
050-7637537,out-call,18,31.4865004475,34.4694174275
