phone_number,call_type,call_duration,call_location_longitude,call_location_latitude
050-2200050,out-call,102,31.4647533139,34.4166339048
050-4104944,out-call,19,31.4569643465,34.4124131229
050-1239566,out-call,38,31.3973134795,34.3426901099
050-1857344,out-call,2958,31.4584193579,34.4152388662
050-2981626,in-call,14,31.4592988864,34.4148799554
050-9277598,in-call,1847,31.5042212826,34.4555297076
