phone_number,call_type,call_duration,call_location_longitude,call_location_latitude
050-5140620,out-call,2484,31.4569643465,34.4124131229
050-8357358,out-call,108,31.4207744219,34.4085767476
050-4698411,out-call,127,31.4468428402,34.4127693843
050-1046454,out-call,1142,31.4456415728,34.4115709592
050-6729418,in-call,24,31.4454483178,34.418985001
050-1838656,in-call,1247,31.4175399607,34.3733929652
