phone_number,call_type,call_duration,call_location_longitude,call_location_latitude
050-3870910,out-call,16,31.4075750075,34.3769454315
050-8389950,out-call,13,31.4535564111,34.4247536833
050-3493910,in-call,95,31.4510043438,34.4149088315
050-5766419,in-call,313,31.4501990918,34.4129010945
050-4461292,out-call,28,31.4175232974,34.3663535362
050-5959152,out-call,82,31.4672664483,34.437167193
050-5334723,out-call,30,31.4598543311,34.4174671322
