phone_number,call_type,call_duration,call_location_longitude,call_location_latitude
050-8981951,in-call,98,31.4795574995,34.4389983994
050-7479989,in-call,100,31.4563172342,34.3968833647
050-5742670,out-call,2082,31.4696725838,34.4308557453
050-3787559,out-call,2648,31.4430824317,34.41087444
050-2572355,in-call,2765,31.4430526309,34.4103971911
050-9361807,in-call,77,31.4148309985,34.371571824
050-2021189,out-call,1968,31.4454483178,34.418985001
