phone_number,call_type,call_duration,call_location_longitude,call_location_latitude
050-1190193,out-call,104,31.3931113339,34.3475566001
050-4937735,in-call,2925,31.4106126016,34.3570373098
050-7824615,out-call,3077,31.3784655742,34.3287503092
050-6946573,out-call,47,31.4699368238,34.431572429
050-3973535,in-call,24,31.4477958442,34.384370636
050-8859479,in-call,57,31.4467349135,34.3785043147
050-2363442,out-call,1637,31.4425597092,34.4213049479
050-5584526,in-call,2696,31.4262655459,34.3940935209
050-5038773,out-call,108,31.441975926,34.4306675862
