phone_number,call_type,call_duration,call_location_longitude,call_location_latitude
050-7614942,out-call,76,31.4765695111,34.4310951161
050-5714920,out-call,73,31.43914745,34.3856086234
050-6465903,out-call,94,31.4591016958,34.4133195422
050-7456475,out-call,47,31.4637357082,34.429501461
050-9583631,in-call,1441,31.4387972096,34.3920256995
