phone_number,call_type,call_duration,call_location_longitude,call_location_latitude
050-5285752,in-call,666,31.450130072,34.4157747359
050-2059190,out-call,95,31.4588018273,34.4073392591
050-7327745,out-call,1125,31.4309456044,34.4010548387
050-6591561,in-call,871,31.4271843261,34.382865811
050-2074951,in-call,29,31.42459282,34.3661006437
050-1768888,in-call,96,31.4847115807,34.4399936589
050-2776399,out-call,112,31.4562109097,34.4296564321
050-8946902,in-call,119,31.4727045278,34.4365398724
