phone_number,call_type,call_duration,call_location_longitude,call_location_latitude
050-9636114,out-call,1731,31.4650525166,34.4332893346
050-3697077,in-call,10,31.43617334,34.4148442592
050-8349951,in-call,28,31.437552405,34.3851096326
050-5993708,out-call,165,31.398197516,34.3381763635
050-3549785,in-call,56,31.4541613266,34.4097906396
050-6078658,out-call,39,31.4493685079,34.4126496315
