phone_number,call_type,call_duration,call_location_longitude,call_location_latitude
050-3866375,in-call,107,31.4148309985,34.371571824
050-8720399,out-call,110,31.4513716227,34.414251166
050-6050464,in-call,47,31.4005039558,34.3739408233
050-7543456,out-call,26,31.4401450294,34.3924710523
050-9699625,out-call,78,31.4713891449,34.4240120084
050-2393394,in-call,10,31.4491799025,34.4191545064
050-1952879,in-call,1656,31.406936325,34.380292758
