phone_number,call_type,call_duration,call_location_longitude,call_location_latitude
050-8521435,out-call,10,31.4542738887,34.4247580692
050-5570493,in-call,2550,31.4598543311,34.4174671322
050-2019795,out-call,1808,31.4620382289,34.4222745322
050-1937760,in-call,54,31.4666327385,34.4136414088
050-8599634,in-call,1457,31.505823042,34.4552260352
050-7809309,in-call,211,31.4767130625,34.4354140029
050-8246443,out-call,3155,31.4592988864,34.4148799554
