phone_number,call_type,call_duration,call_location_longitude,call_location_latitude
050-2679485,out-call,2961,31.4706402449,34.4271749922
050-5328899,in-call,114,31.482172028,34.4403369406
050-6788327,out-call,78,31.4651894447,34.4533690169
050-7931203,out-call,1419,31.4675901861,34.4251696304
050-3594487,in-call,3018,31.4501488199,34.415783159
050-1548016,out-call,154,31.4114357312,34.3701679587
050-8196206,in-call,3546,31.4562109097,34.4296564321
050-6311323,out-call,12,31.456983953,34.4317364085
050-2978239,in-call,2046,31.4657863474,34.4254451874
