phone_number,call_type,call_duration,call_location_longitude,call_location_latitude
050-4908762,in-call,67,31.4617945357,34.4170013518
050-6414950,out-call,103,31.4829480149,34.4278457203
050-2126657,out-call,110,31.4584245594,34.4229920982
050-2984379,out-call,84,31.4739649894,34.4271403515
050-7204162,in-call,2073,31.4901297754,34.4332117184
050-2842573,out-call,110,31.4125811507,34.3663017794
050-8848144,out-call,3254,31.3966859363,34.3536635998
050-2750526,out-call,2504,31.4033539522,34.3653057087
050-6057201,in-call,2758,31.4176657352,34.3669380423
