phone_number,call_type,call_duration,call_location_longitude,call_location_latitude
050-3203276,out-call,36,31.4424721047,34.3773565767
050-1931257,out-call,2713,31.4638946043,34.4204209835
050-8123423,in-call,50,31.4706402449,34.4271749922
050-1562550,in-call,115,31.4469525178,34.4149209083
050-2456537,in-call,27,31.4449639121,34.4152602251
050-7321407,out-call,3141,31.4267253754,34.3833745116
050-2538996,out-call,17,31.4576174777,34.3997230933
050-4657014,in-call,78,31.4542738887,34.4247580692
