phone_number,call_type,call_duration,call_location_longitude,call_location_latitude
050-6121886,in-call,72,31.4592545724,34.4298848564
050-3942757,in-call,63,31.4636740217,34.4233160226
050-9330020,out-call,75,31.4656664055,34.4344228255
050-6086438,out-call,1181,31.4492479872,34.409418936
050-3207788,in-call,579,31.5087777831,34.462561031
050-4885082,in-call,41,31.4114024005,34.3785985536
050-2632322,out-call,414,31.4555161063,34.4173705534
