phone_number,call_type,call_duration,call_location_longitude,call_location_latitude
050-7939392,in-call,2109,31.4862830332,34.4357066643
050-3152625,in-call,3386,31.4561545503,34.4191888413
050-9356548,out-call,12,31.4844061684,34.4583070165
050-7213738,out-call,106,31.4608125998,34.4169705429
050-1099685,out-call,1093,31.4798293215,34.4345755707
050-4404694,in-call,106,31.4799682745,34.4431981488
050-4410759,in-call,2996,31.460781876,34.4278392587
050-9040571,in-call,23,31.4156977238,34.3703840001
050-8056675,out-call,1239,31.4635139515,34.4178569479
