phone_number,call_type,call_duration,call_location_longitude,call_location_latitude
050-7871320,in-call,3369,31.413128749,34.3728097141
050-3754137,out-call,2902,31.4144094958,34.3732608314
050-9349679,in-call,128,31.4525662983,34.4292603679
050-7520575,out-call,2827,31.4593567073,34.4211053094
050-5248909,in-call,251,31.4157513045,34.3727046366
050-1612468,out-call,1149,31.458600633,34.4246252105
050-2037723,out-call,1374,31.4868993795,34.4475732882
050-6367034,in-call,66,31.4598032711,34.4158283978
050-8961648,in-call,16,31.4599953885,34.4247798956
