phone_number,call_type,call_duration,call_location_longitude,call_location_latitude
050-7409567,in-call,368,31.4448120169,34.4128287802
050-8658480,out-call,41,31.4544152322,34.3878857332
050-5707998,out-call,34,31.471352816,34.4219191035
050-2512636,out-call,2408,31.4745619346,34.424889056
050-5207118,in-call,87,31.465849693,34.4373106529
050-2988297,in-call,3441,31.4750434428,34.4328986639
050-1483851,out-call,1729,31.500551506,34.4352247423
050-2919469,in-call,964,31.4759934282,34.4195025259
