phone_number,call_type,call_duration,call_location_longitude,call_location_latitude
050-8001623,out-call,34,31.4855711611,34.4511883717
050-7101764,out-call,901,31.4871948025,34.4520676436
050-7222435,in-call,923,31.4411644471,34.4137491728
050-4400233,out-call,1139,31.4639343628,34.4344757761
050-4692660,out-call,1372,31.4586391967,34.4261292702
050-3218300,out-call,117,31.4850421194,34.4697704796
050-4695628,in-call,108,31.4576716896,34.4293196467
