phone_number,call_type,call_duration,call_location_longitude,call_location_latitude
050-6138777,in-call,2504,31.4685813945,34.4315349089
050-1101964,in-call,2745,31.5009499318,34.4634112981
050-7041402,out-call,2295,31.476989227,34.4484730598
050-7368849,out-call,24,31.4598785609,34.4232200711
050-4715290,out-call,67,31.448885349,34.4236189186
050-3023554,out-call,1776,31.4518681462,34.4110462701
050-6430578,out-call,58,31.451158431,34.4231370409
050-7809767,in-call,96,31.4852800398,34.4519195986
