phone_number,call_type,call_duration,call_location_longitude,call_location_latitude
050-4061211,in-call,39,31.4666521261,34.4127205101
050-2123061,out-call,1743,31.4493323551,34.410081641
050-8456501,in-call,12,31.4506779726,34.4149070029
050-1758888,out-call,3256,31.4514775244,34.4124337127
050-1877682,out-call,74,31.4588839221,34.4066537365
050-7958383,out-call,1677,31.4439182865,34.421721717
