phone_number,call_type,call_duration,call_location_longitude,call_location_latitude
050-6588736,in-call,101,31.4773445974,34.425369648
050-9802416,in-call,573,31.4416541641,34.4111617078
050-5441343,in-call,100,31.3926838593,34.3395584085
050-7064923,in-call,114,31.4665322472,34.4245103487
050-9771589,in-call,2837,31.4632696173,34.4280865156
050-1698691,in-call,79,31.4580598951,34.4448994416
050-5567998,in-call,115,31.4484662319,34.3824157451
050-4922492,out-call,3237,31.4643247165,34.4285448645
