phone_number,call_type,call_duration,call_location_longitude,call_location_latitude
050-7618710,out-call,120,31.4617527908,34.4383458453
050-5342073,in-call,3053,31.4550496097,34.4071604102
050-9584020,in-call,85,31.4943035394,34.4533059119
050-8081704,out-call,944,31.4575937079,34.4337464224
050-4474402,out-call,59,31.4112538776,34.3663592944
050-2424693,in-call,2069,31.4850683057,34.436510488
050-3041079,in-call,65,31.4551051172,34.422406659
050-6786508,out-call,820,31.4710399649,34.4295524546
