phone_number,call_type,call_duration,call_location_longitude,call_location_latitude
050-6511070,out-call,85,31.4525662983,34.4292603679
050-4822947,in-call,3045,31.4545040705,34.4231499824
050-9854186,out-call,15,31.4067114668,34.3448400634
050-6784725,in-call,3037,31.4653847904,34.4251924419
050-1016735,out-call,3313,31.4632819539,34.4240652579
050-3486242,in-call,32,31.4423213251,34.3893825908
050-6424997,in-call,2860,31.4532572839,34.421373547
050-6227842,out-call,15,31.4497293437,34.4101596567
050-3954004,out-call,1058,31.4363349414,34.3902005627
