phone_number,call_type,call_duration,call_location_longitude,call_location_latitude
050-7018334,out-call,66,31.435058956,34.3998514213
050-9929567,out-call,126,31.4749426633,34.4466698838
050-7794731,out-call,242,31.4126597666,34.3574206566
050-7967989,out-call,1946,31.438169888,34.4041523745
050-7343881,out-call,759,31.4978693378,34.4635536145
050-8764494,out-call,1327,31.3962176285,34.3502936843
050-1772479,in-call,2873,31.4380653516,34.4070798802
