phone_number,call_type,call_duration,call_location_longitude,call_location_latitude
050-8004539,in-call,357,31.4439122745,34.3918908233
050-8940845,out-call,118,31.4802404754,34.4556009069
050-8623639,in-call,398,31.4920069421,34.4613606418
050-3280488,in-call,2191,31.4666696298,34.4326984553
050-1859871,out-call,20,31.4599953885,34.4247798956
050-6950841,out-call,2961,31.4508306269,34.4405132131
050-8366707,out-call,1525,31.44811418,34.4187849885
050-5954258,out-call,438,31.4019426089,34.3689232728
050-6864936,in-call,833,31.4472144225,34.4108559679
