phone_number,call_type,call_duration,call_location_longitude,call_location_latitude
050-2005360,out-call,27,31.4076998047,34.3772056976
050-2555719,in-call,1892,31.4589025502,34.4175639232
050-7336260,in-call,82,31.4554551542,34.3953543678
050-2904398,in-call,651,31.4504024551,34.4106787562
050-6229679,out-call,257,31.4153662754,34.3677567961
