phone_number,call_type,call_duration,call_location_longitude,call_location_latitude
050-7567420,out-call,49,31.4822545891,34.4475991821
050-2696674,in-call,173,31.4485690073,34.4142155502
050-2150321,in-call,499,31.4550695827,34.4303251468
050-1256176,out-call,109,31.4374016387,34.4053806182
050-9232642,in-call,36,31.4657949336,34.4364360651
050-1498038,out-call,20,31.4629601198,34.4367485534
050-9057821,out-call,3111,31.4676671962,34.4253619085
