phone_number,call_type,call_duration,call_location_longitude,call_location_latitude
050-5250601,in-call,3018,31.4516121205,34.3934617056
050-4870917,in-call,16,31.4738178998,34.4314487525
050-9445210,in-call,30,31.4679886778,34.4144973295
050-7569692,out-call,55,31.4399296746,34.3878041132
050-7146785,out-call,3146,31.4882339499,34.4833967546
050-6560051,in-call,14,31.4706239819,34.4458908909
050-1285481,in-call,116,31.4433547256,34.42009203
050-4109157,in-call,1674,31.4697586736,34.4484199851
