phone_number,call_type,call_duration,call_location_longitude,call_location_latitude
050-8484728,in-call,96,31.4680566906,34.4417004658
050-1563457,out-call,72,31.4649490171,34.4184875181
050-3753551,out-call,83,31.4657949336,34.4364360651
050-7738484,in-call,2978,31.4110004381,34.3753764133
050-2517110,out-call,53,31.4074602479,34.3786606795
