phone_number,call_type,call_duration,call_location_longitude,call_location_latitude
050-8460294,out-call,983,31.4450587573,34.4049500643
050-6490699,in-call,111,31.4876056266,34.4613907731
050-8249587,out-call,291,31.3939426712,34.3646349009
050-4441982,out-call,42,31.4126793943,34.3583697938
050-4112230,out-call,35,31.4718895537,34.4347838603
050-8666658,in-call,3271,31.4731744885,34.4179325345
050-1675940,out-call,64,31.4553769399,34.4155192155
050-2764535,in-call,96,31.4435155705,34.3881350064
