phone_number,call_type,call_duration,call_location_longitude,call_location_latitude
050-4132395,in-call,43,31.4660577298,34.4079282584
050-7446416,out-call,38,31.4625445411,34.4101872943
050-6521443,in-call,3573,31.4425597092,34.4213049479
050-8958939,out-call,113,31.3952726191,34.3397786409
050-1501024,in-call,112,31.4383538914,34.390182563
050-7998479,in-call,26,31.495242648,34.4551129446
050-8419914,out-call,110,31.4570160966,34.4152143112
