phone_number,call_type,call_duration,call_location_longitude,call_location_latitude
050-9190223,in-call,842,31.454678687,34.4232386497
050-6933087,in-call,684,31.4256964919,34.3832657649
050-4594964,in-call,44,31.41517641,34.3638453378
050-4176485,out-call,891,31.4366624523,34.3892339106
050-6441758,out-call,1022,31.4659661316,34.4341877249
050-8208304,out-call,105,31.4527512276,34.4123798941
