phone_number,call_type,call_duration,call_location_longitude,call_location_latitude
050-6378507,out-call,1922,31.4618056615,34.4246353741
050-2148911,in-call,421,31.4774417134,34.4353094538
050-9947729,in-call,1369,31.488467442,34.4577555303
050-5766181,in-call,52,31.4386164116,34.3876718497
050-4353305,out-call,2634,31.4472144225,34.4108559679
050-8236558,out-call,2447,31.4134078974,34.3747990297
050-3215208,out-call,2266,31.4411469288,34.3848542905
050-1480169,in-call,60,31.4029504962,34.3769749208
050-7514552,out-call,2232,31.4781905522,34.4356728132
