phone_number,call_type,call_duration,call_location_longitude,call_location_latitude
050-7782780,out-call,45,31.4625445411,34.4101872943
050-9267564,out-call,76,31.4732587922,34.4183869306
050-3399081,in-call,521,31.4906266893,34.4518966143
050-7969306,in-call,22,31.4729315423,34.430320774
050-9695153,in-call,128,31.4506183831,34.4207788623
050-8192884,out-call,77,31.4548823465,34.4110189924
050-9920836,out-call,163,31.403288522,34.3680427228
