phone_number,call_type,call_duration,call_location_longitude,call_location_latitude
050-4538295,in-call,57,31.4089373657,34.3742653867
050-4151128,out-call,118,31.4811733089,34.4568951042
050-3795281,in-call,85,31.4002294108,34.3723867023
050-6342727,out-call,3510,31.4669462916,34.4229747372
050-4674927,in-call,1551,31.4609313664,34.4154692021
050-8781003,in-call,116,31.5070788272,34.4728254897
050-8235682,in-call,33,31.4678455448,34.4383812811
050-6206892,out-call,68,31.4131642775,34.3726206349
050-5758485,in-call,3444,31.451605186,34.4154005181
