phone_number,call_type,call_duration,call_location_longitude,call_location_latitude
050-3764359,out-call,27,31.4670342737,34.4356202174
050-5208655,in-call,84,31.4852800398,34.4519195986
050-2317715,out-call,114,31.4549834184,34.4127475594
050-1964436,out-call,1513,31.4126188359,34.3673573675
050-9583214,in-call,102,31.4308499621,34.3771985954
050-8950139,in-call,79,31.4920069421,34.4613606418
050-1608726,out-call,1046,31.4381298121,34.4037566023
050-7886852,out-call,58,31.4469822804,34.4020055465
050-2770396,in-call,2932,31.3963059824,34.3452942379
