phone_number,call_type,call_duration,call_location_longitude,call_location_latitude
050-1084671,in-call,21,31.3744801863,34.3349152657
050-1275699,in-call,1897,31.4475585857,34.4191477948
050-2612983,in-call,70,31.4732587922,34.4183869306
050-1724710,in-call,1555,31.4699240011,34.4377186208
050-7034530,out-call,3106,31.4701321943,34.4199308947
050-2147382,out-call,27,31.4100600797,34.3674265126
