phone_number,call_type,call_duration,call_location_longitude,call_location_latitude
050-6337061,out-call,1482,31.4551593064,34.426053569
050-6861476,in-call,3255,31.498927409,34.4689473146
050-2397502,in-call,32,31.4586391967,34.4261292702
050-4522845,out-call,99,31.4549275034,34.3853803945
050-1353311,out-call,45,31.4605908411,34.4204224995
050-2817756,in-call,102,31.4802998088,34.4401269621
050-5969079,out-call,69,31.4734961428,34.4388343477
050-8598315,out-call,365,31.4149550432,34.3693477306
