phone_number,call_type,call_duration,call_location_longitude,call_location_latitude
050-5128220,in-call,35,31.4495657031,34.4098815214
050-8055258,in-call,117,31.4521291633,34.4093212001
050-8356297,out-call,15,31.4760281232,34.4242131305
050-5139311,out-call,2475,31.4112538776,34.3663592944
050-3047469,in-call,924,31.4024813161,34.3778386152
