phone_number,call_type,call_duration,call_location_longitude,call_location_latitude
050-4918388,out-call,17,31.4450385327,34.4131126074
050-5475037,in-call,38,31.4533933845,34.4112703392
050-8585006,out-call,23,31.4553581285,34.3985674939
050-5369133,out-call,992,31.4680504328,34.4174742757
050-1051825,in-call,3474,31.4679143696,34.4312024077
