phone_number,call_type,call_duration,call_location_longitude,call_location_latitude
050-4350108,out-call,668,31.4350490124,34.4035664414
050-8523958,out-call,90,31.4541613266,34.4097906396
050-4518169,in-call,3191,31.4480979116,34.3921802785
050-8950667,out-call,15,31.4315133452,34.3790408067
050-1648112,in-call,3047,31.4561545503,34.4191888413
050-7031973,out-call,24,31.4113522651,34.3578729126
050-6948877,in-call,916,31.4690800257,34.4300803229
050-2151569,in-call,73,31.4251422862,34.3862052546
