phone_number,call_type,call_duration,call_location_longitude,call_location_latitude
050-8931136,in-call,66,31.4584658889,34.4230255727
050-8332274,out-call,44,31.4509979795,34.4133352017
050-9042194,out-call,1313,31.4443278142,34.411670786
050-2539311,in-call,51,31.4681061059,34.4258609779
050-2188883,in-call,2558,31.46330589,34.422038585
050-7491473,out-call,1190,31.4718895537,34.4347838603
050-9849791,out-call,23,31.4623187353,34.4015814418
050-9169848,out-call,115,31.4643038336,34.4183445336
050-2236738,out-call,58,31.4141475232,34.3665807147
