phone_number,call_type,call_duration,call_location_longitude,call_location_latitude
050-4659981,in-call,280,31.4743509373,34.4375978216
050-3890619,out-call,2796,31.4459724626,34.4172132266
050-4234749,in-call,19,31.4456415728,34.4115709592
050-4616752,in-call,1844,31.4583345168,34.4144751743
050-4958175,in-call,62,31.4729728058,34.4229730263
050-9171944,in-call,17,31.4526051462,34.4144973507
050-8596491,out-call,20,31.4558231428,34.4087345933
