phone_number,call_type,call_duration,call_location_longitude,call_location_latitude
050-8340096,out-call,28,31.497388001,34.4630613619
050-2294698,in-call,117,31.4624619274,34.4191628555
050-8123687,in-call,956,31.466795227,34.4350809917
050-4070636,in-call,81,31.4727316909,34.4222488928
050-4569055,in-call,1568,31.4900344689,34.4602066217
