phone_number,call_type,call_duration,call_location_longitude,call_location_latitude
050-2245083,out-call,2142,31.4608420296,34.4125979292
050-4236740,out-call,111,31.4510043438,34.4149088315
050-3490044,out-call,377,31.4571264098,34.4204431006
050-2181329,out-call,3186,31.4182880245,34.3656544451
050-8831148,in-call,113,31.4686885818,34.4236799668
050-9468143,in-call,3447,31.4436661271,34.4155319331
050-2161940,in-call,84,31.4713650916,34.4358437109
050-1684677,in-call,17,31.3892280586,34.3440058983
050-1298159,out-call,1673,31.4164582266,34.3670051976
