phone_number,call_type,call_duration,call_location_longitude,call_location_latitude
050-2335207,out-call,53,31.4220985229,34.3624456702
050-2451407,out-call,82,31.4538688432,34.413819924
050-5971854,in-call,21,31.4516121205,34.3934617056
050-7539469,out-call,1930,31.4134644892,34.3651939632
050-4347798,out-call,3249,31.5022838329,34.4607094246
050-7938786,out-call,1992,31.4884287946,34.4514734756
050-2450080,in-call,80,31.4502529621,34.4127684209
050-3102697,out-call,50,31.3901026739,34.3402012135
050-7076660,out-call,241,31.403288522,34.3680427228
