phone_number,call_type,call_duration,call_location_longitude,call_location_latitude
050-8549549,out-call,3516,31.4571681967,34.4131139939
050-8247644,in-call,61,31.4076598267,34.3706299202
050-3639249,out-call,97,31.4407366306,34.4191936608
050-8668051,out-call,1544,31.3633657675,34.3197222382
050-8941781,in-call,68,31.4262657911,34.4148051498
050-8590965,out-call,74,31.4573783606,34.4300424343
050-8912328,in-call,98,31.4837751093,34.4470801326
050-5547947,in-call,876,31.4532572839,34.421373547
050-9068540,out-call,514,31.4086358701,34.3727873562
