phone_number,call_type,call_duration,call_location_longitude,call_location_latitude
050-2826834,in-call,2993,31.449539313,34.4167891524
050-1961155,in-call,18,31.4483789595,34.4154736776
050-5166941,out-call,23,31.4036212139,34.3898814694
050-1450354,in-call,40,31.4457318593,34.4171718132
050-4116812,out-call,74,31.4580178996,34.4105446599
050-3334408,in-call,14,31.3952726191,34.3397786409
050-5739308,out-call,74,31.461231052,34.4298180709
050-5950095,in-call,1281,31.4567959219,34.398772746
050-6253862,in-call,593,31.4098649553,34.3770623682
