phone_number,call_type,call_duration,call_location_longitude,call_location_latitude
050-6734350,in-call,1729,31.4587385515,34.4221772351
050-7712126,in-call,95,31.4064791212,34.3769994513
050-8897466,out-call,2296,31.4344778312,34.4008182077
050-5505629,out-call,89,31.4267005798,34.3963364539
050-6688644,in-call,545,31.4387826586,34.4060848909
050-9144572,in-call,95,31.4577953876,34.4250642736
