phone_number,call_type,call_duration,call_location_longitude,call_location_latitude
050-9371943,in-call,116,31.4715332848,34.4174969269
050-8138848,in-call,98,31.4481594386,34.3889673265
050-1748822,in-call,1956,31.4587508674,34.4267716659
050-1654805,out-call,2020,31.4646858707,34.4288233107
050-5112466,out-call,71,31.4595630098,34.4121301989
