phone_number,call_type,call_duration,call_location_longitude,call_location_latitude
050-8491655,in-call,1028,31.3833024421,34.34533802
050-9044995,out-call,17,31.4111224953,34.3734676626
050-8722240,in-call,489,31.4710488275,34.4216892239
050-6650072,in-call,3390,31.4227429937,34.3843709456
050-8834498,out-call,3261,31.4374035238,34.4310437595
050-1398085,in-call,73,31.4301557906,34.3965497471
050-8511817,out-call,1868,31.4830061137,34.4419757549
050-2371961,in-call,18,31.4483811955,34.4037338055
