phone_number,call_type,call_duration,call_location_longitude,call_location_latitude
050-3788849,out-call,1460,31.4665325384,34.4287534473
050-6539476,out-call,639,31.4495077221,34.414873019
050-2170442,out-call,1826,31.4234066994,34.3862426644
050-2788844,out-call,113,31.4122489925,34.3904777894
050-6616611,in-call,832,31.3901026739,34.3402012135
