phone_number,call_type,call_duration,call_location_longitude,call_location_latitude
050-8549664,in-call,106,31.4712752617,34.4184139103
050-9687580,out-call,62,31.4428593257,34.4124923035
050-3325262,in-call,119,31.4584848962,34.4152607039
050-3663510,in-call,1020,31.4650275465,34.436264348
050-5191013,out-call,49,31.4670003414,34.4339450829
050-6939114,in-call,44,31.3986419097,34.3450072227
