phone_number,call_type,call_duration,call_location_longitude,call_location_latitude
050-8241173,in-call,134,31.4588859175,34.4188509213
050-6282003,out-call,16,31.4406027142,34.4116144824
050-8252530,in-call,95,31.3910194136,34.3385789383
050-8896509,in-call,1649,31.3556990622,34.3139109542
050-7275248,in-call,63,31.4140106792,34.3656523064
050-9092991,out-call,2486,31.4465110162,34.4100221695
