phone_number,call_type,call_duration,call_location_longitude,call_location_latitude
050-1805559,in-call,2155,31.4132093143,34.3731532704
050-9611874,in-call,980,31.4449586243,34.3778552556
050-6138773,out-call,2826,31.4079947652,34.3597839935
050-1103010,out-call,687,31.4308470278,34.3980367815
050-3053943,out-call,1388,31.3958146617,34.3651151127
