phone_number,call_type,call_duration,call_location_longitude,call_location_latitude
050-1882443,in-call,2807,31.4720391744,34.437622742
050-3205567,in-call,17,31.3768198619,34.3397222254
050-8330504,in-call,39,31.4920069421,34.4613606418
050-3094708,in-call,117,31.4714776163,34.4419515056
050-2309742,in-call,2666,31.3765369377,34.3338884187
050-2197245,out-call,72,31.493782536,34.467954757
