phone_number,call_type,call_duration,call_location_longitude,call_location_latitude
050-2168233,in-call,1603,31.4060673095,34.3702847061
050-3095322,in-call,189,31.4591242449,34.4269723722
050-6626395,out-call,3243,31.4456415728,34.4115709592
050-9563848,out-call,2119,31.4528006834,34.4153673588
050-3819425,out-call,108,31.396332952,34.3450235326
050-5689254,in-call,3020,31.4696806259,34.4177814993
050-5304005,in-call,43,31.3745792278,34.3215620429
050-9913160,in-call,24,31.4649313189,34.4233249471
050-4593764,in-call,70,31.4527398776,34.4163472893
