phone_number,call_type,call_duration,call_location_longitude,call_location_latitude
050-6872501,in-call,107,31.4470298881,34.4237580242
050-5372541,in-call,63,31.4882996,34.4450850922
050-6930419,in-call,3465,31.5087777831,34.462561031
050-7078845,out-call,125,31.3740133225,34.3402241536
050-4481266,in-call,64,31.4112265511,34.3754581187
