phone_number,call_type,call_duration,call_location_longitude,call_location_latitude
050-5894550,in-call,3121,31.4821755087,34.4453231272
050-3450234,out-call,374,31.4651889731,34.406717285
050-8113576,out-call,3293,31.4706239819,34.4458908909
050-8407662,in-call,190,31.4484662319,34.3824157451
050-4005325,in-call,102,31.4051969532,34.3670325635
