phone_number,call_type,call_duration,call_location_longitude,call_location_latitude
050-7547173,out-call,2047,31.4593869583,34.4167808802
050-9443372,out-call,13,31.4759934282,34.4195025259
050-1228485,out-call,925,31.3930225551,34.3437037118
050-9719918,out-call,848,31.422537047,34.3627287909
050-1284861,out-call,691,31.4118161217,34.3676211143
050-6977729,out-call,35,31.4328277996,34.3863938987
050-7965362,in-call,85,31.4595216132,34.3981675314
