phone_number,call_type,call_duration,call_location_longitude,call_location_latitude
050-6046277,out-call,2384,31.4645091024,34.4358113612
050-5591387,out-call,103,31.4298040718,34.377690843
050-6529701,out-call,2356,31.4486841192,34.4053449527
050-7022542,out-call,55,31.429075833,34.3964139297
050-7800976,out-call,75,31.3968057686,34.3663303276
050-1711152,out-call,1427,31.4339484613,34.4062443174
050-5339331,out-call,1270,31.435039995,34.4075832352
050-7887153,in-call,42,31.4239299264,34.3832579748
050-3468075,out-call,590,31.4829601287,34.4622451087
