phone_number,call_type,call_duration,call_location_longitude,call_location_latitude
050-4952337,in-call,1842,31.4287440014,34.396434082
050-2185941,out-call,50,31.4614425641,34.4183004286
050-2392266,out-call,82,31.4559481268,34.4080373082
050-5883279,out-call,115,31.4511113213,34.4327574836
050-5281745,out-call,54,31.442716165,34.3770518907
050-3469471,out-call,1432,31.3791227137,34.3304829087
050-6839034,out-call,1095,31.4676984334,34.4198188614
