phone_number,call_type,call_duration,call_location_longitude,call_location_latitude
050-5374131,out-call,87,31.4546087389,34.4050412356
050-4075222,in-call,37,31.4630057841,34.4204173661
050-8651573,out-call,22,31.4160932522,34.3717272746
050-8529121,out-call,1579,31.4694958681,34.4320858625
050-4365884,in-call,1419,31.4900344689,34.4602066217
050-9811014,in-call,770,31.4502281316,34.409914564
050-6656385,out-call,3457,31.4846512256,34.4406516352
