phone_number,call_type,call_duration,call_location_longitude,call_location_latitude
050-4505467,in-call,907,31.434622064,34.3998992529
050-2658251,out-call,118,31.4192497366,34.3571652901
050-5465482,out-call,3019,31.4366624523,34.3892339106
050-2774181,in-call,2132,31.4666696298,34.4326984553
050-2800869,out-call,1178,31.4389262405,34.3843009456
050-1357176,out-call,95,31.3849986303,34.335396071
