phone_number,call_type,call_duration,call_location_longitude,call_location_latitude
050-5789279,in-call,1744,31.5059273688,34.4666062296
050-5354764,in-call,110,31.4765382842,34.4317140747
050-2031043,in-call,67,31.4601009473,34.4252745002
050-5551795,in-call,1530,31.4710488275,34.4216892239
050-6944738,in-call,51,31.4436978347,34.3908686931
050-5707726,out-call,1790,31.4587774442,34.4239368312
