phone_number,call_type,call_duration,call_location_longitude,call_location_latitude
050-3824175,in-call,25,31.3856095577,34.3523626498
050-5749227,in-call,49,31.4720818017,34.4467268747
050-8575784,in-call,65,31.4540773638,34.4149581727
050-3818626,out-call,1079,31.4134078974,34.3747990297
050-3225256,out-call,89,31.4475585857,34.4191477948
050-9586329,out-call,1532,31.4399296746,34.3878041132
050-9305642,in-call,101,31.4158606961,34.3652032489
050-1067025,in-call,92,31.4519789645,34.4179423792
050-2670904,out-call,2461,31.4788245593,34.4367937171
