phone_number,call_type,call_duration,call_location_longitude,call_location_latitude
050-5573631,out-call,54,31.4230156708,34.3653991997
050-9808511,in-call,71,31.448632613,34.4125416375
050-9397955,out-call,93,31.481496339,34.4391709599
050-4118623,in-call,19,31.5149249794,34.4802158328
050-9996886,out-call,100,31.4760281232,34.4242131305
050-5608869,in-call,2326,31.4167806074,34.3681726443
