phone_number,call_type,call_duration,call_location_longitude,call_location_latitude
050-7109664,in-call,31,31.4552085376,34.4091235936
050-1372898,out-call,80,31.4145621614,34.368235777
050-7744014,in-call,57,31.403789421,34.348178598
050-1952023,in-call,305,31.4576716896,34.4293196467
050-7546473,out-call,2605,31.4565268768,34.4193475266
050-4456732,out-call,920,31.42185223,34.404546684
050-5304023,in-call,72,31.4617625879,34.4152957159
