phone_number,call_type,call_duration,call_location_longitude,call_location_latitude
050-7470792,in-call,20,31.4924646431,34.4636963084
050-8359381,in-call,55,31.46849095,34.4299624465
050-7142612,in-call,60,31.4434013224,34.3771407489
050-7265963,in-call,15,31.4570217227,34.43098793
050-7685668,out-call,1952,31.3934122881,34.3668388702
050-2611900,out-call,2661,31.4395143935,34.4073899566
