phone_number,call_type,call_duration,call_location_longitude,call_location_latitude
050-3726417,out-call,90,31.4644952698,34.4245331189
050-1785220,in-call,783,31.4112265511,34.3754581187
050-9546273,out-call,84,31.4524586653,34.4184930962
050-9504253,in-call,1484,31.4561545503,34.4191888413
050-1310032,in-call,2448,31.4682047924,34.434118173
050-6457164,out-call,24,31.4479220665,34.4176248284
