phone_number,call_type,call_duration,call_location_longitude,call_location_latitude
050-1395183,in-call,1942,31.4675068147,34.4143397995
050-6341890,out-call,72,31.4657461409,34.4291721565
050-2533291,out-call,2096,31.4633524327,34.4275985163
050-5907240,out-call,23,31.423576786,34.3838799301
050-9883184,out-call,2154,31.431982274,34.3779417294
