phone_number,call_type,call_duration,call_location_longitude,call_location_latitude
050-5473865,in-call,40,31.4666696298,34.4326984553
050-7603546,out-call,108,31.493782536,34.467954757
050-2500440,out-call,71,31.4637875588,34.4259704423
050-9250841,out-call,1280,31.472796634,34.4545441662
050-1189818,in-call,728,31.4882903037,34.4579899733
050-1662878,out-call,32,31.4877329536,34.4447988512
050-3832531,in-call,241,31.4503163262,34.4142343565
050-4754568,out-call,1025,31.4590830559,34.4152484485
