phone_number,call_type,call_duration,call_location_longitude,call_location_latitude
050-4410512,out-call,90,31.4822545891,34.4475991821
050-1960123,in-call,49,31.4608352914,34.4340042199
050-7644753,in-call,99,31.4947488772,34.4660401042
050-7146730,out-call,3491,31.442638495,34.4132172282
050-5081402,in-call,2146,31.4705479778,34.4067184269
