phone_number,call_type,call_duration,call_location_longitude,call_location_latitude
050-1493892,out-call,105,31.4510560457,34.3815078212
050-6754712,out-call,117,31.4620124154,34.4336684708
050-3173373,in-call,113,31.4164608455,34.3711477453
050-9301723,out-call,2710,31.4533553732,34.4123746236
050-3271726,out-call,68,31.3920961256,34.3435620885
050-9736581,out-call,12,31.4529557246,34.419748969
050-7635001,out-call,23,31.4664662402,34.4317588847
050-4879343,out-call,1992,31.4740235596,34.4327565465
