phone_number,call_type,call_duration,call_location_longitude,call_location_latitude
050-3407495,in-call,120,31.4587999872,34.4146625002
050-2783050,in-call,584,31.4565895909,34.4171446744
050-8714725,out-call,2593,31.455206742,34.4114880897
050-9710068,in-call,2804,31.4430393908,34.3768263383
050-8308675,out-call,93,31.4610149911,34.4189778929
050-3853543,in-call,92,31.4121403148,34.3610096848
050-2711418,out-call,2450,31.432898519,34.3787464338
