phone_number,call_type,call_duration,call_location_longitude,call_location_latitude
050-5089250,out-call,110,31.5149249794,34.4802158328
050-4325539,out-call,1999,31.4480979116,34.3921802785
050-2906879,in-call,31,31.4923675741,34.4694377543
050-9135881,out-call,33,31.4365493475,34.41282278
050-7553930,in-call,100,31.4434100947,34.3894049078
050-2571234,in-call,61,31.4125453373,34.3964115641
050-1260802,out-call,2438,31.4503163262,34.4142343565
050-2207775,in-call,37,31.4605861159,34.434972058
