phone_number,call_type,call_duration,call_location_longitude,call_location_latitude
050-7968687,out-call,58,31.4359778973,34.3880127589
050-9769203,out-call,21,31.4658189887,34.4299392234
050-5073899,out-call,70,31.5087777831,34.462561031
050-6293275,in-call,692,31.4689140199,34.4207482145
050-9485621,out-call,3219,31.4640685396,34.4219469919
050-9946658,in-call,36,31.4767386256,34.4442323259
