phone_number,call_type,call_duration,call_location_longitude,call_location_latitude
050-1962886,out-call,183,31.4785766596,34.4390004834
050-5805804,out-call,1219,31.4447702363,34.3911987043
050-8359398,out-call,12,31.4421308838,34.3859444957
050-1125324,in-call,120,31.4188933366,34.3712739888
050-6340034,in-call,868,31.452399155,34.4209333366
050-8286228,out-call,441,31.4399296746,34.3878041132
050-6189221,in-call,112,31.4416541641,34.4111617078
050-3499076,out-call,104,31.4292855574,34.3646004466
050-4259180,in-call,24,31.5090734048,34.4595040924
