phone_number,call_type,call_duration,call_location_longitude,call_location_latitude
050-6531067,in-call,767,31.4669462916,34.4229747372
050-1158480,in-call,66,31.4481774362,34.4139315542
050-7171576,in-call,19,31.3951061061,34.353593497
050-7366660,out-call,11,31.4618291398,34.4344809616
050-3352033,out-call,70,31.4606168039,34.4193484278
